%YAML 1.1
%TAG !u! tag:unity3d.com,2011:
--- !u!74 &7400000
AnimationClip:
  m_ObjectHideFlags: 0
  m_PrefabParentObject: {fileID: 0}
  m_PrefabInternal: {fileID: 0}
  m_Name: MaleBored
  serializedVersion: 6
  m_Legacy: 0
  m_Compressed: 0
  m_UseHighQualityCurve: 1
  m_RotationCurves: []
  m_CompressedRotationCurves: []
  m_EulerCurves:
  - curve:
      serializedVersion: 2
      m_Curve:
      - time: 0
        value: {x: 0, y: 0, z: 0.6659373}
        inSlope: {x: 0, y: 0, z: -0.078897774}
        outSlope: {x: 0, y: 0, z: -0.078897774}
        tangentMode: 0
      - time: 0.36666667
        value: {x: 0, y: 0, z: 0.63267684}
        inSlope: {x: 0, y: 0, z: -0.09987143}
        outSlope: {x: 0, y: 0, z: -0.09987143}
        tangentMode: 0
      - time: 0.68333334
        value: {x: 0, y: 0, z: 0.599897}
        inSlope: {x: 0, y: 0, z: -0.10518059}
        outSlope: {x: 0, y: 0, z: -0.10518059}
        tangentMode: 0
      - time: 1.3833333
        value: {x: 0, y: 0, z: 0.5335194}
        inSlope: {x: 0, y: 0, z: -0.07480496}
        outSlope: {x: 0, y: 0, z: -0.07480496}
        tangentMode: 0
      - time: 2
        value: {x: 0, y: 0, z: 0.50814176}
        inSlope: {x: 0, y: 0, z: 0}
        outSlope: {x: 0, y: 0, z: 0}
        tangentMode: 0
      - time: 4.0666666
        value: {x: 0, y: 0, z: 0.6659373}
        inSlope: {x: 0, y: 0, z: 0.076352686}
        outSlope: {x: 0, y: 0, z: 0.076352686}
        tangentMode: 0
      m_PreInfinity: 2
      m_PostInfinity: 2
      m_RotationOrder: 4
    path: Body/Torso/TorsoUpper
  - curve:
      serializedVersion: 2
      m_Curve:
      - time: 0
        value: {x: 0, y: 0, z: 1.0115573}
        inSlope: {x: 0, y: 0, z: -11.731521}
        outSlope: {x: 0, y: 0, z: -11.731521}
        tangentMode: 0
      - time: 0.36666667
        value: {x: 0, y: 0, z: -3.2900002}
        inSlope: {x: 0, y: 0, z: 0}
        outSlope: {x: 0, y: 0, z: 0}
        tangentMode: 0
      - time: 0.68333334
        value: {x: 0, y: 0, z: -3.3390002}
        inSlope: {x: 0, y: 0, z: 0}
        outSlope: {x: 0, y: 0, z: 0}
        tangentMode: 0
      - time: 2.6333334
        value: {x: 0, y: 0, z: -9.156}
        inSlope: {x: 0, y: 0, z: 0}
        outSlope: {x: 0, y: 0, z: 0}
        tangentMode: 0
      - time: 4.0666666
        value: {x: 0, y: 0, z: 1.0115573}
        inSlope: {x: 0, y: 0, z: 7.0936456}
        outSlope: {x: 0, y: 0, z: 7.0936456}
        tangentMode: 0
      m_PreInfinity: 2
      m_PostInfinity: 2
      m_RotationOrder: 4
    path: Body/Torso/TorsoUpper/Neck
  - curve:
      serializedVersion: 2
      m_Curve:
      - time: 0
        value: {x: 0, y: 0, z: -1.2730848}
        inSlope: {x: 0, y: 0, z: -15.081588}
        outSlope: {x: 0, y: 0, z: -15.081588}
        tangentMode: 0
      - time: 0.36666667
        value: {x: 0, y: 0, z: -6.8030005}
        inSlope: {x: 0, y: 0, z: 0}
        outSlope: {x: 0, y: 0, z: 0}
        tangentMode: 0
      - time: 0.68333334
        value: {x: 0, y: 0, z: -0.989}
        inSlope: {x: 0, y: 0, z: 0}
        outSlope: {x: 0, y: 0, z: 0}
        tangentMode: 0
      - time: 1.3833333
        value: {x: 0, y: 0, z: 3.0410001}
        inSlope: {x: 0, y: 0, z: 0}
        outSlope: {x: 0, y: 0, z: 0}
        tangentMode: 0
      - time: 3.55
        value: {x: 0, y: 0, z: -3.9120002}
        inSlope: {x: 0, y: 0, z: 0}
        outSlope: {x: 0, y: 0, z: 0}
        tangentMode: 0
      - time: 4.0666666
        value: {x: 0, y: 0, z: -1.2730848}
        inSlope: {x: 0, y: 0, z: 5.1075788}
        outSlope: {x: 0, y: 0, z: 5.1075788}
        tangentMode: 0
      m_PreInfinity: 2
      m_PostInfinity: 2
      m_RotationOrder: 4
    path: Body/Torso/TorsoUpper/Neck/Head
  - curve:
      serializedVersion: 2
      m_Curve:
      - time: 0
        value: {x: 0, y: 0, z: -1.3005841}
        inSlope: {x: -0, y: -0, z: -38.76392}
        outSlope: {x: -0, y: -0, z: -38.76392}
        tangentMode: 0
      - time: 0.36666667
        value: {x: -0, y: -0, z: -18.282846}
        inSlope: {x: 0, y: 0, z: -51.14316}
        outSlope: {x: 0, y: 0, z: -51.14316}
        tangentMode: 0
      - time: 0.68333334
        value: {x: 0, y: 0, z: -34.41047}
        inSlope: {x: 0, y: 0, z: -48.684193}
        outSlope: {x: 0, y: 0, z: -48.684193}
        tangentMode: 0
      - time: 1.3833333
        value: {x: 0, y: 0, z: -54.924004}
        inSlope: {x: 0, y: 0, z: 0}
        outSlope: {x: 0, y: 0, z: 0}
        tangentMode: 0
      - time: 1.85
        value: {x: 0, y: 0, z: -51.954002}
        inSlope: {x: 0, y: 0, z: 0}
        outSlope: {x: 0, y: 0, z: 0}
        tangentMode: 0
      - time: 2.3333333
        value: {x: 0, y: 0, z: -54.924004}
        inSlope: {x: 0, y: 0, z: 0}
        outSlope: {x: 0, y: 0, z: 0}
        tangentMode: 0
      - time: 2.7833333
        value: {x: 0, y: 0, z: -51.954002}
        inSlope: {x: 0, y: 0, z: 0}
        outSlope: {x: 0, y: 0, z: 0}
        tangentMode: 0
      - time: 3.2833333
        value: {x: 0, y: 0, z: -54.924004}
        inSlope: {x: 0, y: 0, z: 0}
        outSlope: {x: 0, y: 0, z: 0}
        tangentMode: 0
      - time: 3.7833333
        value: {x: 0, y: 0, z: -25.174242}
        inSlope: {x: 0, y: 0, z: 91.10864}
        outSlope: {x: 0, y: 0, z: 91.10864}
        tangentMode: 0
      - time: 4.0666666
        value: {x: 0, y: 0, z: -1.3005841}
        inSlope: {x: 0, y: 0, z: 68.45544}
        outSlope: {x: 0, y: 0, z: 68.45544}
        tangentMode: 0
      m_PreInfinity: 2
      m_PostInfinity: 2
      m_RotationOrder: 4
    path: Body/Torso/TorsoUpper/LeftArm
  - curve:
      serializedVersion: 2
      m_Curve:
      - time: 0
        value: {x: 0, y: 0, z: -0.01296367}
        inSlope: {x: 0, y: 0, z: -155.58559}
        outSlope: {x: 0, y: 0, z: -155.58559}
        tangentMode: 0
      - time: 0.7
        value: {x: 0, y: 0, z: -108.92287}
        inSlope: {x: 0, y: 0, z: 0}
        outSlope: {x: 0, y: 0, z: 0}
        tangentMode: 0
      - time: 1.2
        value: {x: 0, y: 0, z: -108.34901}
        inSlope: {x: 0, y: 0, z: 0}
        outSlope: {x: 0, y: 0, z: 0}
        tangentMode: 0
      - time: 1.65
        value: {x: 0, y: 0, z: -108.92287}
        inSlope: {x: 0, y: 0, z: 0}
        outSlope: {x: 0, y: 0, z: 0}
        tangentMode: 0
      - time: 2.15
        value: {x: 0, y: 0, z: -108.34901}
        inSlope: {x: 0, y: 0, z: 0}
        outSlope: {x: 0, y: 0, z: 0}
        tangentMode: 0
      - time: 2.6333334
        value: {x: 0, y: 0, z: -108.92287}
        inSlope: {x: 0, y: 0, z: 0}
        outSlope: {x: 0, y: 0, z: 0}
        tangentMode: 0
      - time: 3.1
        value: {x: 0, y: 0, z: -108.34901}
        inSlope: {x: 0, y: 0, z: 0}
        outSlope: {x: 0, y: 0, z: 0}
        tangentMode: 0
      - time: 4.0666666
        value: {x: 0, y: 0, z: -0.01296367}
        inSlope: {x: 0, y: 0, z: 112.07177}
        outSlope: {x: 0, y: 0, z: 112.07177}
        tangentMode: 0
      m_PreInfinity: 2
      m_PostInfinity: 2
      m_RotationOrder: 4
    path: Body/Torso/TorsoUpper/LeftArm/LeftForearm
  - curve:
      serializedVersion: 2
      m_Curve:
      - time: 0
        value: {x: 0, y: 0, z: -1.1776321}
        inSlope: {x: 0, y: 0, z: 26.666271}
        outSlope: {x: 0, y: 0, z: 26.666271}
        tangentMode: 0
      - time: 0.36666667
        value: {x: 0, y: 0, z: 8.6}
        inSlope: {x: 0, y: 0, z: 0}
        outSlope: {x: 0, y: 0, z: 0}
        tangentMode: 0
      - time: 0.68333334
        value: {x: 0, y: 0, z: 4.8605943}
        inSlope: {x: 0, y: 0, z: -20.522623}
        outSlope: {x: 0, y: 0, z: -20.522623}
        tangentMode: 0
      - time: 0.8666667
        value: {x: 0, y: 0, z: 0.69184613}
        inSlope: {x: 0, y: 0, z: -23.917341}
        outSlope: {x: 0, y: 0, z: -23.917341}
        tangentMode: 0
      - time: 1.3833333
        value: {x: 0, y: 0, z: -7.6150002}
        inSlope: {x: 0, y: 0, z: 0}
        outSlope: {x: 0, y: 0, z: 0}
        tangentMode: 0
      - time: 1.85
        value: {x: 0, y: 0, z: 11.617001}
        inSlope: {x: 0, y: 0, z: 0}
        outSlope: {x: 0, y: 0, z: 0}
        tangentMode: 0
      - time: 2.3333333
        value: {x: 0, y: 0, z: -7.6150002}
        inSlope: {x: 0, y: 0, z: 0}
        outSlope: {x: 0, y: 0, z: 0}
        tangentMode: 0
      - time: 2.7833333
        value: {x: 0, y: 0, z: 11.617001}
        inSlope: {x: 0, y: 0, z: 0}
        outSlope: {x: 0, y: 0, z: 0}
        tangentMode: 0
      - time: 3.2833333
        value: {x: 0, y: 0, z: -7.6150002}
        inSlope: {x: 0, y: 0, z: 0}
        outSlope: {x: 0, y: 0, z: 0}
        tangentMode: 0
      - time: 3.7833333
        value: {x: 0, y: 0, z: 11.617001}
        inSlope: {x: 0, y: 0, z: 0}
        outSlope: {x: 0, y: 0, z: 0}
        tangentMode: 0
      - time: 4.0666666
        value: {x: 0, y: 0, z: -1.1776321}
        inSlope: {x: 0, y: 0, z: -45.15753}
        outSlope: {x: 0, y: 0, z: -45.15753}
        tangentMode: 0
      m_PreInfinity: 2
      m_PostInfinity: 2
      m_RotationOrder: 4
    path: Body/Torso/TorsoUpper/LeftArm/LeftForearm/LeftHand
  - curve:
      serializedVersion: 2
      m_Curve:
      - time: 0
        value: {x: 0, y: 0, z: 0}
        inSlope: {x: 0, y: 0, z: -4.428293}
        outSlope: {x: 0, y: 0, z: -4.428293}
        tangentMode: 0
      - time: 0.68333334
        value: {x: 0, y: 0, z: -3.0260003}
        inSlope: {x: 0, y: 0, z: 0}
        outSlope: {x: 0, y: 0, z: 0}
        tangentMode: 0
      - time: 4.0666666
        value: {x: 0, y: 0, z: 0}
        inSlope: {x: 0, y: 0, z: 0.8943843}
        outSlope: {x: 0, y: 0, z: 0.8943843}
        tangentMode: 0
      m_PreInfinity: 2
      m_PostInfinity: 2
      m_RotationOrder: 4
    path: Body/RightLeg
  - curve:
      serializedVersion: 2
      m_Curve:
      - time: 0
        value: {x: 0, y: 0, z: 0}
        inSlope: {x: 0, y: 0, z: 8.237561}
        outSlope: {x: 0, y: 0, z: 8.237561}
        tangentMode: 0
      - time: 0.68333334
        value: {x: 0, y: 0, z: 5.629}
        inSlope: {x: 0, y: 0, z: 0}
        outSlope: {x: 0, y: 0, z: 0}
        tangentMode: 0
      - time: 4.0666666
        value: {x: 0, y: 0, z: 0}
        inSlope: {x: 0, y: 0, z: -1.663744}
        outSlope: {x: 0, y: 0, z: -1.663744}
        tangentMode: 0
      m_PreInfinity: 2
      m_PostInfinity: 2
      m_RotationOrder: 4
    path: Body/RightLeg/RightLegLower
  - curve:
      serializedVersion: 2
      m_Curve:
      - time: 0
        value: {x: 0, y: 0, z: 0}
        inSlope: {x: 0, y: 0, z: -11.653172}
        outSlope: {x: 0, y: 0, z: -11.653172}
        tangentMode: 0
      - time: 0.68333334
        value: {x: 0, y: 0, z: -7.9630003}
        inSlope: {x: 0, y: 0, z: 0}
        outSlope: {x: 0, y: 0, z: 0}
        tangentMode: 0
      - time: 4.0666666
        value: {x: 0, y: 0, z: 0}
        inSlope: {x: 0, y: 0, z: 2.3535962}
        outSlope: {x: 0, y: 0, z: 2.3535962}
        tangentMode: 0
      m_PreInfinity: 2
      m_PostInfinity: 2
      m_RotationOrder: 4
    path: Body/RightLeg/RightLegLower/RightShoe
  - curve:
      serializedVersion: 2
      m_Curve:
      - time: 0
        value: {x: 0, y: 0, z: 0}
        inSlope: {x: 0, y: 0, z: -7.216098}
        outSlope: {x: 0, y: 0, z: -7.216098}
        tangentMode: 0
      - time: 0.68333334
        value: {x: 0, y: 0, z: -4.931}
        inSlope: {x: 0, y: 0, z: 0}
        outSlope: {x: 0, y: 0, z: 0}
        tangentMode: 0
      - time: 4.0666666
        value: {x: 0, y: 0, z: 0}
        inSlope: {x: 0, y: 0, z: 1.4574386}
        outSlope: {x: 0, y: 0, z: 1.4574386}
        tangentMode: 0
      m_PreInfinity: 2
      m_PostInfinity: 2
      m_RotationOrder: 4
    path: Body/LeftLeg
  - curve:
      serializedVersion: 2
      m_Curve:
      - time: 0
        value: {x: 0, y: 0, z: 0}
        inSlope: {x: 0, y: 0, z: 15.534147}
        outSlope: {x: 0, y: 0, z: 15.534147}
        tangentMode: 0
      - time: 0.68333334
        value: {x: 0, y: 0, z: 10.615001}
        inSlope: {x: 0, y: 0, z: 0}
        outSlope: {x: 0, y: 0, z: 0}
        tangentMode: 0
      - time: 4.0666666
        value: {x: 0, y: 0, z: 0}
        inSlope: {x: 0, y: 0, z: -3.1374388}
        outSlope: {x: 0, y: 0, z: -3.1374388}
        tangentMode: 0
      m_PreInfinity: 2
      m_PostInfinity: 2
      m_RotationOrder: 4
    path: Body/LeftLeg/LeftLegLower
  - curve:
      serializedVersion: 2
      m_Curve:
      - time: 0
        value: {x: 0, y: 0, z: 0}
        inSlope: {x: 0, y: 0, z: -10.858538}
        outSlope: {x: 0, y: 0, z: -10.858538}
        tangentMode: 0
      - time: 0.68333334
        value: {x: 0, y: 0, z: -7.4200006}
        inSlope: {x: 0, y: 0, z: 0}
        outSlope: {x: 0, y: 0, z: 0}
        tangentMode: 0
      - time: 4.0666666
        value: {x: 0, y: 0, z: 0}
        inSlope: {x: 0, y: 0, z: 2.1931038}
        outSlope: {x: 0, y: 0, z: 2.1931038}
        tangentMode: 0
      m_PreInfinity: 2
      m_PostInfinity: 2
      m_RotationOrder: 4
    path: Body/LeftLeg/LeftLegLower/LeftShoe
  - curve:
      serializedVersion: 2
      m_Curve:
      - time: 0
        value: {x: 0, y: 0, z: -3.3817556}
        inSlope: {x: 0, y: 0, z: 9.7723255}
        outSlope: {x: 0, y: 0, z: 9.7723255}
        tangentMode: 0
      - time: 0.68333334
        value: {x: 0, y: 0, z: 3.2960002}
        inSlope: {x: 0, y: 0, z: 3.8993022}
        outSlope: {x: 0, y: 0, z: 3.8993022}
        tangentMode: 0
      - time: 4.0666666
        value: {x: 0, y: 0, z: -3.3817556}
        inSlope: {x: 0, y: 0, z: -1.973721}
        outSlope: {x: 0, y: 0, z: -1.973721}
        tangentMode: 0
      m_PreInfinity: 2
      m_PostInfinity: 2
      m_RotationOrder: 4
    path: Body/Waist
  - curve:
      serializedVersion: 2
      m_Curve:
      - time: 0
        value: {x: 0, y: 0, z: -0.18738948}
        inSlope: {x: 0, y: 0, z: -7.9053445}
        outSlope: {x: 0, y: 0, z: -7.9053445}
        tangentMode: 0
      - time: 1.05
        value: {x: 0, y: 0, z: -8.488001}
        inSlope: {x: 0, y: 0, z: -3.9526722}
        outSlope: {x: 0, y: 0, z: -3.9526722}
        tangentMode: 0
      - time: 3.3666666
        value: {x: 0, y: 0, z: -8.488001}
        inSlope: {x: 0, y: 0, z: 5.929008}
        outSlope: {x: 0, y: 0, z: 5.929008}
        tangentMode: 0
      - time: 4.0666666
        value: {x: 0, y: 0, z: -0.18738948}
        inSlope: {x: 0, y: 0, z: 11.858016}
        outSlope: {x: 0, y: 0, z: 11.858016}
        tangentMode: 0
      m_PreInfinity: 2
      m_PostInfinity: 2
      m_RotationOrder: 4
    path: Body/Torso/TorsoUpper/RightArm/RightForearm
  - curve:
      serializedVersion: 2
      m_Curve:
      - time: 0
        value: {x: 0, y: 0, z: 0.00000042688677}
        inSlope: {x: 0, y: 0, z: -9.06}
        outSlope: {x: 0, y: 0, z: -9.06}
        tangentMode: 0
      - time: 1.5
        value: {x: 0, y: 0, z: -13.590001}
        inSlope: {x: 0, y: 0, z: -1.8825974}
        outSlope: {x: 0, y: 0, z: -1.8825974}
        tangentMode: 0
      - time: 4.0666666
        value: {x: 0, y: 0, z: 0.00000042688677}
        inSlope: {x: 0, y: 0, z: 5.2948055}
        outSlope: {x: 0, y: 0, z: 5.2948055}
        tangentMode: 0
      m_PreInfinity: 2
      m_PostInfinity: 2
      m_RotationOrder: 4
    path: Body/Torso/TorsoUpper/Neck/Head/Face/Left/LeftEyebrow
  - curve:
      serializedVersion: 2
      m_Curve:
      - time: 0
        value: {x: 0, y: 0, z: 0}
        inSlope: {x: 0, y: 0, z: 7.776667}
        outSlope: {x: 0, y: 0, z: 7.776667}
        tangentMode: 0
      - time: 1.5
        value: {x: 0, y: 0, z: 11.665001}
        inSlope: {x: 0, y: 0, z: 1.6159308}
        outSlope: {x: 0, y: 0, z: 1.6159308}
        tangentMode: 0
      - time: 4.0666666
        value: {x: 0, y: 0, z: 0}
        inSlope: {x: 0, y: 0, z: -4.5448055}
        outSlope: {x: 0, y: 0, z: -4.5448055}
        tangentMode: 0
      m_PreInfinity: 2
      m_PostInfinity: 2
      m_RotationOrder: 4
    path: Body/Torso/TorsoUpper/Neck/Head/Face/Right/RightEyebrow
  m_PositionCurves:
  - curve:
      serializedVersion: 2
      m_Curve:
      - time: 0
        value: {x: 0, y: 11.462, z: 0}
        inSlope: {x: 0, y: -0.23707274, z: 0}
        outSlope: {x: 0, y: -0.23707274, z: 0}
        tangentMode: 0
      - time: 0.68333334
        value: {x: 0, y: 11.3, z: 0}
        inSlope: {x: 0, y: -0.09459552, z: 0}
        outSlope: {x: 0, y: -0.09459552, z: 0}
        tangentMode: 0
      - time: 4.0666666
        value: {x: 0, y: 11.462, z: 0}
        inSlope: {x: 0, y: 0.04788169, z: 0}
        outSlope: {x: 0, y: 0.04788169, z: 0}
        tangentMode: 0
      m_PreInfinity: 2
      m_PostInfinity: 2
      m_RotationOrder: 4
    path: Body/Torso
  - curve:
      serializedVersion: 2
      m_Curve:
      - time: 0
        value: {x: 0.073999405, y: 9.837, z: 0}
        inSlope: {x: -0.12292595, y: -0.010243857, z: 0}
        outSlope: {x: -0.12292595, y: -0.010243857, z: 0}
        tangentMode: 0
      - time: 0.68333334
        value: {x: -0.01, y: 9.83, z: 0}
        inSlope: {x: -0.061462976, y: -0.047978688, z: 0}
        outSlope: {x: -0.061462976, y: -0.047978688, z: 0}
        tangentMode: 0
      - time: 1.3833333
        value: {x: -0.01, y: 9.77, z: 0}
        inSlope: {x: 0.015652062, y: -0.030372392, z: 0}
        outSlope: {x: 0.015652062, y: -0.030372392, z: 0}
        tangentMode: 0
      - time: 4.0666666
        value: {x: 0.073999405, y: 9.837, z: 0}
        inSlope: {x: 0.031304125, y: 0.024968734, z: 0}
        outSlope: {x: 0.031304125, y: 0.024968734, z: 0}
        tangentMode: 0
      m_PreInfinity: 2
      m_PostInfinity: 2
      m_RotationOrder: 4
    path: Body/Waist
  m_ScaleCurves: []
  m_FloatCurves:
  - curve:
      serializedVersion: 2
      m_Curve:
      - time: 0
        value: 1
        inSlope: Infinity
        outSlope: Infinity
        tangentMode: 31
      - time: 1.3333334
        value: 0
        inSlope: Infinity
        outSlope: Infinity
        tangentMode: 31
      - time: 2.1
        value: 1
        inSlope: Infinity
        outSlope: Infinity
        tangentMode: 31
      - time: 4.0666666
        value: 1
        inSlope: Infinity
        outSlope: Infinity
        tangentMode: 31
      m_PreInfinity: 2
      m_PostInfinity: 2
      m_RotationOrder: 4
    attribute: m_IsActive
    path: Body/Torso/TorsoUpper/Neck/Head/Face/MouthClosed
    classID: 1
    script: {fileID: 0}
  - curve:
      serializedVersion: 2
      m_Curve:
      - time: 0
        value: 0
        inSlope: Infinity
        outSlope: Infinity
        tangentMode: 31
      - time: 1.4166666
        value: 1
        inSlope: Infinity
        outSlope: Infinity
        tangentMode: 31
      - time: 1.8
        value: 0
        inSlope: Infinity
        outSlope: Infinity
        tangentMode: 31
      - time: 4.0666666
        value: 0
        inSlope: Infinity
        outSlope: Infinity
        tangentMode: 31
      m_PreInfinity: 2
      m_PostInfinity: 2
      m_RotationOrder: 4
    attribute: m_IsActive
    path: Body/Torso/TorsoUpper/Neck/Head/Face/MouthOpen2
    classID: 1
    script: {fileID: 0}
  - curve:
      serializedVersion: 2
      m_Curve:
      - time: 0
        value: 0
        inSlope: Infinity
        outSlope: Infinity
        tangentMode: 31
      - time: 1.3333334
        value: 1
        inSlope: Infinity
        outSlope: Infinity
        tangentMode: 31
      - time: 1.4166666
        value: 0
        inSlope: Infinity
        outSlope: Infinity
        tangentMode: 31
      - time: 1.8
        value: 1
        inSlope: Infinity
        outSlope: Infinity
        tangentMode: 31
      - time: 2.1
        value: 0
        inSlope: Infinity
        outSlope: Infinity
        tangentMode: 31
      - time: 4.0666666
        value: 0
        inSlope: Infinity
        outSlope: Infinity
        tangentMode: 31
      m_PreInfinity: 2
      m_PostInfinity: 2
      m_RotationOrder: 4
    attribute: m_IsActive
    path: Body/Torso/TorsoUpper/Neck/Head/Face/MouthOpen1
    classID: 1
    script: {fileID: 0}
  m_PPtrCurves: []
  m_SampleRate: 60
  m_WrapMode: 0
  m_Bounds:
    m_Center: {x: 0, y: 0, z: 0}
    m_Extent: {x: 0, y: 0, z: 0}
  m_ClipBindingConstant:
    genericBindings:
    - path: 17307992
      attribute: 1
      script: {fileID: 0}
      classID: 4
      customType: 0
      isPPtrCurve: 0
    - path: 1013027270
      attribute: 1
      script: {fileID: 0}
      classID: 4
      customType: 0
      isPPtrCurve: 0
    - path: 2157539374
      attribute: 4
      script: {fileID: 0}
      classID: 4
      customType: 14
      isPPtrCurve: 0
    - path: 4166763380
      attribute: 4
      script: {fileID: 0}
      classID: 4
      customType: 14
      isPPtrCurve: 0
    - path: 1997562997
      attribute: 4
      script: {fileID: 0}
      classID: 4
      customType: 14
      isPPtrCurve: 0
    - path: 3095407969
      attribute: 4
      script: {fileID: 0}
      classID: 4
      customType: 14
      isPPtrCurve: 0
    - path: 541443673
      attribute: 4
      script: {fileID: 0}
      classID: 4
      customType: 14
      isPPtrCurve: 0
    - path: 464622508
      attribute: 4
      script: {fileID: 0}
      classID: 4
      customType: 14
      isPPtrCurve: 0
    - path: 3697623316
      attribute: 4
      script: {fileID: 0}
      classID: 4
      customType: 14
      isPPtrCurve: 0
    - path: 2440267433
      attribute: 4
      script: {fileID: 0}
      classID: 4
      customType: 14
      isPPtrCurve: 0
    - path: 60502102
      attribute: 4
      script: {fileID: 0}
      classID: 4
      customType: 14
      isPPtrCurve: 0
    - path: 1536821247
      attribute: 4
      script: {fileID: 0}
      classID: 4
      customType: 14
      isPPtrCurve: 0
    - path: 1982359513
      attribute: 4
      script: {fileID: 0}
      classID: 4
      customType: 14
      isPPtrCurve: 0
    - path: 3445643512
      attribute: 4
      script: {fileID: 0}
      classID: 4
      customType: 14
      isPPtrCurve: 0
    - path: 1013027270
      attribute: 4
      script: {fileID: 0}
      classID: 4
      customType: 14
      isPPtrCurve: 0
    - path: 2224152727
      attribute: 4
      script: {fileID: 0}
      classID: 4
      customType: 14
      isPPtrCurve: 0
    - path: 1701800160
      attribute: 4
      script: {fileID: 0}
      classID: 4
      customType: 14
      isPPtrCurve: 0
    - path: 4044341784
      attribute: 4
      script: {fileID: 0}
      classID: 4
      customType: 14
      isPPtrCurve: 0
    - path: 1030089362
      attribute: 2086281974
      script: {fileID: 0}
      classID: 1
      customType: 0
      isPPtrCurve: 0
    - path: 1792941468
      attribute: 2086281974
      script: {fileID: 0}
      classID: 1
      customType: 0
      isPPtrCurve: 0
    - path: 4090973222
      attribute: 2086281974
      script: {fileID: 0}
      classID: 1
      customType: 0
      isPPtrCurve: 0
    pptrCurveMapping: []
  m_AnimationClipSettings:
    serializedVersion: 2
    m_AdditiveReferencePoseClip: {fileID: 0}
    m_AdditiveReferencePoseTime: 0
    m_StartTime: 0
    m_StopTime: 4.0666666
    m_OrientationOffsetY: 0
    m_Level: 0
    m_CycleOffset: 0
    m_HasAdditiveReferencePose: 0
    m_LoopTime: 0
    m_LoopBlend: 0
    m_LoopBlendOrientation: 0
    m_LoopBlendPositionY: 0
    m_LoopBlendPositionXZ: 0
    m_KeepOriginalOrientation: 0
    m_KeepOriginalPositionY: 1
    m_KeepOriginalPositionXZ: 0
    m_HeightFromFeet: 0
    m_Mirror: 0
  m_EditorCurves:
  - curve:
      serializedVersion: 2
      m_Curve:
      - time: 0
        value: 0
        inSlope: 0
        outSlope: 0
        tangentMode: 10
      - time: 0.36666667
        value: 0
        inSlope: 0
        outSlope: 0
        tangentMode: 0
      - time: 0.68333334
        value: 0
        inSlope: 0
        outSlope: 0
        tangentMode: 0
      - time: 1.3833333
        value: 0
        inSlope: 0
        outSlope: 0
        tangentMode: 0
      - time: 4.0666666
        value: 0
        inSlope: 0
        outSlope: 0
        tangentMode: 10
      m_PreInfinity: 2
      m_PostInfinity: 2
      m_RotationOrder: 4
    attribute: localEulerAnglesRaw.x
    path: Body/Torso/TorsoUpper
    classID: 4
    script: {fileID: 0}
  - curve:
      serializedVersion: 2
      m_Curve:
      - time: 0
        value: 0
        inSlope: 0
        outSlope: 0
        tangentMode: 10
      - time: 0.36666667
        value: 0
        inSlope: 0
        outSlope: 0
        tangentMode: 0
      - time: 0.68333334
        value: 0
        inSlope: 0
        outSlope: 0
        tangentMode: 0
      - time: 1.3833333
        value: 0
        inSlope: 0
        outSlope: 0
        tangentMode: 0
      - time: 4.0666666
        value: 0
        inSlope: 0
        outSlope: 0
        tangentMode: 10
      m_PreInfinity: 2
      m_PostInfinity: 2
      m_RotationOrder: 4
    attribute: localEulerAnglesRaw.y
    path: Body/Torso/TorsoUpper
    classID: 4
    script: {fileID: 0}
  - curve:
      serializedVersion: 2
      m_Curve:
      - time: 0
        value: 0.6659373
        inSlope: -0.078897774
        outSlope: -0.078897774
        tangentMode: 10
      - time: 2
        value: 0.50814176
        inSlope: 0
        outSlope: 0
        tangentMode: 0
      - time: 4.0666666
        value: 0.6659373
        inSlope: 0.076352686
        outSlope: 0.076352686
        tangentMode: 10
      m_PreInfinity: 2
      m_PostInfinity: 2
      m_RotationOrder: 4
    attribute: localEulerAnglesRaw.z
    path: Body/Torso/TorsoUpper
    classID: 4
    script: {fileID: 0}
  - curve:
      serializedVersion: 2
      m_Curve:
      - time: 0
        value: 0
        inSlope: 0
        outSlope: 0
        tangentMode: 10
      - time: 0.36666667
        value: 0
        inSlope: 0
        outSlope: 0
        tangentMode: 0
      - time: 0.68333334
        value: 0
        inSlope: 0
        outSlope: 0
        tangentMode: 0
      - time: 2.6333334
        value: 0
        inSlope: 0
        outSlope: 0
        tangentMode: 0
      - time: 4.0666666
        value: 0
        inSlope: 0
        outSlope: 0
        tangentMode: 10
      m_PreInfinity: 2
      m_PostInfinity: 2
      m_RotationOrder: 4
    attribute: localEulerAnglesRaw.x
    path: Body/Torso/TorsoUpper/Neck
    classID: 4
    script: {fileID: 0}
  - curve:
      serializedVersion: 2
      m_Curve:
      - time: 0
        value: 0
        inSlope: 0
        outSlope: 0
        tangentMode: 10
      - time: 0.36666667
        value: 0
        inSlope: 0
        outSlope: 0
        tangentMode: 0
      - time: 0.68333334
        value: 0
        inSlope: 0
        outSlope: 0
        tangentMode: 0
      - time: 2.6333334
        value: 0
        inSlope: 0
        outSlope: 0
        tangentMode: 0
      - time: 4.0666666
        value: 0
        inSlope: 0
        outSlope: 0
        tangentMode: 10
      m_PreInfinity: 2
      m_PostInfinity: 2
      m_RotationOrder: 4
    attribute: localEulerAnglesRaw.y
    path: Body/Torso/TorsoUpper/Neck
    classID: 4
    script: {fileID: 0}
  - curve:
      serializedVersion: 2
      m_Curve:
      - time: 0
        value: 1.0115573
        inSlope: -11.731521
        outSlope: -11.731521
        tangentMode: 10
      - time: 0.36666667
        value: -3.2900002
        inSlope: 0
        outSlope: 0
        tangentMode: 0
      - time: 0.68333334
        value: -3.3390002
        inSlope: 0
        outSlope: 0
        tangentMode: 0
      - time: 2.6333334
        value: -9.156
        inSlope: 0
        outSlope: 0
        tangentMode: 0
      - time: 4.0666666
        value: 1.0115573
        inSlope: 7.0936456
        outSlope: 7.0936456
        tangentMode: 10
      m_PreInfinity: 2
      m_PostInfinity: 2
      m_RotationOrder: 4
    attribute: localEulerAnglesRaw.z
    path: Body/Torso/TorsoUpper/Neck
    classID: 4
    script: {fileID: 0}
  - curve:
      serializedVersion: 2
      m_Curve:
      - time: 0
        value: 0
        inSlope: 0
        outSlope: 0
        tangentMode: 10
      - time: 0.36666667
        value: 0
        inSlope: 0
        outSlope: 0
        tangentMode: 0
      - time: 0.68333334
        value: 0
        inSlope: 0
        outSlope: 0
        tangentMode: 0
      - time: 1.3833333
        value: 0
        inSlope: 0
        outSlope: 0
        tangentMode: 0
      - time: 3.55
        value: 0
        inSlope: 0
        outSlope: 0
        tangentMode: 0
      - time: 4.0666666
        value: 0
        inSlope: 0
        outSlope: 0
        tangentMode: 10
      m_PreInfinity: 2
      m_PostInfinity: 2
      m_RotationOrder: 4
    attribute: localEulerAnglesRaw.x
    path: Body/Torso/TorsoUpper/Neck/Head
    classID: 4
    script: {fileID: 0}
  - curve:
      serializedVersion: 2
      m_Curve:
      - time: 0
        value: 0
        inSlope: 0
        outSlope: 0
        tangentMode: 10
      - time: 0.36666667
        value: 0
        inSlope: 0
        outSlope: 0
        tangentMode: 0
      - time: 0.68333334
        value: 0
        inSlope: 0
        outSlope: 0
        tangentMode: 0
      - time: 1.3833333
        value: 0
        inSlope: 0
        outSlope: 0
        tangentMode: 0
      - time: 3.55
        value: 0
        inSlope: 0
        outSlope: 0
        tangentMode: 0
      - time: 4.0666666
        value: 0
        inSlope: 0
        outSlope: 0
        tangentMode: 10
      m_PreInfinity: 2
      m_PostInfinity: 2
      m_RotationOrder: 4
    attribute: localEulerAnglesRaw.y
    path: Body/Torso/TorsoUpper/Neck/Head
    classID: 4
    script: {fileID: 0}
  - curve:
      serializedVersion: 2
      m_Curve:
      - time: 0
        value: -1.2730848
        inSlope: -15.081588
        outSlope: -15.081588
        tangentMode: 10
      - time: 0.36666667
        value: -6.8030005
        inSlope: 0
        outSlope: 0
        tangentMode: 0
      - time: 0.68333334
        value: -0.989
        inSlope: 0
        outSlope: 0
        tangentMode: 0
      - time: 1.3833333
        value: 3.0410001
        inSlope: 0
        outSlope: 0
        tangentMode: 0
      - time: 3.55
        value: -3.9120002
        inSlope: 0
        outSlope: 0
        tangentMode: 0
      - time: 4.0666666
        value: -1.2730848
        inSlope: 5.1075788
        outSlope: 5.1075788
        tangentMode: 10
      m_PreInfinity: 2
      m_PostInfinity: 2
      m_RotationOrder: 4
    attribute: localEulerAnglesRaw.z
    path: Body/Torso/TorsoUpper/Neck/Head
    classID: 4
    script: {fileID: 0}
  - curve:
      serializedVersion: 2
      m_Curve:
      - time: 0
        value: 0
        inSlope: -0
        outSlope: -0
        tangentMode: 10
      - time: 0.36666667
        value: -0
        inSlope: 0
        outSlope: 0
        tangentMode: 0
      - time: 0.68333334
        value: 0
        inSlope: 0
        outSlope: 0
        tangentMode: 0
      - time: 1.3833333
        value: 0
        inSlope: 0
        outSlope: 0
        tangentMode: 0
      - time: 1.85
        value: 0
        inSlope: 0
        outSlope: 0
        tangentMode: 0
      - time: 2.3333333
        value: 0
        inSlope: 0
        outSlope: 0
        tangentMode: 0
      - time: 2.7833333
        value: 0
        inSlope: 0
        outSlope: 0
        tangentMode: 0
      - time: 3.2833333
        value: 0
        inSlope: 0
        outSlope: 0
        tangentMode: 0
      - time: 3.7833333
        value: 0
        inSlope: 0
        outSlope: 0
        tangentMode: 0
      - time: 4.0666666
        value: 0
        inSlope: 0
        outSlope: 0
        tangentMode: 10
      m_PreInfinity: 2
      m_PostInfinity: 2
      m_RotationOrder: 4
    attribute: localEulerAnglesRaw.x
    path: Body/Torso/TorsoUpper/LeftArm
    classID: 4
    script: {fileID: 0}
  - curve:
      serializedVersion: 2
      m_Curve:
      - time: 0
        value: 0
        inSlope: -0
        outSlope: -0
        tangentMode: 10
      - time: 0.36666667
        value: -0
        inSlope: 0
        outSlope: 0
        tangentMode: 0
      - time: 0.68333334
        value: 0
        inSlope: 0
        outSlope: 0
        tangentMode: 0
      - time: 1.3833333
        value: 0
        inSlope: 0
        outSlope: 0
        tangentMode: 0
      - time: 1.85
        value: 0
        inSlope: 0
        outSlope: 0
        tangentMode: 0
      - time: 2.3333333
        value: 0
        inSlope: 0
        outSlope: 0
        tangentMode: 0
      - time: 2.7833333
        value: 0
        inSlope: 0
        outSlope: 0
        tangentMode: 0
      - time: 3.2833333
        value: 0
        inSlope: 0
        outSlope: 0
        tangentMode: 0
      - time: 3.7833333
        value: 0
        inSlope: 0
        outSlope: 0
        tangentMode: 0
      - time: 4.0666666
        value: 0
        inSlope: 0
        outSlope: 0
        tangentMode: 10
      m_PreInfinity: 2
      m_PostInfinity: 2
      m_RotationOrder: 4
    attribute: localEulerAnglesRaw.y
    path: Body/Torso/TorsoUpper/LeftArm
    classID: 4
    script: {fileID: 0}
  - curve:
      serializedVersion: 2
      m_Curve:
      - time: 0
        value: -1.3005841
        inSlope: -38.76392
        outSlope: -38.76392
        tangentMode: 10
      - time: 1.3833333
        value: -54.924004
        inSlope: 0
        outSlope: 0
        tangentMode: 0
      - time: 1.85
        value: -51.954002
        inSlope: 0
        outSlope: 0
        tangentMode: 0
      - time: 2.3333333
        value: -54.924004
        inSlope: 0
        outSlope: 0
        tangentMode: 0
      - time: 2.7833333
        value: -51.954002
        inSlope: 0
        outSlope: 0
        tangentMode: 0
      - time: 3.2833333
        value: -54.924004
        inSlope: 0
        outSlope: 0
        tangentMode: 0
      - time: 4.0666666
        value: -1.3005841
        inSlope: 68.45544
        outSlope: 68.45544
        tangentMode: 10
      m_PreInfinity: 2
      m_PostInfinity: 2
      m_RotationOrder: 4
    attribute: localEulerAnglesRaw.z
    path: Body/Torso/TorsoUpper/LeftArm
    classID: 4
    script: {fileID: 0}
  - curve:
      serializedVersion: 2
      m_Curve:
      - time: 0
        value: 0
        inSlope: 0
        outSlope: 0
        tangentMode: 10
      - time: 0.7
        value: 0
        inSlope: 0
        outSlope: 0
        tangentMode: 0
      - time: 1.2
        value: 0
        inSlope: 0
        outSlope: 0
        tangentMode: 0
      - time: 1.65
        value: 0
        inSlope: 0
        outSlope: 0
        tangentMode: 0
      - time: 2.15
        value: 0
        inSlope: 0
        outSlope: 0
        tangentMode: 0
      - time: 2.6333334
        value: 0
        inSlope: 0
        outSlope: 0
        tangentMode: 0
      - time: 3.1
        value: 0
        inSlope: 0
        outSlope: 0
        tangentMode: 0
      - time: 4.0666666
        value: 0
        inSlope: 0
        outSlope: 0
        tangentMode: 10
      m_PreInfinity: 2
      m_PostInfinity: 2
      m_RotationOrder: 4
    attribute: localEulerAnglesRaw.x
    path: Body/Torso/TorsoUpper/LeftArm/LeftForearm
    classID: 4
    script: {fileID: 0}
  - curve:
      serializedVersion: 2
      m_Curve:
      - time: 0
        value: 0
        inSlope: 0
        outSlope: 0
        tangentMode: 10
      - time: 0.7
        value: 0
        inSlope: 0
        outSlope: 0
        tangentMode: 0
      - time: 1.2
        value: 0
        inSlope: 0
        outSlope: 0
        tangentMode: 0
      - time: 1.65
        value: 0
        inSlope: 0
        outSlope: 0
        tangentMode: 0
      - time: 2.15
        value: 0
        inSlope: 0
        outSlope: 0
        tangentMode: 0
      - time: 2.6333334
        value: 0
        inSlope: 0
        outSlope: 0
        tangentMode: 0
      - time: 3.1
        value: 0
        inSlope: 0
        outSlope: 0
        tangentMode: 0
      - time: 4.0666666
        value: 0
        inSlope: 0
        outSlope: 0
        tangentMode: 10
      m_PreInfinity: 2
      m_PostInfinity: 2
      m_RotationOrder: 4
    attribute: localEulerAnglesRaw.y
    path: Body/Torso/TorsoUpper/LeftArm/LeftForearm
    classID: 4
    script: {fileID: 0}
  - curve:
      serializedVersion: 2
      m_Curve:
      - time: 0
        value: -0.01296367
        inSlope: -155.58559
        outSlope: -155.58559
        tangentMode: 10
      - time: 0.7
        value: -108.92287
        inSlope: 0
        outSlope: 0
        tangentMode: 0
      - time: 1.2
        value: -108.34901
        inSlope: 0
        outSlope: 0
        tangentMode: 0
      - time: 1.65
        value: -108.92287
        inSlope: 0
        outSlope: 0
        tangentMode: 0
      - time: 2.15
        value: -108.34901
        inSlope: 0
        outSlope: 0
        tangentMode: 0
      - time: 2.6333334
        value: -108.92287
        inSlope: 0
        outSlope: 0
        tangentMode: 0
      - time: 3.1
        value: -108.34901
        inSlope: 0
        outSlope: 0
        tangentMode: 0
      - time: 4.0666666
        value: -0.01296367
        inSlope: 112.07177
        outSlope: 112.07177
        tangentMode: 10
      m_PreInfinity: 2
      m_PostInfinity: 2
      m_RotationOrder: 4
    attribute: localEulerAnglesRaw.z
    path: Body/Torso/TorsoUpper/LeftArm/LeftForearm
    classID: 4
    script: {fileID: 0}
  - curve:
      serializedVersion: 2
      m_Curve:
      - time: 0
        value: 0
        inSlope: 0
        outSlope: 0
        tangentMode: 10
      - time: 0.36666667
        value: 0
        inSlope: 0
        outSlope: 0
        tangentMode: 0
      - time: 0.68333334
        value: 0
        inSlope: 0
        outSlope: 0
        tangentMode: 0
      - time: 0.8666667
        value: 0
        inSlope: 0
        outSlope: 0
        tangentMode: 10
      - time: 1.3833333
        value: 0
        inSlope: 0
        outSlope: 0
        tangentMode: 0
      - time: 1.85
        value: 0
        inSlope: 0
        outSlope: 0
        tangentMode: 0
      - time: 2.3333333
        value: 0
        inSlope: 0
        outSlope: 0
        tangentMode: 0
      - time: 2.7833333
        value: 0
        inSlope: 0
        outSlope: 0
        tangentMode: 0
      - time: 3.2833333
        value: 0
        inSlope: 0
        outSlope: 0
        tangentMode: 0
      - time: 3.7833333
        value: 0
        inSlope: 0
        outSlope: 0
        tangentMode: 0
      - time: 4.0666666
        value: 0
        inSlope: 0
        outSlope: 0
        tangentMode: 10
      m_PreInfinity: 2
      m_PostInfinity: 2
      m_RotationOrder: 4
    attribute: localEulerAnglesRaw.x
    path: Body/Torso/TorsoUpper/LeftArm/LeftForearm/LeftHand
    classID: 4
    script: {fileID: 0}
  - curve:
      serializedVersion: 2
      m_Curve:
      - time: 0
        value: 0
        inSlope: 0
        outSlope: 0
        tangentMode: 10
      - time: 0.36666667
        value: 0
        inSlope: 0
        outSlope: 0
        tangentMode: 0
      - time: 0.68333334
        value: 0
        inSlope: 0
        outSlope: 0
        tangentMode: 0
      - time: 0.8666667
        value: 0
        inSlope: 0
        outSlope: 0
        tangentMode: 10
      - time: 1.3833333
        value: 0
        inSlope: 0
        outSlope: 0
        tangentMode: 0
      - time: 1.85
        value: 0
        inSlope: 0
        outSlope: 0
        tangentMode: 0
      - time: 2.3333333
        value: 0
        inSlope: 0
        outSlope: 0
        tangentMode: 0
      - time: 2.7833333
        value: 0
        inSlope: 0
        outSlope: 0
        tangentMode: 0
      - time: 3.2833333
        value: 0
        inSlope: 0
        outSlope: 0
        tangentMode: 0
      - time: 3.7833333
        value: 0
        inSlope: 0
        outSlope: 0
        tangentMode: 0
      - time: 4.0666666
        value: 0
        inSlope: 0
        outSlope: 0
        tangentMode: 10
      m_PreInfinity: 2
      m_PostInfinity: 2
      m_RotationOrder: 4
    attribute: localEulerAnglesRaw.y
    path: Body/Torso/TorsoUpper/LeftArm/LeftForearm/LeftHand
    classID: 4
    script: {fileID: 0}
  - curve:
      serializedVersion: 2
      m_Curve:
      - time: 0
        value: -1.1776321
        inSlope: 26.666271
        outSlope: 26.666271
        tangentMode: 10
      - time: 0.36666667
        value: 8.6
        inSlope: 0
        outSlope: 0
        tangentMode: 0
      - time: 1.3833333
        value: -7.6150002
        inSlope: 0
        outSlope: 0
        tangentMode: 0
      - time: 1.85
        value: 11.617001
        inSlope: 0
        outSlope: 0
        tangentMode: 0
      - time: 2.3333333
        value: -7.6150002
        inSlope: 0
        outSlope: 0
        tangentMode: 0
      - time: 2.7833333
        value: 11.617001
        inSlope: 0
        outSlope: 0
        tangentMode: 0
      - time: 3.2833333
        value: -7.6150002
        inSlope: 0
        outSlope: 0
        tangentMode: 0
      - time: 3.7833333
        value: 11.617001
        inSlope: 0
        outSlope: 0
        tangentMode: 0
      - time: 4.0666666
        value: -1.1776321
        inSlope: -45.15753
        outSlope: -45.15753
        tangentMode: 10
      m_PreInfinity: 2
      m_PostInfinity: 2
      m_RotationOrder: 4
    attribute: localEulerAnglesRaw.z
    path: Body/Torso/TorsoUpper/LeftArm/LeftForearm/LeftHand
    classID: 4
    script: {fileID: 0}
  - curve:
      serializedVersion: 2
      m_Curve:
      - time: 0
        value: 0
        inSlope: 0
        outSlope: 0
        tangentMode: 10
      - time: 0.68333334
        value: 0
        inSlope: 0
        outSlope: 0
        tangentMode: 10
      - time: 4.0666666
        value: 0
        inSlope: 0
        outSlope: 0
        tangentMode: 10
      m_PreInfinity: 2
      m_PostInfinity: 2
      m_RotationOrder: 4
    attribute: m_LocalPosition.x
    path: Body/Torso
    classID: 4
    script: {fileID: 0}
  - curve:
      serializedVersion: 2
      m_Curve:
      - time: 0
        value: 11.462
        inSlope: -0.23707274
        outSlope: -0.23707274
        tangentMode: 10
      - time: 0.68333334
        value: 11.3
        inSlope: -0.09459552
        outSlope: -0.09459552
        tangentMode: 10
      - time: 4.0666666
        value: 11.462
        inSlope: 0.04788169
        outSlope: 0.04788169
        tangentMode: 10
      m_PreInfinity: 2
      m_PostInfinity: 2
      m_RotationOrder: 4
    attribute: m_LocalPosition.y
    path: Body/Torso
    classID: 4
    script: {fileID: 0}
  - curve:
      serializedVersion: 2
      m_Curve:
      - time: 0
        value: 0
        inSlope: 0
        outSlope: 0
        tangentMode: 10
      - time: 0.68333334
        value: 0
        inSlope: 0
        outSlope: 0
        tangentMode: 10
      - time: 4.0666666
        value: 0
        inSlope: 0
        outSlope: 0
        tangentMode: 10
      m_PreInfinity: 2
      m_PostInfinity: 2
      m_RotationOrder: 4
    attribute: m_LocalPosition.z
    path: Body/Torso
    classID: 4
    script: {fileID: 0}
  - curve:
      serializedVersion: 2
      m_Curve:
      - time: 0
        value: 0
        inSlope: 0
        outSlope: 0
        tangentMode: 10
      - time: 0.68333334
        value: 0
        inSlope: 0
        outSlope: 0
        tangentMode: 0
      - time: 4.0666666
        value: 0
        inSlope: 0
        outSlope: 0
        tangentMode: 10
      m_PreInfinity: 2
      m_PostInfinity: 2
      m_RotationOrder: 4
    attribute: localEulerAnglesRaw.x
    path: Body/RightLeg
    classID: 4
    script: {fileID: 0}
  - curve:
      serializedVersion: 2
      m_Curve:
      - time: 0
        value: 0
        inSlope: 0
        outSlope: 0
        tangentMode: 10
      - time: 0.68333334
        value: 0
        inSlope: 0
        outSlope: 0
        tangentMode: 0
      - time: 4.0666666
        value: 0
        inSlope: 0
        outSlope: 0
        tangentMode: 10
      m_PreInfinity: 2
      m_PostInfinity: 2
      m_RotationOrder: 4
    attribute: localEulerAnglesRaw.y
    path: Body/RightLeg
    classID: 4
    script: {fileID: 0}
  - curve:
      serializedVersion: 2
      m_Curve:
      - time: 0
        value: 0
        inSlope: -4.428293
        outSlope: -4.428293
        tangentMode: 10
      - time: 0.68333334
        value: -3.0260003
        inSlope: 0
        outSlope: 0
        tangentMode: 0
      - time: 4.0666666
        value: 0
        inSlope: 0.8943843
        outSlope: 0.8943843
        tangentMode: 10
      m_PreInfinity: 2
      m_PostInfinity: 2
      m_RotationOrder: 4
    attribute: localEulerAnglesRaw.z
    path: Body/RightLeg
    classID: 4
    script: {fileID: 0}
  - curve:
      serializedVersion: 2
      m_Curve:
      - time: 0
        value: 0
        inSlope: 0
        outSlope: 0
        tangentMode: 10
      - time: 0.68333334
        value: 0
        inSlope: 0
        outSlope: 0
        tangentMode: 0
      - time: 4.0666666
        value: 0
        inSlope: 0
        outSlope: 0
        tangentMode: 10
      m_PreInfinity: 2
      m_PostInfinity: 2
      m_RotationOrder: 4
    attribute: localEulerAnglesRaw.x
    path: Body/RightLeg/RightLegLower
    classID: 4
    script: {fileID: 0}
  - curve:
      serializedVersion: 2
      m_Curve:
      - time: 0
        value: 0
        inSlope: 0
        outSlope: 0
        tangentMode: 10
      - time: 0.68333334
        value: 0
        inSlope: 0
        outSlope: 0
        tangentMode: 0
      - time: 4.0666666
        value: 0
        inSlope: 0
        outSlope: 0
        tangentMode: 10
      m_PreInfinity: 2
      m_PostInfinity: 2
      m_RotationOrder: 4
    attribute: localEulerAnglesRaw.y
    path: Body/RightLeg/RightLegLower
    classID: 4
    script: {fileID: 0}
  - curve:
      serializedVersion: 2
      m_Curve:
      - time: 0
        value: 0
        inSlope: 8.237561
        outSlope: 8.237561
        tangentMode: 10
      - time: 0.68333334
        value: 5.629
        inSlope: 0
        outSlope: 0
        tangentMode: 0
      - time: 4.0666666
        value: 0
        inSlope: -1.663744
        outSlope: -1.663744
        tangentMode: 10
      m_PreInfinity: 2
      m_PostInfinity: 2
      m_RotationOrder: 4
    attribute: localEulerAnglesRaw.z
    path: Body/RightLeg/RightLegLower
    classID: 4
    script: {fileID: 0}
  - curve:
      serializedVersion: 2
      m_Curve:
      - time: 0
        value: 0
        inSlope: 0
        outSlope: 0
        tangentMode: 10
      - time: 0.68333334
        value: 0
        inSlope: 0
        outSlope: 0
        tangentMode: 0
      - time: 4.0666666
        value: 0
        inSlope: 0
        outSlope: 0
        tangentMode: 10
      m_PreInfinity: 2
      m_PostInfinity: 2
      m_RotationOrder: 4
    attribute: localEulerAnglesRaw.x
    path: Body/RightLeg/RightLegLower/RightShoe
    classID: 4
    script: {fileID: 0}
  - curve:
      serializedVersion: 2
      m_Curve:
      - time: 0
        value: 0
        inSlope: 0
        outSlope: 0
        tangentMode: 10
      - time: 0.68333334
        value: 0
        inSlope: 0
        outSlope: 0
        tangentMode: 0
      - time: 4.0666666
        value: 0
        inSlope: 0
        outSlope: 0
        tangentMode: 10
      m_PreInfinity: 2
      m_PostInfinity: 2
      m_RotationOrder: 4
    attribute: localEulerAnglesRaw.y
    path: Body/RightLeg/RightLegLower/RightShoe
    classID: 4
    script: {fileID: 0}
  - curve:
      serializedVersion: 2
      m_Curve:
      - time: 0
        value: 0
        inSlope: -11.653172
        outSlope: -11.653172
        tangentMode: 10
      - time: 0.68333334
        value: -7.9630003
        inSlope: 0
        outSlope: 0
        tangentMode: 0
      - time: 4.0666666
        value: 0
        inSlope: 2.3535962
        outSlope: 2.3535962
        tangentMode: 10
      m_PreInfinity: 2
      m_PostInfinity: 2
      m_RotationOrder: 4
    attribute: localEulerAnglesRaw.z
    path: Body/RightLeg/RightLegLower/RightShoe
    classID: 4
    script: {fileID: 0}
  - curve:
      serializedVersion: 2
      m_Curve:
      - time: 0
        value: 0
        inSlope: 0
        outSlope: 0
        tangentMode: 10
      - time: 0.68333334
        value: 0
        inSlope: 0
        outSlope: 0
        tangentMode: 0
      - time: 4.0666666
        value: 0
        inSlope: 0
        outSlope: 0
        tangentMode: 10
      m_PreInfinity: 2
      m_PostInfinity: 2
      m_RotationOrder: 4
    attribute: localEulerAnglesRaw.x
    path: Body/LeftLeg
    classID: 4
    script: {fileID: 0}
  - curve:
      serializedVersion: 2
      m_Curve:
      - time: 0
        value: 0
        inSlope: 0
        outSlope: 0
        tangentMode: 10
      - time: 0.68333334
        value: 0
        inSlope: 0
        outSlope: 0
        tangentMode: 0
      - time: 4.0666666
        value: 0
        inSlope: 0
        outSlope: 0
        tangentMode: 10
      m_PreInfinity: 2
      m_PostInfinity: 2
      m_RotationOrder: 4
    attribute: localEulerAnglesRaw.y
    path: Body/LeftLeg
    classID: 4
    script: {fileID: 0}
  - curve:
      serializedVersion: 2
      m_Curve:
      - time: 0
        value: 0
        inSlope: -7.216098
        outSlope: -7.216098
        tangentMode: 10
      - time: 0.68333334
        value: -4.931
        inSlope: 0
        outSlope: 0
        tangentMode: 0
      - time: 4.0666666
        value: 0
        inSlope: 1.4574386
        outSlope: 1.4574386
        tangentMode: 10
      m_PreInfinity: 2
      m_PostInfinity: 2
      m_RotationOrder: 4
    attribute: localEulerAnglesRaw.z
    path: Body/LeftLeg
    classID: 4
    script: {fileID: 0}
  - curve:
      serializedVersion: 2
      m_Curve:
      - time: 0
        value: 0
        inSlope: 0
        outSlope: 0
        tangentMode: 10
      - time: 0.68333334
        value: 0
        inSlope: 0
        outSlope: 0
        tangentMode: 0
      - time: 4.0666666
        value: 0
        inSlope: 0
        outSlope: 0
        tangentMode: 10
      m_PreInfinity: 2
      m_PostInfinity: 2
      m_RotationOrder: 4
    attribute: localEulerAnglesRaw.x
    path: Body/LeftLeg/LeftLegLower
    classID: 4
    script: {fileID: 0}
  - curve:
      serializedVersion: 2
      m_Curve:
      - time: 0
        value: 0
        inSlope: 0
        outSlope: 0
        tangentMode: 10
      - time: 0.68333334
        value: 0
        inSlope: 0
        outSlope: 0
        tangentMode: 0
      - time: 4.0666666
        value: 0
        inSlope: 0
        outSlope: 0
        tangentMode: 10
      m_PreInfinity: 2
      m_PostInfinity: 2
      m_RotationOrder: 4
    attribute: localEulerAnglesRaw.y
    path: Body/LeftLeg/LeftLegLower
    classID: 4
    script: {fileID: 0}
  - curve:
      serializedVersion: 2
      m_Curve:
      - time: 0
        value: 0
        inSlope: 15.534147
        outSlope: 15.534147
        tangentMode: 10
      - time: 0.68333334
        value: 10.615001
        inSlope: 0
        outSlope: 0
        tangentMode: 0
      - time: 4.0666666
        value: 0
        inSlope: -3.1374388
        outSlope: -3.1374388
        tangentMode: 10
      m_PreInfinity: 2
      m_PostInfinity: 2
      m_RotationOrder: 4
    attribute: localEulerAnglesRaw.z
    path: Body/LeftLeg/LeftLegLower
    classID: 4
    script: {fileID: 0}
  - curve:
      serializedVersion: 2
      m_Curve:
      - time: 0
        value: 0
        inSlope: 0
        outSlope: 0
        tangentMode: 10
      - time: 0.68333334
        value: 0
        inSlope: 0
        outSlope: 0
        tangentMode: 0
      - time: 4.0666666
        value: 0
        inSlope: 0
        outSlope: 0
        tangentMode: 10
      m_PreInfinity: 2
      m_PostInfinity: 2
      m_RotationOrder: 4
    attribute: localEulerAnglesRaw.x
    path: Body/LeftLeg/LeftLegLower/LeftShoe
    classID: 4
    script: {fileID: 0}
  - curve:
      serializedVersion: 2
      m_Curve:
      - time: 0
        value: 0
        inSlope: 0
        outSlope: 0
        tangentMode: 10
      - time: 0.68333334
        value: 0
        inSlope: 0
        outSlope: 0
        tangentMode: 0
      - time: 4.0666666
        value: 0
        inSlope: 0
        outSlope: 0
        tangentMode: 10
      m_PreInfinity: 2
      m_PostInfinity: 2
      m_RotationOrder: 4
    attribute: localEulerAnglesRaw.y
    path: Body/LeftLeg/LeftLegLower/LeftShoe
    classID: 4
    script: {fileID: 0}
  - curve:
      serializedVersion: 2
      m_Curve:
      - time: 0
        value: 0
        inSlope: -10.858538
        outSlope: -10.858538
        tangentMode: 10
      - time: 0.68333334
        value: -7.4200006
        inSlope: 0
        outSlope: 0
        tangentMode: 0
      - time: 4.0666666
        value: 0
        inSlope: 2.1931038
        outSlope: 2.1931038
        tangentMode: 10
      m_PreInfinity: 2
      m_PostInfinity: 2
      m_RotationOrder: 4
    attribute: localEulerAnglesRaw.z
    path: Body/LeftLeg/LeftLegLower/LeftShoe
    classID: 4
    script: {fileID: 0}
  - curve:
      serializedVersion: 2
      m_Curve:
      - time: 0
        value: 0
        inSlope: 0
        outSlope: 0
        tangentMode: 10
      - time: 0.68333334
        value: 0
        inSlope: 0
        outSlope: 0
        tangentMode: 10
      - time: 4.0666666
        value: 0
        inSlope: 0
        outSlope: 0
        tangentMode: 10
      m_PreInfinity: 2
      m_PostInfinity: 2
      m_RotationOrder: 4
    attribute: localEulerAnglesRaw.x
    path: Body/Waist
    classID: 4
    script: {fileID: 0}
  - curve:
      serializedVersion: 2
      m_Curve:
      - time: 0
        value: 0
        inSlope: 0
        outSlope: 0
        tangentMode: 10
      - time: 0.68333334
        value: 0
        inSlope: 0
        outSlope: 0
        tangentMode: 10
      - time: 4.0666666
        value: 0
        inSlope: 0
        outSlope: 0
        tangentMode: 10
      m_PreInfinity: 2
      m_PostInfinity: 2
      m_RotationOrder: 4
    attribute: localEulerAnglesRaw.y
    path: Body/Waist
    classID: 4
    script: {fileID: 0}
  - curve:
      serializedVersion: 2
      m_Curve:
      - time: 0
        value: -3.3817556
        inSlope: 9.7723255
        outSlope: 9.7723255
        tangentMode: 10
      - time: 0.68333334
        value: 3.2960002
        inSlope: 3.8993022
        outSlope: 3.8993022
        tangentMode: 10
      - time: 4.0666666
        value: -3.3817556
        inSlope: -1.973721
        outSlope: -1.973721
        tangentMode: 10
      m_PreInfinity: 2
      m_PostInfinity: 2
      m_RotationOrder: 4
    attribute: localEulerAnglesRaw.z
    path: Body/Waist
    classID: 4
    script: {fileID: 0}
  - curve:
      serializedVersion: 2
      m_Curve:
      - time: 0
        value: 0.073999405
        inSlope: -0.12292595
        outSlope: -0.12292595
        tangentMode: 10
      - time: 0.68333334
        value: -0.01
        inSlope: -0.061462976
        outSlope: -0.061462976
        tangentMode: 10
      - time: 1.3833333
        value: -0.01
        inSlope: 0.015652062
        outSlope: 0.015652062
        tangentMode: 10
      - time: 4.0666666
        value: 0.073999405
        inSlope: 0.031304125
        outSlope: 0.031304125
        tangentMode: 10
      m_PreInfinity: 2
      m_PostInfinity: 2
      m_RotationOrder: 4
    attribute: m_LocalPosition.x
    path: Body/Waist
    classID: 4
    script: {fileID: 0}
  - curve:
      serializedVersion: 2
      m_Curve:
      - time: 0
        value: 9.837
        inSlope: -0.010243857
        outSlope: -0.010243857
        tangentMode: 10
      - time: 0.68333334
        value: 9.83
        inSlope: -0.047978688
        outSlope: -0.047978688
        tangentMode: 10
      - time: 1.3833333
        value: 9.77
        inSlope: -0.030372392
        outSlope: -0.030372392
        tangentMode: 10
      - time: 4.0666666
        value: 9.837
        inSlope: 0.024968734
        outSlope: 0.024968734
        tangentMode: 10
      m_PreInfinity: 2
      m_PostInfinity: 2
      m_RotationOrder: 4
    attribute: m_LocalPosition.y
    path: Body/Waist
    classID: 4
    script: {fileID: 0}
  - curve:
      serializedVersion: 2
      m_Curve:
      - time: 0
        value: 0
        inSlope: 0
        outSlope: 0
        tangentMode: 10
      - time: 0.68333334
        value: 0
        inSlope: 0
        outSlope: 0
        tangentMode: 10
      - time: 1.3833333
        value: 0
        inSlope: 0
        outSlope: 0
        tangentMode: 10
      - time: 4.0666666
        value: 0
        inSlope: 0
        outSlope: 0
        tangentMode: 10
      m_PreInfinity: 2
      m_PostInfinity: 2
      m_RotationOrder: 4
    attribute: m_LocalPosition.z
    path: Body/Waist
    classID: 4
    script: {fileID: 0}
  - curve:
      serializedVersion: 2
      m_Curve:
      - time: 0
        value: 1
        inSlope: Infinity
        outSlope: Infinity
        tangentMode: 31
      - time: 1.3333334
        value: 0
        inSlope: Infinity
        outSlope: Infinity
        tangentMode: 31
      - time: 2.1
        value: 1
        inSlope: Infinity
        outSlope: Infinity
        tangentMode: 31
      - time: 4.0666666
        value: 1
        inSlope: Infinity
        outSlope: Infinity
        tangentMode: 31
      m_PreInfinity: 2
      m_PostInfinity: 2
      m_RotationOrder: 4
    attribute: m_IsActive
    path: Body/Torso/TorsoUpper/Neck/Head/Face/MouthClosed
    classID: 1
    script: {fileID: 0}
  - curve:
      serializedVersion: 2
      m_Curve:
      - time: 0
        value: 0
        inSlope: Infinity
        outSlope: Infinity
        tangentMode: 31
      - time: 1.4166666
        value: 1
        inSlope: Infinity
        outSlope: Infinity
        tangentMode: 31
      - time: 1.8
        value: 0
        inSlope: Infinity
        outSlope: Infinity
        tangentMode: 31
      - time: 4.0666666
        value: 0
        inSlope: Infinity
        outSlope: Infinity
        tangentMode: 31
      m_PreInfinity: 2
      m_PostInfinity: 2
      m_RotationOrder: 4
    attribute: m_IsActive
    path: Body/Torso/TorsoUpper/Neck/Head/Face/MouthOpen2
    classID: 1
    script: {fileID: 0}
  - curve:
      serializedVersion: 2
      m_Curve:
      - time: 0
        value: 0
        inSlope: Infinity
        outSlope: Infinity
        tangentMode: 31
      - time: 1.3333334
        value: 1
        inSlope: Infinity
        outSlope: Infinity
        tangentMode: 31
      - time: 1.4166666
        value: 0
        inSlope: Infinity
        outSlope: Infinity
        tangentMode: 31
      - time: 1.8
        value: 1
        inSlope: Infinity
        outSlope: Infinity
        tangentMode: 31
      - time: 2.1
        value: 0
        inSlope: Infinity
        outSlope: Infinity
        tangentMode: 31
      - time: 4.0666666
        value: 0
        inSlope: Infinity
        outSlope: Infinity
        tangentMode: 31
      m_PreInfinity: 2
      m_PostInfinity: 2
      m_RotationOrder: 4
    attribute: m_IsActive
    path: Body/Torso/TorsoUpper/Neck/Head/Face/MouthOpen1
    classID: 1
    script: {fileID: 0}
  - curve:
      serializedVersion: 2
      m_Curve:
      - time: 0
        value: 0
        inSlope: 0
        outSlope: 0
        tangentMode: 10
      - time: 1.05
        value: 0
        inSlope: 0
        outSlope: 0
        tangentMode: 10
      - time: 3.3666666
        value: 0
        inSlope: 0
        outSlope: 0
        tangentMode: 10
      - time: 4.0666666
        value: 0
        inSlope: 0
        outSlope: 0
        tangentMode: 10
      m_PreInfinity: 2
      m_PostInfinity: 2
      m_RotationOrder: 4
    attribute: localEulerAnglesRaw.x
    path: Body/Torso/TorsoUpper/RightArm/RightForearm
    classID: 4
    script: {fileID: 0}
  - curve:
      serializedVersion: 2
      m_Curve:
      - time: 0
        value: 0
        inSlope: 0
        outSlope: 0
        tangentMode: 10
      - time: 1.05
        value: 0
        inSlope: 0
        outSlope: 0
        tangentMode: 10
      - time: 3.3666666
        value: 0
        inSlope: 0
        outSlope: 0
        tangentMode: 10
      - time: 4.0666666
        value: 0
        inSlope: 0
        outSlope: 0
        tangentMode: 10
      m_PreInfinity: 2
      m_PostInfinity: 2
      m_RotationOrder: 4
    attribute: localEulerAnglesRaw.y
    path: Body/Torso/TorsoUpper/RightArm/RightForearm
    classID: 4
    script: {fileID: 0}
  - curve:
      serializedVersion: 2
      m_Curve:
      - time: 0
        value: -0.18738948
        inSlope: -7.9053445
        outSlope: -7.9053445
        tangentMode: 10
      - time: 1.05
        value: -8.488001
        inSlope: -3.9526722
        outSlope: -3.9526722
        tangentMode: 10
      - time: 3.3666666
        value: -8.488001
        inSlope: 5.929008
        outSlope: 5.929008
        tangentMode: 10
      - time: 4.0666666
        value: -0.18738948
        inSlope: 11.858016
        outSlope: 11.858016
        tangentMode: 10
      m_PreInfinity: 2
      m_PostInfinity: 2
      m_RotationOrder: 4
    attribute: localEulerAnglesRaw.z
    path: Body/Torso/TorsoUpper/RightArm/RightForearm
    classID: 4
    script: {fileID: 0}
  - curve:
      serializedVersion: 2
      m_Curve:
      - time: 0
        value: 0
        inSlope: 0
        outSlope: 0
        tangentMode: 10
      - time: 1.5
        value: 0
        inSlope: 0
        outSlope: 0
        tangentMode: 10
      - time: 4.0666666
        value: 0
        inSlope: 0
        outSlope: 0
        tangentMode: 10
      m_PreInfinity: 2
      m_PostInfinity: 2
      m_RotationOrder: 4
    attribute: localEulerAnglesRaw.x
    path: Body/Torso/TorsoUpper/Neck/Head/Face/Left/LeftEyebrow
    classID: 4
    script: {fileID: 0}
  - curve:
      serializedVersion: 2
      m_Curve:
      - time: 0
        value: 0
        inSlope: 0
        outSlope: 0
        tangentMode: 10
      - time: 1.5
        value: 0
        inSlope: 0
        outSlope: 0
        tangentMode: 10
      - time: 4.0666666
        value: 0
        inSlope: 0
        outSlope: 0
        tangentMode: 10
      m_PreInfinity: 2
      m_PostInfinity: 2
      m_RotationOrder: 4
    attribute: localEulerAnglesRaw.y
    path: Body/Torso/TorsoUpper/Neck/Head/Face/Left/LeftEyebrow
    classID: 4
    script: {fileID: 0}
  - curve:
      serializedVersion: 2
      m_Curve:
      - time: 0
        value: 0.00000042688677
        inSlope: -9.06
        outSlope: -9.06
        tangentMode: 10
      - time: 1.5
        value: -13.590001
        inSlope: -1.8825974
        outSlope: -1.8825974
        tangentMode: 10
      - time: 4.0666666
        value: 0.00000042688677
        inSlope: 5.2948055
        outSlope: 5.2948055
        tangentMode: 10
      m_PreInfinity: 2
      m_PostInfinity: 2
      m_RotationOrder: 4
    attribute: localEulerAnglesRaw.z
    path: Body/Torso/TorsoUpper/Neck/Head/Face/Left/LeftEyebrow
    classID: 4
    script: {fileID: 0}
  - curve:
      serializedVersion: 2
      m_Curve:
      - time: 0
        value: 0
        inSlope: 0
        outSlope: 0
        tangentMode: 10
      - time: 1.5
        value: 0
        inSlope: 0
        outSlope: 0
        tangentMode: 10
      - time: 4.0666666
        value: 0
        inSlope: 0
        outSlope: 0
        tangentMode: 10
      m_PreInfinity: 2
      m_PostInfinity: 2
      m_RotationOrder: 4
    attribute: localEulerAnglesRaw.x
    path: Body/Torso/TorsoUpper/Neck/Head/Face/Right/RightEyebrow
    classID: 4
    script: {fileID: 0}
  - curve:
      serializedVersion: 2
      m_Curve:
      - time: 0
        value: 0
        inSlope: 0
        outSlope: 0
        tangentMode: 10
      - time: 1.5
        value: 0
        inSlope: 0
        outSlope: 0
        tangentMode: 10
      - time: 4.0666666
        value: 0
        inSlope: 0
        outSlope: 0
        tangentMode: 10
      m_PreInfinity: 2
      m_PostInfinity: 2
      m_RotationOrder: 4
    attribute: localEulerAnglesRaw.y
    path: Body/Torso/TorsoUpper/Neck/Head/Face/Right/RightEyebrow
    classID: 4
    script: {fileID: 0}
  - curve:
      serializedVersion: 2
      m_Curve:
      - time: 0
        value: 0
        inSlope: 7.776667
        outSlope: 7.776667
        tangentMode: 10
      - time: 1.5
        value: 11.665001
        inSlope: 1.6159308
        outSlope: 1.6159308
        tangentMode: 10
      - time: 4.0666666
        value: 0
        inSlope: -4.5448055
        outSlope: -4.5448055
        tangentMode: 10
      m_PreInfinity: 2
      m_PostInfinity: 2
      m_RotationOrder: 4
    attribute: localEulerAnglesRaw.z
    path: Body/Torso/TorsoUpper/Neck/Head/Face/Right/RightEyebrow
    classID: 4
    script: {fileID: 0}
  m_EulerEditorCurves:
  - curve:
      serializedVersion: 2
      m_Curve: []
      m_PreInfinity: 2
      m_PostInfinity: 2
      m_RotationOrder: 4
    attribute: m_LocalEulerAngles.z
    path: Body/RightLeg/RightLegLower
    classID: 4
    script: {fileID: 0}
  - curve:
      serializedVersion: 2
      m_Curve: []
      m_PreInfinity: 2
      m_PostInfinity: 2
      m_RotationOrder: 4
    attribute: m_LocalEulerAngles.y
    path: Body/RightLeg/RightLegLower
    classID: 4
    script: {fileID: 0}
  - curve:
      serializedVersion: 2
      m_Curve: []
      m_PreInfinity: 2
      m_PostInfinity: 2
      m_RotationOrder: 4
    attribute: m_LocalEulerAngles.x
    path: Body/RightLeg/RightLegLower
    classID: 4
    script: {fileID: 0}
  - curve:
      serializedVersion: 2
      m_Curve: []
      m_PreInfinity: 2
      m_PostInfinity: 2
      m_RotationOrder: 4
    attribute: m_LocalEulerAngles.z
    path: Body/Torso/TorsoUpper/LeftArm
    classID: 4
    script: {fileID: 0}
  - curve:
      serializedVersion: 2
      m_Curve: []
      m_PreInfinity: 2
      m_PostInfinity: 2
      m_RotationOrder: 4
    attribute: m_LocalEulerAngles.y
    path: Body/Torso/TorsoUpper/LeftArm
    classID: 4
    script: {fileID: 0}
  - curve:
      serializedVersion: 2
      m_Curve: []
      m_PreInfinity: 2
      m_PostInfinity: 2
      m_RotationOrder: 4
    attribute: m_LocalEulerAngles.x
    path: Body/Torso/TorsoUpper/LeftArm
    classID: 4
    script: {fileID: 0}
  - curve:
      serializedVersion: 2
      m_Curve: []
      m_PreInfinity: 2
      m_PostInfinity: 2
      m_RotationOrder: 4
    attribute: m_LocalEulerAngles.z
    path: Body/Waist
    classID: 4
    script: {fileID: 0}
  - curve:
      serializedVersion: 2
      m_Curve: []
      m_PreInfinity: 2
      m_PostInfinity: 2
      m_RotationOrder: 4
    attribute: m_LocalEulerAngles.y
    path: Body/Waist
    classID: 4
    script: {fileID: 0}
  - curve:
      serializedVersion: 2
      m_Curve: []
      m_PreInfinity: 2
      m_PostInfinity: 2
      m_RotationOrder: 4
    attribute: m_LocalEulerAngles.x
    path: Body/Waist
    classID: 4
    script: {fileID: 0}
  - curve:
      serializedVersion: 2
      m_Curve: []
      m_PreInfinity: 2
      m_PostInfinity: 2
      m_RotationOrder: 4
    attribute: m_LocalEulerAngles.z
    path: Body/Torso/TorsoUpper/Neck/Head/Face/Right/RightEyebrow
    classID: 4
    script: {fileID: 0}
  - curve:
      serializedVersion: 2
      m_Curve: []
      m_PreInfinity: 2
      m_PostInfinity: 2
      m_RotationOrder: 4
    attribute: m_LocalEulerAngles.y
    path: Body/Torso/TorsoUpper/Neck/Head/Face/Right/RightEyebrow
    classID: 4
    script: {fileID: 0}
  - curve:
      serializedVersion: 2
      m_Curve: []
      m_PreInfinity: 2
      m_PostInfinity: 2
      m_RotationOrder: 4
    attribute: m_LocalEulerAngles.x
    path: Body/Torso/TorsoUpper/Neck/Head/Face/Right/RightEyebrow
    classID: 4
    script: {fileID: 0}
  - curve:
      serializedVersion: 2
      m_Curve: []
      m_PreInfinity: 2
      m_PostInfinity: 2
      m_RotationOrder: 4
    attribute: m_LocalEulerAngles.z
    path: Body/Torso/TorsoUpper
    classID: 4
    script: {fileID: 0}
  - curve:
      serializedVersion: 2
      m_Curve: []
      m_PreInfinity: 2
      m_PostInfinity: 2
      m_RotationOrder: 4
    attribute: m_LocalEulerAngles.y
    path: Body/Torso/TorsoUpper
    classID: 4
    script: {fileID: 0}
  - curve:
      serializedVersion: 2
      m_Curve: []
      m_PreInfinity: 2
      m_PostInfinity: 2
      m_RotationOrder: 4
    attribute: m_LocalEulerAngles.x
    path: Body/Torso/TorsoUpper
    classID: 4
    script: {fileID: 0}
  - curve:
      serializedVersion: 2
      m_Curve: []
      m_PreInfinity: 2
      m_PostInfinity: 2
      m_RotationOrder: 4
    attribute: m_LocalEulerAngles.z
    path: Body/LeftLeg/LeftLegLower/LeftShoe
    classID: 4
    script: {fileID: 0}
  - curve:
      serializedVersion: 2
      m_Curve: []
      m_PreInfinity: 2
      m_PostInfinity: 2
      m_RotationOrder: 4
    attribute: m_LocalEulerAngles.y
    path: Body/LeftLeg/LeftLegLower/LeftShoe
    classID: 4
    script: {fileID: 0}
  - curve:
      serializedVersion: 2
      m_Curve: []
      m_PreInfinity: 2
      m_PostInfinity: 2
      m_RotationOrder: 4
    attribute: m_LocalEulerAngles.x
    path: Body/LeftLeg/LeftLegLower/LeftShoe
    classID: 4
    script: {fileID: 0}
  - curve:
      serializedVersion: 2
      m_Curve: []
      m_PreInfinity: 2
      m_PostInfinity: 2
      m_RotationOrder: 4
    attribute: m_LocalEulerAngles.z
    path: Body/Torso/TorsoUpper/Neck/Head
    classID: 4
    script: {fileID: 0}
  - curve:
      serializedVersion: 2
      m_Curve: []
      m_PreInfinity: 2
      m_PostInfinity: 2
      m_RotationOrder: 4
    attribute: m_LocalEulerAngles.y
    path: Body/Torso/TorsoUpper/Neck/Head
    classID: 4
    script: {fileID: 0}
  - curve:
      serializedVersion: 2
      m_Curve: []
      m_PreInfinity: 2
      m_PostInfinity: 2
      m_RotationOrder: 4
    attribute: m_LocalEulerAngles.x
    path: Body/Torso/TorsoUpper/Neck/Head
    classID: 4
    script: {fileID: 0}
  - curve:
      serializedVersion: 2
      m_Curve: []
      m_PreInfinity: 2
      m_PostInfinity: 2
      m_RotationOrder: 4
    attribute: m_LocalEulerAngles.z
    path: Body/Torso/TorsoUpper/LeftArm/LeftForearm/LeftHand
    classID: 4
    script: {fileID: 0}
  - curve:
      serializedVersion: 2
      m_Curve: []
      m_PreInfinity: 2
      m_PostInfinity: 2
      m_RotationOrder: 4
    attribute: m_LocalEulerAngles.y
    path: Body/Torso/TorsoUpper/LeftArm/LeftForearm/LeftHand
    classID: 4
    script: {fileID: 0}
  - curve:
      serializedVersion: 2
      m_Curve: []
      m_PreInfinity: 2
      m_PostInfinity: 2
      m_RotationOrder: 4
    attribute: m_LocalEulerAngles.x
    path: Body/Torso/TorsoUpper/LeftArm/LeftForearm/LeftHand
    classID: 4
    script: {fileID: 0}
  - curve:
      serializedVersion: 2
      m_Curve: []
      m_PreInfinity: 2
      m_PostInfinity: 2
      m_RotationOrder: 4
    attribute: m_LocalEulerAngles.z
    path: Body/LeftLeg/LeftLegLower
    classID: 4
    script: {fileID: 0}
  - curve:
      serializedVersion: 2
      m_Curve: []
      m_PreInfinity: 2
      m_PostInfinity: 2
      m_RotationOrder: 4
    attribute: m_LocalEulerAngles.y
    path: Body/LeftLeg/LeftLegLower
    classID: 4
    script: {fileID: 0}
  - curve:
      serializedVersion: 2
      m_Curve: []
      m_PreInfinity: 2
      m_PostInfinity: 2
      m_RotationOrder: 4
    attribute: m_LocalEulerAngles.x
    path: Body/LeftLeg/LeftLegLower
    classID: 4
    script: {fileID: 0}
  - curve:
      serializedVersion: 2
      m_Curve: []
      m_PreInfinity: 2
      m_PostInfinity: 2
      m_RotationOrder: 4
    attribute: m_LocalEulerAngles.z
    path: Body/RightLeg
    classID: 4
    script: {fileID: 0}
  - curve:
      serializedVersion: 2
      m_Curve: []
      m_PreInfinity: 2
      m_PostInfinity: 2
      m_RotationOrder: 4
    attribute: m_LocalEulerAngles.y
    path: Body/RightLeg
    classID: 4
    script: {fileID: 0}
  - curve:
      serializedVersion: 2
      m_Curve: []
      m_PreInfinity: 2
      m_PostInfinity: 2
      m_RotationOrder: 4
    attribute: m_LocalEulerAngles.x
    path: Body/RightLeg
    classID: 4
    script: {fileID: 0}
  - curve:
      serializedVersion: 2
      m_Curve: []
      m_PreInfinity: 2
      m_PostInfinity: 2
      m_RotationOrder: 4
    attribute: m_LocalEulerAngles.z
    path: Body/LeftLeg
    classID: 4
    script: {fileID: 0}
  - curve:
      serializedVersion: 2
      m_Curve: []
      m_PreInfinity: 2
      m_PostInfinity: 2
      m_RotationOrder: 4
    attribute: m_LocalEulerAngles.y
    path: Body/LeftLeg
    classID: 4
    script: {fileID: 0}
  - curve:
      serializedVersion: 2
      m_Curve: []
      m_PreInfinity: 2
      m_PostInfinity: 2
      m_RotationOrder: 4
    attribute: m_LocalEulerAngles.x
    path: Body/LeftLeg
    classID: 4
    script: {fileID: 0}
  - curve:
      serializedVersion: 2
      m_Curve: []
      m_PreInfinity: 2
      m_PostInfinity: 2
      m_RotationOrder: 4
    attribute: m_LocalEulerAngles.z
    path: Body/RightLeg/RightLegLower/RightShoe
    classID: 4
    script: {fileID: 0}
  - curve:
      serializedVersion: 2
      m_Curve: []
      m_PreInfinity: 2
      m_PostInfinity: 2
      m_RotationOrder: 4
    attribute: m_LocalEulerAngles.y
    path: Body/RightLeg/RightLegLower/RightShoe
    classID: 4
    script: {fileID: 0}
  - curve:
      serializedVersion: 2
      m_Curve: []
      m_PreInfinity: 2
      m_PostInfinity: 2
      m_RotationOrder: 4
    attribute: m_LocalEulerAngles.x
    path: Body/RightLeg/RightLegLower/RightShoe
    classID: 4
    script: {fileID: 0}
  - curve:
      serializedVersion: 2
      m_Curve: []
      m_PreInfinity: 2
      m_PostInfinity: 2
      m_RotationOrder: 4
    attribute: m_LocalEulerAngles.z
    path: Body/Torso/TorsoUpper/Neck/Head/Face/Left/LeftEyebrow
    classID: 4
    script: {fileID: 0}
  - curve:
      serializedVersion: 2
      m_Curve: []
      m_PreInfinity: 2
      m_PostInfinity: 2
      m_RotationOrder: 4
    attribute: m_LocalEulerAngles.y
    path: Body/Torso/TorsoUpper/Neck/Head/Face/Left/LeftEyebrow
    classID: 4
    script: {fileID: 0}
  - curve:
      serializedVersion: 2
      m_Curve: []
      m_PreInfinity: 2
      m_PostInfinity: 2
      m_RotationOrder: 4
    attribute: m_LocalEulerAngles.x
    path: Body/Torso/TorsoUpper/Neck/Head/Face/Left/LeftEyebrow
    classID: 4
    script: {fileID: 0}
  - curve:
      serializedVersion: 2
      m_Curve: []
      m_PreInfinity: 2
      m_PostInfinity: 2
      m_RotationOrder: 4
    attribute: m_LocalEulerAngles.z
    path: Body/Torso/TorsoUpper/LeftArm/LeftForearm
    classID: 4
    script: {fileID: 0}
  - curve:
      serializedVersion: 2
      m_Curve: []
      m_PreInfinity: 2
      m_PostInfinity: 2
      m_RotationOrder: 4
    attribute: m_LocalEulerAngles.y
    path: Body/Torso/TorsoUpper/LeftArm/LeftForearm
    classID: 4
    script: {fileID: 0}
  - curve:
      serializedVersion: 2
      m_Curve: []
      m_PreInfinity: 2
      m_PostInfinity: 2
      m_RotationOrder: 4
    attribute: m_LocalEulerAngles.x
    path: Body/Torso/TorsoUpper/LeftArm/LeftForearm
    classID: 4
    script: {fileID: 0}
  - curve:
      serializedVersion: 2
      m_Curve: []
      m_PreInfinity: 2
      m_PostInfinity: 2
      m_RotationOrder: 4
    attribute: m_LocalEulerAngles.z
    path: Body/Torso/TorsoUpper/RightArm/RightForearm
    classID: 4
    script: {fileID: 0}
  - curve:
      serializedVersion: 2
      m_Curve: []
      m_PreInfinity: 2
      m_PostInfinity: 2
      m_RotationOrder: 4
    attribute: m_LocalEulerAngles.y
    path: Body/Torso/TorsoUpper/RightArm/RightForearm
    classID: 4
    script: {fileID: 0}
  - curve:
      serializedVersion: 2
      m_Curve: []
      m_PreInfinity: 2
      m_PostInfinity: 2
      m_RotationOrder: 4
    attribute: m_LocalEulerAngles.x
    path: Body/Torso/TorsoUpper/RightArm/RightForearm
    classID: 4
    script: {fileID: 0}
  - curve:
      serializedVersion: 2
      m_Curve: []
      m_PreInfinity: 2
      m_PostInfinity: 2
      m_RotationOrder: 4
    attribute: m_LocalEulerAngles.x
    path: Body/Torso/TorsoUpper/Neck
    classID: 4
    script: {fileID: 0}
  - curve:
      serializedVersion: 2
      m_Curve: []
      m_PreInfinity: 2
      m_PostInfinity: 2
      m_RotationOrder: 4
    attribute: m_LocalEulerAngles.y
    path: Body/Torso/TorsoUpper/Neck
    classID: 4
    script: {fileID: 0}
  - curve:
      serializedVersion: 2
      m_Curve: []
      m_PreInfinity: 2
      m_PostInfinity: 2
      m_RotationOrder: 4
    attribute: m_LocalEulerAngles.z
    path: Body/Torso/TorsoUpper/Neck
    classID: 4
    script: {fileID: 0}
  m_HasGenericRootTransform: 0
  m_HasMotionFloatCurves: 0
  m_GenerateMotionCurves: 0
  m_Events: []
