%YAML 1.1
%TAG !u! tag:unity3d.com,2011:
--- !u!74 &7400000
AnimationClip:
  m_ObjectHideFlags: 0
  m_PrefabParentObject: {fileID: 0}
  m_PrefabInternal: {fileID: 0}
  m_Name: MaleDisagree
  serializedVersion: 6
  m_Legacy: 0
  m_Compressed: 0
  m_UseHighQualityCurve: 1
  m_RotationCurves: []
  m_CompressedRotationCurves: []
  m_EulerCurves:
  - curve:
      serializedVersion: 2
      m_Curve:
      - time: 0
        value: {x: 0, y: 0, z: 0}
        inSlope: {x: 0, y: 0, z: -35.656002}
        outSlope: {x: 0, y: 0, z: -35.656002}
        tangentMode: 0
      - time: 0.5
        value: {x: 0, y: 0, z: -17.828001}
        inSlope: {x: 0, y: 0, z: 0.98200035}
        outSlope: {x: 0, y: 0, z: 0.98200035}
        tangentMode: 0
      - time: 0.76666665
        value: {x: 0, y: 0, z: -7.7960005}
        inSlope: {x: 0, y: 0, z: 18.810001}
        outSlope: {x: 0, y: 0, z: 18.810001}
        tangentMode: 0
      - time: 1.3833333
        value: {x: 0, y: 0, z: -7.7960005}
        inSlope: {x: 0, y: 0, z: 0}
        outSlope: {x: 0, y: 0, z: 0}
        tangentMode: 0
      - time: 2.05
        value: {x: 0, y: 0, z: -7.7960005}
        inSlope: {x: 0, y: 0, z: -4.794827}
        outSlope: {x: 0, y: 0, z: -4.794827}
        tangentMode: 0
      - time: 3.0166667
        value: {x: 0, y: 0, z: -17.066}
        inSlope: {x: 0, y: 0, z: 5.678703}
        outSlope: {x: 0, y: 0, z: 5.678703}
        tangentMode: 0
      - time: 3.3
        value: {x: 0, y: 0, z: -11.1310005}
        inSlope: {x: 0, y: 0, z: 22.841307}
        outSlope: {x: 0, y: 0, z: 22.841307}
        tangentMode: 0
      - time: 3.75
        value: {x: 0, y: 0, z: 0}
        inSlope: {x: 0, y: 0, z: 24.735554}
        outSlope: {x: 0, y: 0, z: 24.735554}
        tangentMode: 0
      m_PreInfinity: 2
      m_PostInfinity: 2
      m_RotationOrder: 4
    path: Body/Torso/TorsoUpper/RightArm
  - curve:
      serializedVersion: 2
      m_Curve:
      - time: 0
        value: {x: 0, y: 0, z: 0}
        inSlope: {x: 0, y: 0, z: -264.93802}
        outSlope: {x: 0, y: 0, z: -264.93802}
        tangentMode: 0
      - time: 0.5
        value: {x: 0, y: 0, z: -132.46901}
        inSlope: {x: 0, y: 0, z: -178.34651}
        outSlope: {x: 0, y: 0, z: -178.34651}
        tangentMode: 0
      - time: 0.76666665
        value: {x: 0, y: 0, z: -156.93701}
        inSlope: {x: 0, y: 0, z: -25.733282}
        outSlope: {x: 0, y: 0, z: -25.733282}
        tangentMode: 0
      - time: 1.0833334
        value: {x: 0, y: 0, z: -144.179}
        inSlope: {x: 0, y: 0, z: -1.1191311}
        outSlope: {x: 0, y: 0, z: -1.1191311}
        tangentMode: 0
      - time: 1.3833333
        value: {x: 0, y: 0, z: -156.93701}
        inSlope: {x: 0, y: 0, z: 0}
        outSlope: {x: 0, y: 0, z: 0}
        tangentMode: 0
      - time: 1.6833333
        value: {x: 0, y: 0, z: -144.179}
        inSlope: {x: 0, y: 0, z: 3.866068}
        outSlope: {x: 0, y: 0, z: 3.866068}
        tangentMode: 0
      - time: 2.05
        value: {x: 0, y: 0, z: -156.93701}
        inSlope: {x: 0, y: 0, z: -0.7564087}
        outSlope: {x: 0, y: 0, z: -0.7564087}
        tangentMode: 0
      - time: 2.4333334
        value: {x: 0, y: 0, z: -144.179}
        inSlope: {x: 0, y: 0, z: 5.7054396}
        outSlope: {x: 0, y: 0, z: 5.7054396}
        tangentMode: 0
      - time: 3.0166667
        value: {x: 0, y: 0, z: -156.93701}
        inSlope: {x: 0, y: 0, z: 3.199874}
        outSlope: {x: 0, y: 0, z: 3.199874}
        tangentMode: 0
      - time: 3.3
        value: {x: 0, y: 0, z: -148.927}
        inSlope: {x: 0, y: 0, z: 179.60974}
        outSlope: {x: 0, y: 0, z: 179.60974}
        tangentMode: 0
      - time: 3.75
        value: {x: 0, y: 0, z: 0}
        inSlope: {x: 0, y: 0, z: 330.94885}
        outSlope: {x: 0, y: 0, z: 330.94885}
        tangentMode: 0
      m_PreInfinity: 2
      m_PostInfinity: 2
      m_RotationOrder: 4
    path: Body/Torso/TorsoUpper/RightArm/RightForearm
  - curve:
      serializedVersion: 2
      m_Curve:
      - time: 0
        value: {x: 0, y: 0, z: -25.064001}
        inSlope: {x: 0, y: 0, z: 224.46}
        outSlope: {x: 0, y: 0, z: 224.46}
        tangentMode: 0
      - time: 0.25
        value: {x: 0, y: 0, z: 31.051}
        inSlope: {x: 0, y: 0, z: 3.8899994}
        outSlope: {x: 0, y: 0, z: 3.8899994}
        tangentMode: 0
      - time: 0.5
        value: {x: 0, y: 0, z: -23.119001}
        inSlope: {x: 0, y: 0, z: -153.6325}
        outSlope: {x: 0, y: 0, z: -153.6325}
        tangentMode: 0
      - time: 0.76666665
        value: {x: 0, y: 0, z: -47.275}
        inSlope: {x: 0, y: 0, z: 46.112747}
        outSlope: {x: 0, y: 0, z: 46.112747}
        tangentMode: 0
      - time: 1.0833334
        value: {x: 0, y: 0, z: 10.615001}
        inSlope: {x: 0, y: 0, z: -5.078102}
        outSlope: {x: 0, y: 0, z: -5.078102}
        tangentMode: 0
      - time: 1.3833333
        value: {x: 0, y: 0, z: -47.275}
        inSlope: {x: 0, y: 0, z: 0}
        outSlope: {x: 0, y: 0, z: 0}
        tangentMode: 0
      - time: 1.6833333
        value: {x: 0, y: 0, z: 10.615001}
        inSlope: {x: 0, y: 0, z: 17.542442}
        outSlope: {x: 0, y: 0, z: 17.542442}
        tangentMode: 0
      - time: 2.05
        value: {x: 0, y: 0, z: -47.275}
        inSlope: {x: 0, y: 0, z: -3.4322357}
        outSlope: {x: 0, y: 0, z: -3.4322357}
        tangentMode: 0
      - time: 2.4333334
        value: {x: 0, y: 0, z: 10.615001}
        inSlope: {x: 0, y: 0, z: 40.266315}
        outSlope: {x: 0, y: 0, z: 40.266315}
        tangentMode: 0
      - time: 3.0166667
        value: {x: 0, y: 0, z: -30.50108}
        inSlope: {x: 0, y: 0, z: -11.427511}
        outSlope: {x: 0, y: 0, z: -11.427511}
        tangentMode: 0
      - time: 3.3
        value: {x: 0, y: 0, z: -17.006}
        inSlope: {x: 0, y: 0, z: 14.861515}
        outSlope: {x: 0, y: 0, z: 14.861515}
        tangentMode: 0
      - time: 3.75
        value: {x: 0, y: 0, z: -25.064001}
        inSlope: {x: 0, y: 0, z: -17.906666}
        outSlope: {x: 0, y: 0, z: -17.906666}
        tangentMode: 0
      m_PreInfinity: 2
      m_PostInfinity: 2
      m_RotationOrder: 4
    path: Body/Torso/TorsoUpper/RightArm/RightForearm/RightHand
  - curve:
      serializedVersion: 2
      m_Curve:
      - time: 0
        value: {x: 0, y: 0, z: 0}
        inSlope: {x: 0, y: 0, z: -8.400001}
        outSlope: {x: 0, y: 0, z: -8.400001}
        tangentMode: 0
      - time: 0.5
        value: {x: 0, y: 0, z: -4.2000003}
        inSlope: {x: 0, y: 0, z: -3.5538464}
        outSlope: {x: 0, y: 0, z: -3.5538464}
        tangentMode: 0
      - time: 3.75
        value: {x: 0, y: 0, z: 0}
        inSlope: {x: 0, y: 0, z: 1.2923077}
        outSlope: {x: 0, y: 0, z: 1.2923077}
        tangentMode: 0
      m_PreInfinity: 2
      m_PostInfinity: 2
      m_RotationOrder: 4
    path: Body/Torso
  - curve:
      serializedVersion: 2
      m_Curve:
      - time: 0
        value: {x: 0, y: 0, z: 0}
        inSlope: {x: 0, y: 0, z: 0.68600005}
        outSlope: {x: 0, y: 0, z: 0.68600005}
        tangentMode: 0
      - time: 0.5
        value: {x: 0, y: 0, z: 0.34300002}
        inSlope: {x: 0, y: 0, z: 0.023714274}
        outSlope: {x: 0, y: 0, z: 0.023714274}
        tangentMode: 0
      - time: 3.3
        value: {x: 0, y: 0, z: -1.445}
        inSlope: {x: 0, y: 0, z: 1.2862697}
        outSlope: {x: 0, y: 0, z: 1.2862697}
        tangentMode: 0
      - time: 3.75
        value: {x: 0, y: 0, z: 0}
        inSlope: {x: 0, y: 0, z: 3.2111108}
        outSlope: {x: 0, y: 0, z: 3.2111108}
        tangentMode: 0
      m_PreInfinity: 2
      m_PostInfinity: 2
      m_RotationOrder: 4
    path: Body/Torso/TorsoUpper
  - curve:
      serializedVersion: 2
      m_Curve:
      - time: 0
        value: {x: 0, y: 0, z: 0.7774183}
        inSlope: {x: 0, y: 0, z: -4.150837}
        outSlope: {x: 0, y: 0, z: -4.150837}
        tangentMode: 0
      - time: 0.5
        value: {x: 0, y: 0, z: -1.2980001}
        inSlope: {x: 0, y: 0, z: -4.150837}
        outSlope: {x: 0, y: 0, z: -4.150837}
        tangentMode: 0
      m_PreInfinity: 2
      m_PostInfinity: 2
      m_RotationOrder: 4
    path: Body/Torso/TorsoUpper/Neck
  - curve:
      serializedVersion: 2
      m_Curve:
      - time: 0
        value: {x: 0, y: 0, z: 3.736}
        inSlope: {x: 0, y: 0, z: -14.758}
        outSlope: {x: 0, y: 0, z: -14.758}
        tangentMode: 0
      - time: 0.5
        value: {x: 0, y: 0, z: -3.6430001}
        inSlope: {x: 0, y: 0, z: 0}
        outSlope: {x: 0, y: 0, z: 0}
        tangentMode: 0
      - time: 3.25
        value: {x: 0, y: 0, z: -3.6430001}
        inSlope: {x: 0, y: 0, z: 0}
        outSlope: {x: 0, y: 0, z: 0}
        tangentMode: 0
      - time: 3.75
        value: {x: 0, y: 0, z: 3.736}
        inSlope: {x: 0, y: 0, z: 14.758}
        outSlope: {x: 0, y: 0, z: 14.758}
        tangentMode: 0
      m_PreInfinity: 2
      m_PostInfinity: 2
      m_RotationOrder: 4
    path: Body/Torso/TorsoUpper/Neck/Head
  - curve:
      serializedVersion: 2
      m_Curve:
      - time: 0
        value: {x: 0, y: 0, z: 0}
        inSlope: {x: 0, y: 0, z: 16.052}
        outSlope: {x: 0, y: 0, z: 16.052}
        tangentMode: 0
      - time: 0.5
        value: {x: 0, y: 0, z: 8.026}
        inSlope: {x: 0, y: 0, z: 0}
        outSlope: {x: 0, y: 0, z: 0}
        tangentMode: 0
      - time: 3.3
        value: {x: 0, y: 0, z: 8.026}
        inSlope: {x: 0, y: 0, z: 0}
        outSlope: {x: 0, y: 0, z: 0}
        tangentMode: 0
      - time: 3.75
        value: {x: 0, y: 0, z: 0}
        inSlope: {x: 0, y: 0, z: -17.835554}
        outSlope: {x: 0, y: 0, z: -17.835554}
        tangentMode: 0
      m_PreInfinity: 2
      m_PostInfinity: 2
      m_RotationOrder: 4
    path: Body/Torso/TorsoUpper/Neck/Head/Face/Left/LeftEyebrow
  - curve:
      serializedVersion: 2
      m_Curve:
      - time: 0
        value: {x: 0, y: 0, z: 0}
        inSlope: {x: 0, y: 0, z: -15.808001}
        outSlope: {x: 0, y: 0, z: -15.808001}
        tangentMode: 0
      - time: 0.5
        value: {x: 0, y: 0, z: -7.9040003}
        inSlope: {x: 0, y: 0, z: 0}
        outSlope: {x: 0, y: 0, z: 0}
        tangentMode: 0
      - time: 3.3
        value: {x: 0, y: 0, z: -7.9040003}
        inSlope: {x: 0, y: 0, z: 0}
        outSlope: {x: 0, y: 0, z: 0}
        tangentMode: 0
      - time: 3.75
        value: {x: 0, y: 0, z: 0}
        inSlope: {x: 0, y: 0, z: 17.564444}
        outSlope: {x: 0, y: 0, z: 17.564444}
        tangentMode: 0
      m_PreInfinity: 2
      m_PostInfinity: 2
      m_RotationOrder: 4
    path: Body/Torso/TorsoUpper/Neck/Head/Face/Right/RightEyebrow
  - curve:
      serializedVersion: 2
      m_Curve:
      - time: 0
        value: {x: 0, y: 0, z: 0}
        inSlope: {x: 0, y: 0, z: 4.998}
        outSlope: {x: 0, y: 0, z: 4.998}
        tangentMode: 0
      - time: 0.5
        value: {x: 0, y: 0, z: 2.499}
        inSlope: {x: 0, y: 0, z: 1.268277}
        outSlope: {x: 0, y: 0, z: 1.268277}
        tangentMode: 0
      - time: 1.8833333
        value: {x: 0, y: 0, z: -0.906}
        inSlope: {x: 0, y: 0, z: 1.0380911}
        outSlope: {x: 0, y: 0, z: 1.0380911}
        tangentMode: 0
      - time: 2.8666666
        value: {x: 0, y: 0, z: 3.5560002}
        inSlope: {x: 0, y: 0, z: 0.25598407}
        outSlope: {x: 0, y: 0, z: 0.25598407}
        tangentMode: 0
      - time: 3.75
        value: {x: 0, y: 0, z: 0}
        inSlope: {x: 0, y: 0, z: -4.02566}
        outSlope: {x: 0, y: 0, z: -4.02566}
        tangentMode: 0
      m_PreInfinity: 2
      m_PostInfinity: 2
      m_RotationOrder: 4
    path: Body/Torso/TorsoUpper/LeftArm
  - curve:
      serializedVersion: 2
      m_Curve:
      - time: 0
        value: {x: 0, y: 0, z: 0}
        inSlope: {x: 0, y: 0, z: -13.428}
        outSlope: {x: 0, y: 0, z: -13.428}
        tangentMode: 0
      - time: 0.5
        value: {x: 0, y: 0, z: -6.714}
        inSlope: {x: 0, y: 0, z: -8.133037}
        outSlope: {x: 0, y: 0, z: -8.133037}
        tangentMode: 0
      - time: 1.8833333
        value: {x: 0, y: 0, z: -10.64}
        inSlope: {x: 0, y: 0, z: 1.6704557}
        outSlope: {x: 0, y: 0, z: 1.6704557}
        tangentMode: 0
      - time: 2.8666666
        value: {x: 0, y: 0, z: -4.564}
        inSlope: {x: 0, y: 0, z: 5.672888}
        outSlope: {x: 0, y: 0, z: 5.672888}
        tangentMode: 0
      - time: 3.75
        value: {x: 0, y: 0, z: 0}
        inSlope: {x: 0, y: 0, z: 5.166792}
        outSlope: {x: 0, y: 0, z: 5.166792}
        tangentMode: 0
      m_PreInfinity: 2
      m_PostInfinity: 2
      m_RotationOrder: 4
    path: Body/Torso/TorsoUpper/LeftArm/LeftForearm
  - curve:
      serializedVersion: 2
      m_Curve:
      - time: 0
        value: {x: 0, y: 0, z: 0}
        inSlope: {x: 0, y: 0, z: 8.896001}
        outSlope: {x: 0, y: 0, z: 8.896001}
        tangentMode: 0
      - time: 0.25
        value: {x: 0, y: 0, z: 2.2240002}
        inSlope: {x: 0, y: 0, z: 2.404633}
        outSlope: {x: 0, y: 0, z: 2.404633}
        tangentMode: 0
      - time: 1.8833333
        value: {x: 0, y: 0, z: -4.451}
        inSlope: {x: 0, y: 0, z: 0.06375146}
        outSlope: {x: 0, y: 0, z: 0.06375146}
        tangentMode: 0
      - time: 2.8666666
        value: {x: 0, y: 0, z: -0.307}
        inSlope: {x: 0, y: 0, z: 2.2808924}
        outSlope: {x: 0, y: 0, z: 2.2808924}
        tangentMode: 0
      - time: 3.75
        value: {x: 0, y: 0, z: 0}
        inSlope: {x: 0, y: 0, z: 0.34754714}
        outSlope: {x: 0, y: 0, z: 0.34754714}
        tangentMode: 0
      m_PreInfinity: 2
      m_PostInfinity: 2
      m_RotationOrder: 4
    path: Body/Torso/TorsoUpper/LeftArm/LeftForearm/LeftHand
  - curve:
      serializedVersion: 2
      m_Curve:
      - time: 0
        value: {x: 0, y: 0, z: 0}
        inSlope: {x: 0, y: 0, z: 0}
        outSlope: {x: 0, y: 0, z: 0}
        tangentMode: 0
      - time: 0.76666665
        value: {x: 0, y: 0, z: 7.2760005}
        inSlope: {x: 0, y: 0, z: 0}
        outSlope: {x: 0, y: 0, z: 0}
        tangentMode: 0
      - time: 3.05
        value: {x: 0, y: 0, z: 7.2760005}
        inSlope: {x: 0, y: 0, z: 0}
        outSlope: {x: 0, y: 0, z: 0}
        tangentMode: 0
      - time: 3.3
        value: {x: 0, y: 0, z: 5.154718}
        inSlope: {x: 0, y: 0, z: -14.31866}
        outSlope: {x: 0, y: 0, z: -14.31866}
        tangentMode: 0
      - time: 3.75
        value: {x: 0, y: 0, z: 0}
        inSlope: {x: 0, y: 0, z: 0}
        outSlope: {x: 0, y: 0, z: 0}
        tangentMode: 0
      m_PreInfinity: 2
      m_PostInfinity: 2
      m_RotationOrder: 4
    path: Body/RightLeg
  - curve:
      serializedVersion: 2
      m_Curve:
      - time: 0
        value: {x: 0, y: 0, z: 0}
        inSlope: {x: 0, y: 0, z: 25.065718}
        outSlope: {x: 0, y: 0, z: 25.065718}
        tangentMode: 0
      - time: 0.35
        value: {x: 0, y: 0, z: 8.773001}
        inSlope: {x: 0, y: 0, z: 0}
        outSlope: {x: 0, y: 0, z: 0}
        tangentMode: 0
      - time: 3.3
        value: {x: 0, y: 0, z: 8.773001}
        inSlope: {x: 0, y: 0, z: 0}
        outSlope: {x: 0, y: 0, z: 0}
        tangentMode: 0
      - time: 3.75
        value: {x: 0, y: 0, z: 0}
        inSlope: {x: 0, y: 0, z: -19.495556}
        outSlope: {x: 0, y: 0, z: -19.495556}
        tangentMode: 0
      m_PreInfinity: 2
      m_PostInfinity: 2
      m_RotationOrder: 4
    path: Body/RightLeg/RightLegLower
  - curve:
      serializedVersion: 2
      m_Curve:
      - time: 0
        value: {x: 0, y: 0, z: 0}
        inSlope: {x: 0, y: 0, z: -30.31143}
        outSlope: {x: 0, y: 0, z: -30.31143}
        tangentMode: 0
      - time: 0.35
        value: {x: 0, y: 0, z: -10.609}
        inSlope: {x: 0, y: 0, z: -8.522115}
        outSlope: {x: 0, y: 0, z: -8.522115}
        tangentMode: 0
      - time: 0.76666665
        value: {x: 0, y: 0, z: -5.0810003}
        inSlope: {x: 0, y: 0, z: 0}
        outSlope: {x: 0, y: 0, z: 0}
        tangentMode: 0
      - time: 3.3
        value: {x: 0, y: 0, z: 7.2760005}
        inSlope: {x: 0, y: 0, z: 0}
        outSlope: {x: 0, y: 0, z: 0}
        tangentMode: 0
      - time: 3.75
        value: {x: 0, y: 0, z: 0}
        inSlope: {x: 0, y: 0, z: -16.168888}
        outSlope: {x: 0, y: 0, z: -16.168888}
        tangentMode: 0
      m_PreInfinity: 2
      m_PostInfinity: 2
      m_RotationOrder: 4
    path: Body/RightLeg/RightLegLower/RightShoe
  m_PositionCurves:
  - curve:
      serializedVersion: 2
      m_Curve:
      - time: 0
        value: {x: -0.052494556, y: 0.2208936, z: 0}
        inSlope: {x: -0.049999714, y: -0.058002353, z: 0}
        outSlope: {x: -0.049999714, y: -0.058002353, z: 0}
        tangentMode: 0
      - time: 0.5
        value: {x: -0.07749441, y: 0.19189243, z: 0}
        inSlope: {x: 0, y: 0, z: 0}
        outSlope: {x: 0, y: 0, z: 0}
        tangentMode: 0
      - time: 3.3
        value: {x: -0.07749441, y: 0.19189243, z: 0}
        inSlope: {x: 0, y: 0, z: 0}
        outSlope: {x: 0, y: 0, z: 0}
        tangentMode: 0
      - time: 3.75
        value: {x: -0.052494556, y: 0.2208936, z: 0}
        inSlope: {x: 0.055555232, y: 0.06444705, z: 0}
        outSlope: {x: 0.055555232, y: 0.06444705, z: 0}
        tangentMode: 0
      m_PreInfinity: 2
      m_PostInfinity: 2
      m_RotationOrder: 4
    path: Body/Torso/TorsoUpper/Neck/Head/Face/Left/LeftEyebrow
  - curve:
      serializedVersion: 2
      m_Curve:
      - time: 0
        value: {x: -0.06968572, y: 0.2062723, z: 0}
        inSlope: {x: 0.012000203, y: -0.018000036, z: 0}
        outSlope: {x: 0.012000203, y: -0.018000036, z: 0}
        tangentMode: 0
      - time: 0.5
        value: {x: -0.06368562, y: 0.19727229, z: 0}
        inSlope: {x: 0, y: 0, z: 0}
        outSlope: {x: 0, y: 0, z: 0}
        tangentMode: 0
      - time: 3.3
        value: {x: -0.06368562, y: 0.19727229, z: 0}
        inSlope: {x: 0, y: 0, z: 0}
        outSlope: {x: 0, y: 0, z: 0}
        tangentMode: 0
      - time: 3.75
        value: {x: -0.06968572, y: 0.2062723, z: 0}
        inSlope: {x: -0.013333557, y: 0.020000039, z: 0}
        outSlope: {x: -0.013333557, y: 0.020000039, z: 0}
        tangentMode: 0
      m_PreInfinity: 2
      m_PostInfinity: 2
      m_RotationOrder: 4
    path: Body/Torso/TorsoUpper/Neck/Head/Face/Right/RightEyebrow
  m_ScaleCurves: []
  m_FloatCurves:
  - curve:
      serializedVersion: 2
      m_Curve:
      - time: 1.1333333
        value: 1
        inSlope: Infinity
        outSlope: Infinity
        tangentMode: 31
      - time: 1.2333332
        value: 0
        inSlope: Infinity
        outSlope: Infinity
        tangentMode: 31
      - time: 3.05
        value: 1
        inSlope: Infinity
        outSlope: Infinity
        tangentMode: 31
      - time: 3.1499999
        value: 0
        inSlope: Infinity
        outSlope: Infinity
        tangentMode: 31
      m_PreInfinity: 2
      m_PostInfinity: 2
      m_RotationOrder: 4
    attribute: m_IsActive
    path: Body/Torso/TorsoUpper/Neck/Head/Face/Left/EyeLeftClosed
    classID: 1
    script: {fileID: 0}
  - curve:
      serializedVersion: 2
      m_Curve:
      - time: 1.1333333
        value: 1
        inSlope: Infinity
        outSlope: Infinity
        tangentMode: 31
      - time: 1.2333332
        value: 0
        inSlope: Infinity
        outSlope: Infinity
        tangentMode: 31
      - time: 3.05
        value: 1
        inSlope: Infinity
        outSlope: Infinity
        tangentMode: 31
      - time: 3.1499999
        value: 0
        inSlope: Infinity
        outSlope: Infinity
        tangentMode: 31
      m_PreInfinity: 2
      m_PostInfinity: 2
      m_RotationOrder: 4
    attribute: m_IsActive
    path: Body/Torso/TorsoUpper/Neck/Head/Face/Right/EyeRightClosed
    classID: 1
    script: {fileID: 0}
  - curve:
      serializedVersion: 2
      m_Curve:
      - time: 0
        value: 1
        inSlope: Infinity
        outSlope: Infinity
        tangentMode: 31
      - time: 0.41666666
        value: 0
        inSlope: Infinity
        outSlope: Infinity
        tangentMode: 31
      - time: 3.5333333
        value: 1
        inSlope: Infinity
        outSlope: Infinity
        tangentMode: 31
      m_PreInfinity: 2
      m_PostInfinity: 2
      m_RotationOrder: 4
    attribute: m_IsActive
    path: Body/Torso/TorsoUpper/Neck/Head/Face/MouthClosed
    classID: 1
    script: {fileID: 0}
  - curve:
      serializedVersion: 2
      m_Curve:
      - time: 0
        value: 0
        inSlope: Infinity
        outSlope: Infinity
        tangentMode: 31
      - time: 0.41666666
        value: 1
        inSlope: Infinity
        outSlope: Infinity
        tangentMode: 31
      - time: 3.5333333
        value: 0
        inSlope: Infinity
        outSlope: Infinity
        tangentMode: 31
      m_PreInfinity: 2
      m_PostInfinity: 2
      m_RotationOrder: 4
    attribute: m_IsActive
    path: Body/Torso/TorsoUpper/Neck/Head/Face/MouthAnger
    classID: 1
    script: {fileID: 0}
  - curve:
      serializedVersion: 2
      m_Curve:
      - time: 0
        value: 0
        inSlope: Infinity
        outSlope: Infinity
        tangentMode: 31
      - time: 0.41666666
        value: 1
        inSlope: Infinity
        outSlope: Infinity
        tangentMode: 31
      - time: 3.45
        value: 0
        inSlope: Infinity
        outSlope: Infinity
        tangentMode: 31
      m_PreInfinity: 2
      m_PostInfinity: 2
      m_RotationOrder: 4
    attribute: m_IsActive
    path: Body/Torso/TorsoUpper/RightArm/RightForearm/RightHand/HandRightDisagree
    classID: 1
    script: {fileID: 0}
  - curve:
      serializedVersion: 2
      m_Curve:
      - time: 0
        value: 1
        inSlope: Infinity
        outSlope: Infinity
        tangentMode: 31
      - time: 0.41666666
        value: 0
        inSlope: Infinity
        outSlope: Infinity
        tangentMode: 31
      - time: 3.45
        value: 1
        inSlope: Infinity
        outSlope: Infinity
        tangentMode: 31
      m_PreInfinity: 2
      m_PostInfinity: 2
      m_RotationOrder: 4
    attribute: m_IsActive
    path: Body/Torso/TorsoUpper/RightArm/RightForearm/RightHand/HandRightIdle
    classID: 1
    script: {fileID: 0}
  m_PPtrCurves: []
  m_SampleRate: 60
  m_WrapMode: 0
  m_Bounds:
    m_Center: {x: 0, y: 0, z: 0}
    m_Extent: {x: 0, y: 0, z: 0}
  m_ClipBindingConstant:
    genericBindings:
    - path: 1701800160
      attribute: 1
      script: {fileID: 0}
      classID: 4
      customType: 0
      isPPtrCurve: 0
    - path: 4044341784
      attribute: 1
      script: {fileID: 0}
      classID: 4
      customType: 0
      isPPtrCurve: 0
    - path: 928226820
      attribute: 4
      script: {fileID: 0}
      classID: 4
      customType: 14
      isPPtrCurve: 0
    - path: 2224152727
      attribute: 4
      script: {fileID: 0}
      classID: 4
      customType: 14
      isPPtrCurve: 0
    - path: 1209925952
      attribute: 4
      script: {fileID: 0}
      classID: 4
      customType: 14
      isPPtrCurve: 0
    - path: 17307992
      attribute: 4
      script: {fileID: 0}
      classID: 4
      customType: 14
      isPPtrCurve: 0
    - path: 2157539374
      attribute: 4
      script: {fileID: 0}
      classID: 4
      customType: 14
      isPPtrCurve: 0
    - path: 4166763380
      attribute: 4
      script: {fileID: 0}
      classID: 4
      customType: 14
      isPPtrCurve: 0
    - path: 1997562997
      attribute: 4
      script: {fileID: 0}
      classID: 4
      customType: 14
      isPPtrCurve: 0
    - path: 1701800160
      attribute: 4
      script: {fileID: 0}
      classID: 4
      customType: 14
      isPPtrCurve: 0
    - path: 4044341784
      attribute: 4
      script: {fileID: 0}
      classID: 4
      customType: 14
      isPPtrCurve: 0
    - path: 3095407969
      attribute: 4
      script: {fileID: 0}
      classID: 4
      customType: 14
      isPPtrCurve: 0
    - path: 541443673
      attribute: 4
      script: {fileID: 0}
      classID: 4
      customType: 14
      isPPtrCurve: 0
    - path: 464622508
      attribute: 4
      script: {fileID: 0}
      classID: 4
      customType: 14
      isPPtrCurve: 0
    - path: 3697623316
      attribute: 4
      script: {fileID: 0}
      classID: 4
      customType: 14
      isPPtrCurve: 0
    - path: 2440267433
      attribute: 4
      script: {fileID: 0}
      classID: 4
      customType: 14
      isPPtrCurve: 0
    - path: 60502102
      attribute: 4
      script: {fileID: 0}
      classID: 4
      customType: 14
      isPPtrCurve: 0
    - path: 2419079199
      attribute: 2086281974
      script: {fileID: 0}
      classID: 1
      customType: 0
      isPPtrCurve: 0
    - path: 1857883897
      attribute: 2086281974
      script: {fileID: 0}
      classID: 1
      customType: 0
      isPPtrCurve: 0
    - path: 1030089362
      attribute: 2086281974
      script: {fileID: 0}
      classID: 1
      customType: 0
      isPPtrCurve: 0
    - path: 4085567332
      attribute: 2086281974
      script: {fileID: 0}
      classID: 1
      customType: 0
      isPPtrCurve: 0
    - path: 2699780198
      attribute: 2086281974
      script: {fileID: 0}
      classID: 1
      customType: 0
      isPPtrCurve: 0
    - path: 3114764356
      attribute: 2086281974
      script: {fileID: 0}
      classID: 1
      customType: 0
      isPPtrCurve: 0
    pptrCurveMapping: []
  m_AnimationClipSettings:
    serializedVersion: 2
    m_AdditiveReferencePoseClip: {fileID: 0}
    m_AdditiveReferencePoseTime: 0
    m_StartTime: 0
    m_StopTime: 3.75
    m_OrientationOffsetY: 0
    m_Level: 0
    m_CycleOffset: 0
    m_HasAdditiveReferencePose: 0
    m_LoopTime: 0
    m_LoopBlend: 0
    m_LoopBlendOrientation: 0
    m_LoopBlendPositionY: 0
    m_LoopBlendPositionXZ: 0
    m_KeepOriginalOrientation: 0
    m_KeepOriginalPositionY: 1
    m_KeepOriginalPositionXZ: 0
    m_HeightFromFeet: 0
    m_Mirror: 0
  m_EditorCurves:
  - curve:
      serializedVersion: 2
      m_Curve:
      - time: 0
        value: 0
        inSlope: 0
        outSlope: 0
        tangentMode: 10
      - time: 0.5
        value: 0
        inSlope: 0
        outSlope: 0
        tangentMode: 10
      - time: 0.76666665
        value: 0
        inSlope: 0
        outSlope: 0
        tangentMode: 10
      - time: 1.3833333
        value: 0
        inSlope: 0
        outSlope: 0
        tangentMode: 10
      - time: 2.05
        value: 0
        inSlope: 0
        outSlope: 0
        tangentMode: 10
      - time: 3.0166667
        value: 0
        inSlope: 0
        outSlope: 0
        tangentMode: 10
      - time: 3.3
        value: 0
        inSlope: 0
        outSlope: 0
        tangentMode: 10
      - time: 3.75
        value: 0
        inSlope: 0
        outSlope: 0
        tangentMode: 10
      m_PreInfinity: 2
      m_PostInfinity: 2
      m_RotationOrder: 4
    attribute: localEulerAnglesRaw.x
    path: Body/Torso/TorsoUpper/RightArm
    classID: 4
    script: {fileID: 0}
  - curve:
      serializedVersion: 2
      m_Curve:
      - time: 0
        value: 0
        inSlope: 0
        outSlope: 0
        tangentMode: 10
      - time: 0.5
        value: 0
        inSlope: 0
        outSlope: 0
        tangentMode: 10
      - time: 0.76666665
        value: 0
        inSlope: 0
        outSlope: 0
        tangentMode: 10
      - time: 1.3833333
        value: 0
        inSlope: 0
        outSlope: 0
        tangentMode: 10
      - time: 2.05
        value: 0
        inSlope: 0
        outSlope: 0
        tangentMode: 10
      - time: 3.0166667
        value: 0
        inSlope: 0
        outSlope: 0
        tangentMode: 10
      - time: 3.3
        value: 0
        inSlope: 0
        outSlope: 0
        tangentMode: 10
      - time: 3.75
        value: 0
        inSlope: 0
        outSlope: 0
        tangentMode: 10
      m_PreInfinity: 2
      m_PostInfinity: 2
      m_RotationOrder: 4
    attribute: localEulerAnglesRaw.y
    path: Body/Torso/TorsoUpper/RightArm
    classID: 4
    script: {fileID: 0}
  - curve:
      serializedVersion: 2
      m_Curve:
      - time: 0
        value: 0
        inSlope: -35.656002
        outSlope: -35.656002
        tangentMode: 10
      - time: 0.5
        value: -17.828001
        inSlope: 0.98200035
        outSlope: 0.98200035
        tangentMode: 10
      - time: 0.76666665
        value: -7.7960005
        inSlope: 18.810001
        outSlope: 18.810001
        tangentMode: 10
      - time: 1.3833333
        value: -7.7960005
        inSlope: 0
        outSlope: 0
        tangentMode: 10
      - time: 2.05
        value: -7.7960005
        inSlope: -4.794827
        outSlope: -4.794827
        tangentMode: 10
      - time: 3.0166667
        value: -17.066
        inSlope: 5.678703
        outSlope: 5.678703
        tangentMode: 10
      - time: 3.3
        value: -11.1310005
        inSlope: 22.841307
        outSlope: 22.841307
        tangentMode: 10
      - time: 3.75
        value: 0
        inSlope: 24.735554
        outSlope: 24.735554
        tangentMode: 10
      m_PreInfinity: 2
      m_PostInfinity: 2
      m_RotationOrder: 4
    attribute: localEulerAnglesRaw.z
    path: Body/Torso/TorsoUpper/RightArm
    classID: 4
    script: {fileID: 0}
  - curve:
      serializedVersion: 2
      m_Curve:
      - time: 0
        value: 0
        inSlope: 0
        outSlope: 0
        tangentMode: 10
      - time: 0.5
        value: 0
        inSlope: 0
        outSlope: 0
        tangentMode: 10
      - time: 0.76666665
        value: 0
        inSlope: 0
        outSlope: 0
        tangentMode: 10
      - time: 1.0833334
        value: 0
        inSlope: 0
        outSlope: 0
        tangentMode: 10
      - time: 1.3833333
        value: 0
        inSlope: 0
        outSlope: 0
        tangentMode: 10
      - time: 1.6833333
        value: 0
        inSlope: 0
        outSlope: 0
        tangentMode: 10
      - time: 2.05
        value: 0
        inSlope: 0
        outSlope: 0
        tangentMode: 10
      - time: 2.4333334
        value: 0
        inSlope: 0
        outSlope: 0
        tangentMode: 10
      - time: 3.0166667
        value: 0
        inSlope: 0
        outSlope: 0
        tangentMode: 10
      - time: 3.3
        value: 0
        inSlope: 0
        outSlope: 0
        tangentMode: 10
      - time: 3.75
        value: 0
        inSlope: 0
        outSlope: 0
        tangentMode: 10
      m_PreInfinity: 2
      m_PostInfinity: 2
      m_RotationOrder: 4
    attribute: localEulerAnglesRaw.x
    path: Body/Torso/TorsoUpper/RightArm/RightForearm
    classID: 4
    script: {fileID: 0}
  - curve:
      serializedVersion: 2
      m_Curve:
      - time: 0
        value: 0
        inSlope: 0
        outSlope: 0
        tangentMode: 10
      - time: 0.5
        value: 0
        inSlope: 0
        outSlope: 0
        tangentMode: 10
      - time: 0.76666665
        value: 0
        inSlope: 0
        outSlope: 0
        tangentMode: 10
      - time: 1.0833334
        value: 0
        inSlope: 0
        outSlope: 0
        tangentMode: 10
      - time: 1.3833333
        value: 0
        inSlope: 0
        outSlope: 0
        tangentMode: 10
      - time: 1.6833333
        value: 0
        inSlope: 0
        outSlope: 0
        tangentMode: 10
      - time: 2.05
        value: 0
        inSlope: 0
        outSlope: 0
        tangentMode: 10
      - time: 2.4333334
        value: 0
        inSlope: 0
        outSlope: 0
        tangentMode: 10
      - time: 3.0166667
        value: 0
        inSlope: 0
        outSlope: 0
        tangentMode: 10
      - time: 3.3
        value: 0
        inSlope: 0
        outSlope: 0
        tangentMode: 10
      - time: 3.75
        value: 0
        inSlope: 0
        outSlope: 0
        tangentMode: 10
      m_PreInfinity: 2
      m_PostInfinity: 2
      m_RotationOrder: 4
    attribute: localEulerAnglesRaw.y
    path: Body/Torso/TorsoUpper/RightArm/RightForearm
    classID: 4
    script: {fileID: 0}
  - curve:
      serializedVersion: 2
      m_Curve:
      - time: 0
        value: 0
        inSlope: -264.93802
        outSlope: -264.93802
        tangentMode: 10
      - time: 0.5
        value: -132.46901
        inSlope: -178.34651
        outSlope: -178.34651
        tangentMode: 10
      - time: 0.76666665
        value: -156.93701
        inSlope: -25.733282
        outSlope: -25.733282
        tangentMode: 10
      - time: 1.0833334
        value: -144.179
        inSlope: -1.1191311
        outSlope: -1.1191311
        tangentMode: 10
      - time: 1.3833333
        value: -156.93701
        inSlope: 0
        outSlope: 0
        tangentMode: 10
      - time: 1.6833333
        value: -144.179
        inSlope: 3.866068
        outSlope: 3.866068
        tangentMode: 10
      - time: 2.05
        value: -156.93701
        inSlope: -0.7564087
        outSlope: -0.7564087
        tangentMode: 10
      - time: 2.4333334
        value: -144.179
        inSlope: 5.7054396
        outSlope: 5.7054396
        tangentMode: 10
      - time: 3.0166667
        value: -156.93701
        inSlope: 3.199874
        outSlope: 3.199874
        tangentMode: 10
      - time: 3.3
        value: -148.927
        inSlope: 179.60974
        outSlope: 179.60974
        tangentMode: 10
      - time: 3.75
        value: 0
        inSlope: 330.94885
        outSlope: 330.94885
        tangentMode: 10
      m_PreInfinity: 2
      m_PostInfinity: 2
      m_RotationOrder: 4
    attribute: localEulerAnglesRaw.z
    path: Body/Torso/TorsoUpper/RightArm/RightForearm
    classID: 4
    script: {fileID: 0}
  - curve:
      serializedVersion: 2
      m_Curve:
      - time: 0
        value: 0
        inSlope: 0
        outSlope: 0
        tangentMode: 10
      - time: 0.25
        value: 0
        inSlope: 0
        outSlope: 0
        tangentMode: 10
      - time: 0.5
        value: 0
        inSlope: 0
        outSlope: 0
        tangentMode: 10
      - time: 0.76666665
        value: 0
        inSlope: 0
        outSlope: 0
        tangentMode: 10
      - time: 1.0833334
        value: 0
        inSlope: 0
        outSlope: 0
        tangentMode: 10
      - time: 1.3833333
        value: 0
        inSlope: 0
        outSlope: 0
        tangentMode: 10
      - time: 1.6833333
        value: 0
        inSlope: 0
        outSlope: 0
        tangentMode: 10
      - time: 2.05
        value: 0
        inSlope: 0
        outSlope: 0
        tangentMode: 10
      - time: 2.4333334
        value: 0
        inSlope: 0
        outSlope: 0
        tangentMode: 10
      - time: 3.0166667
        value: 0
        inSlope: 0
        outSlope: 0
        tangentMode: 10
      - time: 3.3
        value: 0
        inSlope: 0
        outSlope: 0
        tangentMode: 10
      - time: 3.75
        value: 0
        inSlope: 0
        outSlope: 0
        tangentMode: 10
      m_PreInfinity: 2
      m_PostInfinity: 2
      m_RotationOrder: 4
    attribute: localEulerAnglesRaw.x
    path: Body/Torso/TorsoUpper/RightArm/RightForearm/RightHand
    classID: 4
    script: {fileID: 0}
  - curve:
      serializedVersion: 2
      m_Curve:
      - time: 0
        value: 0
        inSlope: 0
        outSlope: 0
        tangentMode: 10
      - time: 0.25
        value: 0
        inSlope: 0
        outSlope: 0
        tangentMode: 10
      - time: 0.5
        value: 0
        inSlope: 0
        outSlope: 0
        tangentMode: 10
      - time: 0.76666665
        value: 0
        inSlope: 0
        outSlope: 0
        tangentMode: 10
      - time: 1.0833334
        value: 0
        inSlope: 0
        outSlope: 0
        tangentMode: 10
      - time: 1.3833333
        value: 0
        inSlope: 0
        outSlope: 0
        tangentMode: 10
      - time: 1.6833333
        value: 0
        inSlope: 0
        outSlope: 0
        tangentMode: 10
      - time: 2.05
        value: 0
        inSlope: 0
        outSlope: 0
        tangentMode: 10
      - time: 2.4333334
        value: 0
        inSlope: 0
        outSlope: 0
        tangentMode: 10
      - time: 3.0166667
        value: 0
        inSlope: 0
        outSlope: 0
        tangentMode: 10
      - time: 3.3
        value: 0
        inSlope: 0
        outSlope: 0
        tangentMode: 10
      - time: 3.75
        value: 0
        inSlope: 0
        outSlope: 0
        tangentMode: 10
      m_PreInfinity: 2
      m_PostInfinity: 2
      m_RotationOrder: 4
    attribute: localEulerAnglesRaw.y
    path: Body/Torso/TorsoUpper/RightArm/RightForearm/RightHand
    classID: 4
    script: {fileID: 0}
  - curve:
      serializedVersion: 2
      m_Curve:
      - time: 0
        value: -25.064001
        inSlope: 224.46
        outSlope: 224.46
        tangentMode: 10
      - time: 0.25
        value: 31.051
        inSlope: 3.8899994
        outSlope: 3.8899994
        tangentMode: 10
      - time: 0.5
        value: -23.119001
        inSlope: -153.6325
        outSlope: -153.6325
        tangentMode: 10
      - time: 0.76666665
        value: -47.275
        inSlope: 46.112747
        outSlope: 46.112747
        tangentMode: 10
      - time: 1.0833334
        value: 10.615001
        inSlope: -5.078102
        outSlope: -5.078102
        tangentMode: 10
      - time: 1.3833333
        value: -47.275
        inSlope: 0
        outSlope: 0
        tangentMode: 10
      - time: 1.6833333
        value: 10.615001
        inSlope: 17.542442
        outSlope: 17.542442
        tangentMode: 10
      - time: 2.05
        value: -47.275
        inSlope: -3.4322357
        outSlope: -3.4322357
        tangentMode: 10
      - time: 2.4333334
        value: 10.615001
        inSlope: 40.266315
        outSlope: 40.266315
        tangentMode: 10
      - time: 3.0166667
        value: -30.50108
        inSlope: -11.427511
        outSlope: -11.427511
        tangentMode: 10
      - time: 3.3
        value: -17.006
        inSlope: 14.861515
        outSlope: 14.861515
        tangentMode: 10
      - time: 3.75
        value: -25.064001
        inSlope: -17.906666
        outSlope: -17.906666
        tangentMode: 10
      m_PreInfinity: 2
      m_PostInfinity: 2
      m_RotationOrder: 4
    attribute: localEulerAnglesRaw.z
    path: Body/Torso/TorsoUpper/RightArm/RightForearm/RightHand
    classID: 4
    script: {fileID: 0}
  - curve:
      serializedVersion: 2
      m_Curve:
      - time: 0
        value: 0
        inSlope: 0
        outSlope: 0
        tangentMode: 10
      - time: 0.5
        value: 0
        inSlope: 0
        outSlope: 0
        tangentMode: 10
      - time: 3.75
        value: 0
        inSlope: 0
        outSlope: 0
        tangentMode: 10
      m_PreInfinity: 2
      m_PostInfinity: 2
      m_RotationOrder: 4
    attribute: localEulerAnglesRaw.x
    path: Body/Torso
    classID: 4
    script: {fileID: 0}
  - curve:
      serializedVersion: 2
      m_Curve:
      - time: 0
        value: 0
        inSlope: 0
        outSlope: 0
        tangentMode: 10
      - time: 0.5
        value: 0
        inSlope: 0
        outSlope: 0
        tangentMode: 10
      - time: 3.75
        value: 0
        inSlope: 0
        outSlope: 0
        tangentMode: 10
      m_PreInfinity: 2
      m_PostInfinity: 2
      m_RotationOrder: 4
    attribute: localEulerAnglesRaw.y
    path: Body/Torso
    classID: 4
    script: {fileID: 0}
  - curve:
      serializedVersion: 2
      m_Curve:
      - time: 0
        value: 0
        inSlope: -8.400001
        outSlope: -8.400001
        tangentMode: 10
      - time: 0.5
        value: -4.2000003
        inSlope: -3.5538464
        outSlope: -3.5538464
        tangentMode: 10
      - time: 3.75
        value: 0
        inSlope: 1.2923077
        outSlope: 1.2923077
        tangentMode: 10
      m_PreInfinity: 2
      m_PostInfinity: 2
      m_RotationOrder: 4
    attribute: localEulerAnglesRaw.z
    path: Body/Torso
    classID: 4
    script: {fileID: 0}
  - curve:
      serializedVersion: 2
      m_Curve:
      - time: 0
        value: 0
        inSlope: 0
        outSlope: 0
        tangentMode: 10
      - time: 0.5
        value: 0
        inSlope: 0
        outSlope: 0
        tangentMode: 10
      - time: 3.3
        value: 0
        inSlope: 0
        outSlope: 0
        tangentMode: 10
      - time: 3.75
        value: 0
        inSlope: 0
        outSlope: 0
        tangentMode: 10
      m_PreInfinity: 2
      m_PostInfinity: 2
      m_RotationOrder: 4
    attribute: localEulerAnglesRaw.x
    path: Body/Torso/TorsoUpper
    classID: 4
    script: {fileID: 0}
  - curve:
      serializedVersion: 2
      m_Curve:
      - time: 0
        value: 0
        inSlope: 0
        outSlope: 0
        tangentMode: 10
      - time: 0.5
        value: 0
        inSlope: 0
        outSlope: 0
        tangentMode: 10
      - time: 3.3
        value: 0
        inSlope: 0
        outSlope: 0
        tangentMode: 10
      - time: 3.75
        value: 0
        inSlope: 0
        outSlope: 0
        tangentMode: 10
      m_PreInfinity: 2
      m_PostInfinity: 2
      m_RotationOrder: 4
    attribute: localEulerAnglesRaw.y
    path: Body/Torso/TorsoUpper
    classID: 4
    script: {fileID: 0}
  - curve:
      serializedVersion: 2
      m_Curve:
      - time: 0
        value: 0
        inSlope: 0.68600005
        outSlope: 0.68600005
        tangentMode: 10
      - time: 0.5
        value: 0.34300002
        inSlope: 0.023714274
        outSlope: 0.023714274
        tangentMode: 10
      - time: 3.3
        value: -1.445
        inSlope: 1.2862697
        outSlope: 1.2862697
        tangentMode: 10
      - time: 3.75
        value: 0
        inSlope: 3.2111108
        outSlope: 3.2111108
        tangentMode: 10
      m_PreInfinity: 2
      m_PostInfinity: 2
      m_RotationOrder: 4
    attribute: localEulerAnglesRaw.z
    path: Body/Torso/TorsoUpper
    classID: 4
    script: {fileID: 0}
  - curve:
      serializedVersion: 2
      m_Curve:
      - time: 0
        value: 0
        inSlope: 0
        outSlope: 0
        tangentMode: 10
      - time: 0.5
        value: 0
        inSlope: 0
        outSlope: 0
        tangentMode: 10
      m_PreInfinity: 2
      m_PostInfinity: 2
      m_RotationOrder: 4
    attribute: localEulerAnglesRaw.x
    path: Body/Torso/TorsoUpper/Neck
    classID: 4
    script: {fileID: 0}
  - curve:
      serializedVersion: 2
      m_Curve:
      - time: 0
        value: 0
        inSlope: 0
        outSlope: 0
        tangentMode: 10
      - time: 0.5
        value: 0
        inSlope: 0
        outSlope: 0
        tangentMode: 10
      m_PreInfinity: 2
      m_PostInfinity: 2
      m_RotationOrder: 4
    attribute: localEulerAnglesRaw.y
    path: Body/Torso/TorsoUpper/Neck
    classID: 4
    script: {fileID: 0}
  - curve:
      serializedVersion: 2
      m_Curve:
      - time: 0
        value: 0.7774183
        inSlope: -4.150837
        outSlope: -4.150837
        tangentMode: 10
      - time: 0.5
        value: -1.2980001
        inSlope: -4.150837
        outSlope: -4.150837
        tangentMode: 10
      m_PreInfinity: 2
      m_PostInfinity: 2
      m_RotationOrder: 4
    attribute: localEulerAnglesRaw.z
    path: Body/Torso/TorsoUpper/Neck
    classID: 4
    script: {fileID: 0}
  - curve:
      serializedVersion: 2
      m_Curve:
      - time: 0
        value: 0
        inSlope: 0
        outSlope: 0
        tangentMode: 10
      - time: 0.5
        value: 0
        inSlope: 0
        outSlope: 0
        tangentMode: 10
      m_PreInfinity: 2
      m_PostInfinity: 2
      m_RotationOrder: 4
    attribute: localEulerAnglesRaw.x
    path: Body/Torso/TorsoUpper/Neck/Head
    classID: 4
    script: {fileID: 0}
  - curve:
      serializedVersion: 2
      m_Curve:
      - time: 0
        value: 0
        inSlope: 0
        outSlope: 0
        tangentMode: 10
      - time: 0.5
        value: 0
        inSlope: 0
        outSlope: 0
        tangentMode: 10
      m_PreInfinity: 2
      m_PostInfinity: 2
      m_RotationOrder: 4
    attribute: localEulerAnglesRaw.y
    path: Body/Torso/TorsoUpper/Neck/Head
    classID: 4
    script: {fileID: 0}
  - curve:
      serializedVersion: 2
      m_Curve:
      - time: 0
        value: 3.736
        inSlope: -14.758
        outSlope: -14.758
        tangentMode: 10
      - time: 0.5
        value: -3.6430001
        inSlope: 0
        outSlope: 0
        tangentMode: 0
      - time: 3.25
        value: -3.6430001
        inSlope: 0
        outSlope: 0
        tangentMode: 0
      - time: 3.75
        value: 3.736
        inSlope: 14.758
        outSlope: 14.758
        tangentMode: 10
      m_PreInfinity: 2
      m_PostInfinity: 2
      m_RotationOrder: 4
    attribute: localEulerAnglesRaw.z
    path: Body/Torso/TorsoUpper/Neck/Head
    classID: 4
    script: {fileID: 0}
  - curve:
      serializedVersion: 2
      m_Curve:
      - time: 0
        value: 0
        inSlope: 0
        outSlope: 0
        tangentMode: 10
      - time: 0.5
        value: 0
        inSlope: 0
        outSlope: 0
        tangentMode: 0
      - time: 3.3
        value: 0
        inSlope: 0
        outSlope: 0
        tangentMode: 0
      - time: 3.75
        value: 0
        inSlope: 0
        outSlope: 0
        tangentMode: 10
      m_PreInfinity: 2
      m_PostInfinity: 2
      m_RotationOrder: 4
    attribute: localEulerAnglesRaw.x
    path: Body/Torso/TorsoUpper/Neck/Head/Face/Left/LeftEyebrow
    classID: 4
    script: {fileID: 0}
  - curve:
      serializedVersion: 2
      m_Curve:
      - time: 0
        value: 0
        inSlope: 0
        outSlope: 0
        tangentMode: 10
      - time: 0.5
        value: 0
        inSlope: 0
        outSlope: 0
        tangentMode: 0
      - time: 3.3
        value: 0
        inSlope: 0
        outSlope: 0
        tangentMode: 0
      - time: 3.75
        value: 0
        inSlope: 0
        outSlope: 0
        tangentMode: 10
      m_PreInfinity: 2
      m_PostInfinity: 2
      m_RotationOrder: 4
    attribute: localEulerAnglesRaw.y
    path: Body/Torso/TorsoUpper/Neck/Head/Face/Left/LeftEyebrow
    classID: 4
    script: {fileID: 0}
  - curve:
      serializedVersion: 2
      m_Curve:
      - time: 0
        value: 0
        inSlope: 16.052
        outSlope: 16.052
        tangentMode: 10
      - time: 0.5
        value: 8.026
        inSlope: 0
        outSlope: 0
        tangentMode: 0
      - time: 3.3
        value: 8.026
        inSlope: 0
        outSlope: 0
        tangentMode: 0
      - time: 3.75
        value: 0
        inSlope: -17.835554
        outSlope: -17.835554
        tangentMode: 10
      m_PreInfinity: 2
      m_PostInfinity: 2
      m_RotationOrder: 4
    attribute: localEulerAnglesRaw.z
    path: Body/Torso/TorsoUpper/Neck/Head/Face/Left/LeftEyebrow
    classID: 4
    script: {fileID: 0}
  - curve:
      serializedVersion: 2
      m_Curve:
      - time: 0
        value: -0.052494556
        inSlope: -0.049999714
        outSlope: -0.049999714
        tangentMode: 10
      - time: 0.5
        value: -0.07749441
        inSlope: 0
        outSlope: 0
        tangentMode: 0
      - time: 3.3
        value: -0.07749441
        inSlope: 0
        outSlope: 0
        tangentMode: 0
      - time: 3.75
        value: -0.052494556
        inSlope: 0.055555232
        outSlope: 0.055555232
        tangentMode: 10
      m_PreInfinity: 2
      m_PostInfinity: 2
      m_RotationOrder: 4
    attribute: m_LocalPosition.x
    path: Body/Torso/TorsoUpper/Neck/Head/Face/Left/LeftEyebrow
    classID: 4
    script: {fileID: 0}
  - curve:
      serializedVersion: 2
      m_Curve:
      - time: 0
        value: 0.2208936
        inSlope: -0.058002353
        outSlope: -0.058002353
        tangentMode: 10
      - time: 0.5
        value: 0.19189243
        inSlope: 0
        outSlope: 0
        tangentMode: 0
      - time: 3.3
        value: 0.19189243
        inSlope: 0
        outSlope: 0
        tangentMode: 0
      - time: 3.75
        value: 0.2208936
        inSlope: 0.06444705
        outSlope: 0.06444705
        tangentMode: 10
      m_PreInfinity: 2
      m_PostInfinity: 2
      m_RotationOrder: 4
    attribute: m_LocalPosition.y
    path: Body/Torso/TorsoUpper/Neck/Head/Face/Left/LeftEyebrow
    classID: 4
    script: {fileID: 0}
  - curve:
      serializedVersion: 2
      m_Curve:
      - time: 0
        value: 0
        inSlope: 0
        outSlope: 0
        tangentMode: 10
      - time: 0.5
        value: 0
        inSlope: 0
        outSlope: 0
        tangentMode: 0
      - time: 3.3
        value: 0
        inSlope: 0
        outSlope: 0
        tangentMode: 0
      - time: 3.75
        value: 0
        inSlope: 0
        outSlope: 0
        tangentMode: 10
      m_PreInfinity: 2
      m_PostInfinity: 2
      m_RotationOrder: 4
    attribute: m_LocalPosition.z
    path: Body/Torso/TorsoUpper/Neck/Head/Face/Left/LeftEyebrow
    classID: 4
    script: {fileID: 0}
  - curve:
      serializedVersion: 2
      m_Curve:
      - time: 0
        value: 0
        inSlope: 0
        outSlope: 0
        tangentMode: 10
      - time: 0.5
        value: 0
        inSlope: 0
        outSlope: 0
        tangentMode: 0
      - time: 3.3
        value: 0
        inSlope: 0
        outSlope: 0
        tangentMode: 0
      - time: 3.75
        value: 0
        inSlope: 0
        outSlope: 0
        tangentMode: 10
      m_PreInfinity: 2
      m_PostInfinity: 2
      m_RotationOrder: 4
    attribute: localEulerAnglesRaw.x
    path: Body/Torso/TorsoUpper/Neck/Head/Face/Right/RightEyebrow
    classID: 4
    script: {fileID: 0}
  - curve:
      serializedVersion: 2
      m_Curve:
      - time: 0
        value: 0
        inSlope: 0
        outSlope: 0
        tangentMode: 10
      - time: 0.5
        value: 0
        inSlope: 0
        outSlope: 0
        tangentMode: 0
      - time: 3.3
        value: 0
        inSlope: 0
        outSlope: 0
        tangentMode: 0
      - time: 3.75
        value: 0
        inSlope: 0
        outSlope: 0
        tangentMode: 10
      m_PreInfinity: 2
      m_PostInfinity: 2
      m_RotationOrder: 4
    attribute: localEulerAnglesRaw.y
    path: Body/Torso/TorsoUpper/Neck/Head/Face/Right/RightEyebrow
    classID: 4
    script: {fileID: 0}
  - curve:
      serializedVersion: 2
      m_Curve:
      - time: 0
        value: 0
        inSlope: -15.808001
        outSlope: -15.808001
        tangentMode: 10
      - time: 0.5
        value: -7.9040003
        inSlope: 0
        outSlope: 0
        tangentMode: 0
      - time: 3.3
        value: -7.9040003
        inSlope: 0
        outSlope: 0
        tangentMode: 0
      - time: 3.75
        value: 0
        inSlope: 17.564444
        outSlope: 17.564444
        tangentMode: 10
      m_PreInfinity: 2
      m_PostInfinity: 2
      m_RotationOrder: 4
    attribute: localEulerAnglesRaw.z
    path: Body/Torso/TorsoUpper/Neck/Head/Face/Right/RightEyebrow
    classID: 4
    script: {fileID: 0}
  - curve:
      serializedVersion: 2
      m_Curve:
      - time: 0
        value: -0.06968572
        inSlope: 0.012000203
        outSlope: 0.012000203
        tangentMode: 10
      - time: 0.5
        value: -0.06368562
        inSlope: 0
        outSlope: 0
        tangentMode: 0
      - time: 3.3
        value: -0.06368562
        inSlope: 0
        outSlope: 0
        tangentMode: 0
      - time: 3.75
        value: -0.06968572
        inSlope: -0.013333557
        outSlope: -0.013333557
        tangentMode: 10
      m_PreInfinity: 2
      m_PostInfinity: 2
      m_RotationOrder: 4
    attribute: m_LocalPosition.x
    path: Body/Torso/TorsoUpper/Neck/Head/Face/Right/RightEyebrow
    classID: 4
    script: {fileID: 0}
  - curve:
      serializedVersion: 2
      m_Curve:
      - time: 0
        value: 0.2062723
        inSlope: -0.018000036
        outSlope: -0.018000036
        tangentMode: 10
      - time: 0.5
        value: 0.19727229
        inSlope: 0
        outSlope: 0
        tangentMode: 0
      - time: 3.3
        value: 0.19727229
        inSlope: 0
        outSlope: 0
        tangentMode: 0
      - time: 3.75
        value: 0.2062723
        inSlope: 0.020000039
        outSlope: 0.020000039
        tangentMode: 10
      m_PreInfinity: 2
      m_PostInfinity: 2
      m_RotationOrder: 4
    attribute: m_LocalPosition.y
    path: Body/Torso/TorsoUpper/Neck/Head/Face/Right/RightEyebrow
    classID: 4
    script: {fileID: 0}
  - curve:
      serializedVersion: 2
      m_Curve:
      - time: 0
        value: 0
        inSlope: 0
        outSlope: 0
        tangentMode: 10
      - time: 0.5
        value: 0
        inSlope: 0
        outSlope: 0
        tangentMode: 0
      - time: 3.3
        value: 0
        inSlope: 0
        outSlope: 0
        tangentMode: 0
      - time: 3.75
        value: 0
        inSlope: 0
        outSlope: 0
        tangentMode: 10
      m_PreInfinity: 2
      m_PostInfinity: 2
      m_RotationOrder: 4
    attribute: m_LocalPosition.z
    path: Body/Torso/TorsoUpper/Neck/Head/Face/Right/RightEyebrow
    classID: 4
    script: {fileID: 0}
  - curve:
      serializedVersion: 2
      m_Curve:
      - time: 0
        value: 0
        inSlope: 0
        outSlope: 0
        tangentMode: 10
      - time: 0.5
        value: 0
        inSlope: 0
        outSlope: 0
        tangentMode: 10
      - time: 1.8833333
        value: 0
        inSlope: 0
        outSlope: 0
        tangentMode: 10
      - time: 2.8666666
        value: 0
        inSlope: 0
        outSlope: 0
        tangentMode: 10
      - time: 3.75
        value: 0
        inSlope: 0
        outSlope: 0
        tangentMode: 10
      m_PreInfinity: 2
      m_PostInfinity: 2
      m_RotationOrder: 4
    attribute: localEulerAnglesRaw.x
    path: Body/Torso/TorsoUpper/LeftArm
    classID: 4
    script: {fileID: 0}
  - curve:
      serializedVersion: 2
      m_Curve:
      - time: 0
        value: 0
        inSlope: 0
        outSlope: 0
        tangentMode: 10
      - time: 0.5
        value: 0
        inSlope: 0
        outSlope: 0
        tangentMode: 10
      - time: 1.8833333
        value: 0
        inSlope: 0
        outSlope: 0
        tangentMode: 10
      - time: 2.8666666
        value: 0
        inSlope: 0
        outSlope: 0
        tangentMode: 10
      - time: 3.75
        value: 0
        inSlope: 0
        outSlope: 0
        tangentMode: 10
      m_PreInfinity: 2
      m_PostInfinity: 2
      m_RotationOrder: 4
    attribute: localEulerAnglesRaw.y
    path: Body/Torso/TorsoUpper/LeftArm
    classID: 4
    script: {fileID: 0}
  - curve:
      serializedVersion: 2
      m_Curve:
      - time: 0
        value: 0
        inSlope: 4.998
        outSlope: 4.998
        tangentMode: 10
      - time: 0.5
        value: 2.499
        inSlope: 1.268277
        outSlope: 1.268277
        tangentMode: 10
      - time: 1.8833333
        value: -0.906
        inSlope: 1.0380911
        outSlope: 1.0380911
        tangentMode: 10
      - time: 2.8666666
        value: 3.5560002
        inSlope: 0.25598407
        outSlope: 0.25598407
        tangentMode: 10
      - time: 3.75
        value: 0
        inSlope: -4.02566
        outSlope: -4.02566
        tangentMode: 10
      m_PreInfinity: 2
      m_PostInfinity: 2
      m_RotationOrder: 4
    attribute: localEulerAnglesRaw.z
    path: Body/Torso/TorsoUpper/LeftArm
    classID: 4
    script: {fileID: 0}
  - curve:
      serializedVersion: 2
      m_Curve:
      - time: 0
        value: 0
        inSlope: 0
        outSlope: 0
        tangentMode: 10
      - time: 0.5
        value: 0
        inSlope: 0
        outSlope: 0
        tangentMode: 10
      - time: 1.8833333
        value: 0
        inSlope: 0
        outSlope: 0
        tangentMode: 10
      - time: 2.8666666
        value: 0
        inSlope: 0
        outSlope: 0
        tangentMode: 10
      - time: 3.75
        value: 0
        inSlope: 0
        outSlope: 0
        tangentMode: 10
      m_PreInfinity: 2
      m_PostInfinity: 2
      m_RotationOrder: 4
    attribute: localEulerAnglesRaw.x
    path: Body/Torso/TorsoUpper/LeftArm/LeftForearm
    classID: 4
    script: {fileID: 0}
  - curve:
      serializedVersion: 2
      m_Curve:
      - time: 0
        value: 0
        inSlope: 0
        outSlope: 0
        tangentMode: 10
      - time: 0.5
        value: 0
        inSlope: 0
        outSlope: 0
        tangentMode: 10
      - time: 1.8833333
        value: 0
        inSlope: 0
        outSlope: 0
        tangentMode: 10
      - time: 2.8666666
        value: 0
        inSlope: 0
        outSlope: 0
        tangentMode: 10
      - time: 3.75
        value: 0
        inSlope: 0
        outSlope: 0
        tangentMode: 10
      m_PreInfinity: 2
      m_PostInfinity: 2
      m_RotationOrder: 4
    attribute: localEulerAnglesRaw.y
    path: Body/Torso/TorsoUpper/LeftArm/LeftForearm
    classID: 4
    script: {fileID: 0}
  - curve:
      serializedVersion: 2
      m_Curve:
      - time: 0
        value: 0
        inSlope: -13.428
        outSlope: -13.428
        tangentMode: 10
      - time: 0.5
        value: -6.714
        inSlope: -8.133037
        outSlope: -8.133037
        tangentMode: 10
      - time: 1.8833333
        value: -10.64
        inSlope: 1.6704557
        outSlope: 1.6704557
        tangentMode: 10
      - time: 2.8666666
        value: -4.564
        inSlope: 5.672888
        outSlope: 5.672888
        tangentMode: 10
      - time: 3.75
        value: 0
        inSlope: 5.166792
        outSlope: 5.166792
        tangentMode: 10
      m_PreInfinity: 2
      m_PostInfinity: 2
      m_RotationOrder: 4
    attribute: localEulerAnglesRaw.z
    path: Body/Torso/TorsoUpper/LeftArm/LeftForearm
    classID: 4
    script: {fileID: 0}
  - curve:
      serializedVersion: 2
      m_Curve:
      - time: 0
        value: 0
        inSlope: 0
        outSlope: 0
        tangentMode: 10
      - time: 0.25
        value: 0
        inSlope: 0
        outSlope: 0
        tangentMode: 10
      - time: 1.8833333
        value: 0
        inSlope: 0
        outSlope: 0
        tangentMode: 10
      - time: 2.8666666
        value: 0
        inSlope: 0
        outSlope: 0
        tangentMode: 10
      - time: 3.75
        value: 0
        inSlope: 0
        outSlope: 0
        tangentMode: 10
      m_PreInfinity: 2
      m_PostInfinity: 2
      m_RotationOrder: 4
    attribute: localEulerAnglesRaw.x
    path: Body/Torso/TorsoUpper/LeftArm/LeftForearm/LeftHand
    classID: 4
    script: {fileID: 0}
  - curve:
      serializedVersion: 2
      m_Curve:
      - time: 0
        value: 0
        inSlope: 0
        outSlope: 0
        tangentMode: 10
      - time: 0.25
        value: 0
        inSlope: 0
        outSlope: 0
        tangentMode: 10
      - time: 1.8833333
        value: 0
        inSlope: 0
        outSlope: 0
        tangentMode: 10
      - time: 2.8666666
        value: 0
        inSlope: 0
        outSlope: 0
        tangentMode: 10
      - time: 3.75
        value: 0
        inSlope: 0
        outSlope: 0
        tangentMode: 10
      m_PreInfinity: 2
      m_PostInfinity: 2
      m_RotationOrder: 4
    attribute: localEulerAnglesRaw.y
    path: Body/Torso/TorsoUpper/LeftArm/LeftForearm/LeftHand
    classID: 4
    script: {fileID: 0}
  - curve:
      serializedVersion: 2
      m_Curve:
      - time: 0
        value: 0
        inSlope: 8.896001
        outSlope: 8.896001
        tangentMode: 10
      - time: 0.25
        value: 2.2240002
        inSlope: 2.404633
        outSlope: 2.404633
        tangentMode: 10
      - time: 1.8833333
        value: -4.451
        inSlope: 0.06375146
        outSlope: 0.06375146
        tangentMode: 10
      - time: 2.8666666
        value: -0.307
        inSlope: 2.2808924
        outSlope: 2.2808924
        tangentMode: 10
      - time: 3.75
        value: 0
        inSlope: 0.34754714
        outSlope: 0.34754714
        tangentMode: 10
      m_PreInfinity: 2
      m_PostInfinity: 2
      m_RotationOrder: 4
    attribute: localEulerAnglesRaw.z
    path: Body/Torso/TorsoUpper/LeftArm/LeftForearm/LeftHand
    classID: 4
    script: {fileID: 0}
  - curve:
      serializedVersion: 2
      m_Curve:
      - time: 0
        value: 0
        inSlope: 0
        outSlope: 0
        tangentMode: 0
      - time: 0.76666665
        value: 0
        inSlope: 0
        outSlope: 0
        tangentMode: 0
      - time: 3.05
        value: 0
        inSlope: 0
        outSlope: 0
        tangentMode: 0
      - time: 3.3
        value: 0
        inSlope: 0
        outSlope: 0
        tangentMode: 0
      - time: 3.75
        value: 0
        inSlope: 0
        outSlope: 0
        tangentMode: 0
      m_PreInfinity: 2
      m_PostInfinity: 2
      m_RotationOrder: 4
    attribute: localEulerAnglesRaw.x
    path: Body/RightLeg
    classID: 4
    script: {fileID: 0}
  - curve:
      serializedVersion: 2
      m_Curve:
      - time: 0
        value: 0
        inSlope: 0
        outSlope: 0
        tangentMode: 0
      - time: 0.76666665
        value: 0
        inSlope: 0
        outSlope: 0
        tangentMode: 0
      - time: 3.05
        value: 0
        inSlope: 0
        outSlope: 0
        tangentMode: 0
      - time: 3.3
        value: 0
        inSlope: 0
        outSlope: 0
        tangentMode: 0
      - time: 3.75
        value: 0
        inSlope: 0
        outSlope: 0
        tangentMode: 0
      m_PreInfinity: 2
      m_PostInfinity: 2
      m_RotationOrder: 4
    attribute: localEulerAnglesRaw.y
    path: Body/RightLeg
    classID: 4
    script: {fileID: 0}
  - curve:
      serializedVersion: 2
      m_Curve:
      - time: 0
        value: 0
        inSlope: 0
        outSlope: 0
        tangentMode: 0
      - time: 0.76666665
        value: 7.2760005
        inSlope: 0
        outSlope: 0
        tangentMode: 0
      - time: 3.05
        value: 7.2760005
        inSlope: 0
        outSlope: 0
        tangentMode: 0
      - time: 3.75
        value: 0
        inSlope: 0
        outSlope: 0
        tangentMode: 0
      m_PreInfinity: 2
      m_PostInfinity: 2
      m_RotationOrder: 4
    attribute: localEulerAnglesRaw.z
    path: Body/RightLeg
    classID: 4
    script: {fileID: 0}
  - curve:
      serializedVersion: 2
      m_Curve:
      - time: 0
        value: 0
        inSlope: 0
        outSlope: 0
        tangentMode: 10
      - time: 0.35
        value: 0
        inSlope: 0
        outSlope: 0
        tangentMode: 0
      - time: 3.3
        value: 0
        inSlope: 0
        outSlope: 0
        tangentMode: 0
      - time: 3.75
        value: 0
        inSlope: 0
        outSlope: 0
        tangentMode: 10
      m_PreInfinity: 2
      m_PostInfinity: 2
      m_RotationOrder: 4
    attribute: localEulerAnglesRaw.x
    path: Body/RightLeg/RightLegLower
    classID: 4
    script: {fileID: 0}
  - curve:
      serializedVersion: 2
      m_Curve:
      - time: 0
        value: 0
        inSlope: 0
        outSlope: 0
        tangentMode: 10
      - time: 0.35
        value: 0
        inSlope: 0
        outSlope: 0
        tangentMode: 0
      - time: 3.3
        value: 0
        inSlope: 0
        outSlope: 0
        tangentMode: 0
      - time: 3.75
        value: 0
        inSlope: 0
        outSlope: 0
        tangentMode: 10
      m_PreInfinity: 2
      m_PostInfinity: 2
      m_RotationOrder: 4
    attribute: localEulerAnglesRaw.y
    path: Body/RightLeg/RightLegLower
    classID: 4
    script: {fileID: 0}
  - curve:
      serializedVersion: 2
      m_Curve:
      - time: 0
        value: 0
        inSlope: 25.065718
        outSlope: 25.065718
        tangentMode: 10
      - time: 0.35
        value: 8.773001
        inSlope: 0
        outSlope: 0
        tangentMode: 0
      - time: 3.3
        value: 8.773001
        inSlope: 0
        outSlope: 0
        tangentMode: 0
      - time: 3.75
        value: 0
        inSlope: -19.495556
        outSlope: -19.495556
        tangentMode: 10
      m_PreInfinity: 2
      m_PostInfinity: 2
      m_RotationOrder: 4
    attribute: localEulerAnglesRaw.z
    path: Body/RightLeg/RightLegLower
    classID: 4
    script: {fileID: 0}
  - curve:
      serializedVersion: 2
      m_Curve:
      - time: 0
        value: 0
        inSlope: 0
        outSlope: 0
        tangentMode: 10
      - time: 0.35
        value: 0
        inSlope: 0
        outSlope: 0
        tangentMode: 10
      - time: 0.76666665
        value: 0
        inSlope: 0
        outSlope: 0
        tangentMode: 0
      - time: 3.3
        value: 0
        inSlope: 0
        outSlope: 0
        tangentMode: 0
      - time: 3.75
        value: 0
        inSlope: 0
        outSlope: 0
        tangentMode: 10
      m_PreInfinity: 2
      m_PostInfinity: 2
      m_RotationOrder: 4
    attribute: localEulerAnglesRaw.x
    path: Body/RightLeg/RightLegLower/RightShoe
    classID: 4
    script: {fileID: 0}
  - curve:
      serializedVersion: 2
      m_Curve:
      - time: 0
        value: 0
        inSlope: 0
        outSlope: 0
        tangentMode: 10
      - time: 0.35
        value: 0
        inSlope: 0
        outSlope: 0
        tangentMode: 10
      - time: 0.76666665
        value: 0
        inSlope: 0
        outSlope: 0
        tangentMode: 0
      - time: 3.3
        value: 0
        inSlope: 0
        outSlope: 0
        tangentMode: 0
      - time: 3.75
        value: 0
        inSlope: 0
        outSlope: 0
        tangentMode: 10
      m_PreInfinity: 2
      m_PostInfinity: 2
      m_RotationOrder: 4
    attribute: localEulerAnglesRaw.y
    path: Body/RightLeg/RightLegLower/RightShoe
    classID: 4
    script: {fileID: 0}
  - curve:
      serializedVersion: 2
      m_Curve:
      - time: 0
        value: 0
        inSlope: -30.31143
        outSlope: -30.31143
        tangentMode: 10
      - time: 0.35
        value: -10.609
        inSlope: -8.522115
        outSlope: -8.522115
        tangentMode: 10
      - time: 0.76666665
        value: -5.0810003
        inSlope: 0
        outSlope: 0
        tangentMode: 0
      - time: 3.3
        value: 7.2760005
        inSlope: 0
        outSlope: 0
        tangentMode: 0
      - time: 3.75
        value: 0
        inSlope: -16.168888
        outSlope: -16.168888
        tangentMode: 10
      m_PreInfinity: 2
      m_PostInfinity: 2
      m_RotationOrder: 4
    attribute: localEulerAnglesRaw.z
    path: Body/RightLeg/RightLegLower/RightShoe
    classID: 4
    script: {fileID: 0}
  - curve:
      serializedVersion: 2
      m_Curve:
      - time: 1.1333333
        value: 1
        inSlope: Infinity
        outSlope: Infinity
        tangentMode: 31
      - time: 1.2333332
        value: 0
        inSlope: Infinity
        outSlope: Infinity
        tangentMode: 31
      - time: 3.05
        value: 1
        inSlope: Infinity
        outSlope: Infinity
        tangentMode: 31
      - time: 3.1499999
        value: 0
        inSlope: Infinity
        outSlope: Infinity
        tangentMode: 31
      m_PreInfinity: 2
      m_PostInfinity: 2
      m_RotationOrder: 4
    attribute: m_IsActive
    path: Body/Torso/TorsoUpper/Neck/Head/Face/Left/EyeLeftClosed
    classID: 1
    script: {fileID: 0}
  - curve:
      serializedVersion: 2
      m_Curve:
      - time: 1.1333333
        value: 1
        inSlope: Infinity
        outSlope: Infinity
        tangentMode: 31
      - time: 1.2333332
        value: 0
        inSlope: Infinity
        outSlope: Infinity
        tangentMode: 31
      - time: 3.05
        value: 1
        inSlope: Infinity
        outSlope: Infinity
        tangentMode: 31
      - time: 3.1499999
        value: 0
        inSlope: Infinity
        outSlope: Infinity
        tangentMode: 31
      m_PreInfinity: 2
      m_PostInfinity: 2
      m_RotationOrder: 4
    attribute: m_IsActive
    path: Body/Torso/TorsoUpper/Neck/Head/Face/Right/EyeRightClosed
    classID: 1
    script: {fileID: 0}
  - curve:
      serializedVersion: 2
      m_Curve:
      - time: 0
        value: 1
        inSlope: Infinity
        outSlope: Infinity
        tangentMode: 31
      - time: 0.41666666
        value: 0
        inSlope: Infinity
        outSlope: Infinity
        tangentMode: 31
      - time: 3.5333333
        value: 1
        inSlope: Infinity
        outSlope: Infinity
        tangentMode: 31
      m_PreInfinity: 2
      m_PostInfinity: 2
      m_RotationOrder: 4
    attribute: m_IsActive
    path: Body/Torso/TorsoUpper/Neck/Head/Face/MouthClosed
    classID: 1
    script: {fileID: 0}
  - curve:
      serializedVersion: 2
      m_Curve:
      - time: 0
        value: 0
        inSlope: Infinity
        outSlope: Infinity
        tangentMode: 31
      - time: 0.41666666
        value: 1
        inSlope: Infinity
        outSlope: Infinity
        tangentMode: 31
      - time: 3.5333333
        value: 0
        inSlope: Infinity
        outSlope: Infinity
        tangentMode: 31
      m_PreInfinity: 2
      m_PostInfinity: 2
      m_RotationOrder: 4
    attribute: m_IsActive
    path: Body/Torso/TorsoUpper/Neck/Head/Face/MouthAnger
    classID: 1
    script: {fileID: 0}
  - curve:
      serializedVersion: 2
      m_Curve:
      - time: 0
        value: 0
        inSlope: Infinity
        outSlope: Infinity
        tangentMode: 31
      - time: 0.41666666
        value: 1
        inSlope: Infinity
        outSlope: Infinity
        tangentMode: 31
      - time: 3.45
        value: 0
        inSlope: Infinity
        outSlope: Infinity
        tangentMode: 31
      m_PreInfinity: 2
      m_PostInfinity: 2
      m_RotationOrder: 4
    attribute: m_IsActive
    path: Body/Torso/TorsoUpper/RightArm/RightForearm/RightHand/HandRightDisagree
    classID: 1
    script: {fileID: 0}
  - curve:
      serializedVersion: 2
      m_Curve:
      - time: 0
        value: 1
        inSlope: Infinity
        outSlope: Infinity
        tangentMode: 31
      - time: 0.41666666
        value: 0
        inSlope: Infinity
        outSlope: Infinity
        tangentMode: 31
      - time: 3.45
        value: 1
        inSlope: Infinity
        outSlope: Infinity
        tangentMode: 31
      m_PreInfinity: 2
      m_PostInfinity: 2
      m_RotationOrder: 4
    attribute: m_IsActive
    path: Body/Torso/TorsoUpper/RightArm/RightForearm/RightHand/HandRightIdle
    classID: 1
    script: {fileID: 0}
  m_EulerEditorCurves:
  - curve:
      serializedVersion: 2
      m_Curve: []
      m_PreInfinity: 2
      m_PostInfinity: 2
      m_RotationOrder: 4
    attribute: m_LocalEulerAngles.z
    path: Body/Torso/TorsoUpper/RightArm/RightForearm
    classID: 4
    script: {fileID: 0}
  - curve:
      serializedVersion: 2
      m_Curve: []
      m_PreInfinity: 2
      m_PostInfinity: 2
      m_RotationOrder: 4
    attribute: m_LocalEulerAngles.y
    path: Body/Torso/TorsoUpper/RightArm/RightForearm
    classID: 4
    script: {fileID: 0}
  - curve:
      serializedVersion: 2
      m_Curve: []
      m_PreInfinity: 2
      m_PostInfinity: 2
      m_RotationOrder: 4
    attribute: m_LocalEulerAngles.x
    path: Body/Torso/TorsoUpper/RightArm/RightForearm
    classID: 4
    script: {fileID: 0}
  - curve:
      serializedVersion: 2
      m_Curve: []
      m_PreInfinity: 2
      m_PostInfinity: 2
      m_RotationOrder: 4
    attribute: m_LocalEulerAngles.z
    path: Body/Torso/TorsoUpper/Neck
    classID: 4
    script: {fileID: 0}
  - curve:
      serializedVersion: 2
      m_Curve: []
      m_PreInfinity: 2
      m_PostInfinity: 2
      m_RotationOrder: 4
    attribute: m_LocalEulerAngles.y
    path: Body/Torso/TorsoUpper/Neck
    classID: 4
    script: {fileID: 0}
  - curve:
      serializedVersion: 2
      m_Curve: []
      m_PreInfinity: 2
      m_PostInfinity: 2
      m_RotationOrder: 4
    attribute: m_LocalEulerAngles.x
    path: Body/Torso/TorsoUpper/Neck
    classID: 4
    script: {fileID: 0}
  - curve:
      serializedVersion: 2
      m_Curve: []
      m_PreInfinity: 2
      m_PostInfinity: 2
      m_RotationOrder: 4
    attribute: m_LocalEulerAngles.z
    path: Body/Torso/TorsoUpper/Neck/Head
    classID: 4
    script: {fileID: 0}
  - curve:
      serializedVersion: 2
      m_Curve: []
      m_PreInfinity: 2
      m_PostInfinity: 2
      m_RotationOrder: 4
    attribute: m_LocalEulerAngles.y
    path: Body/Torso/TorsoUpper/Neck/Head
    classID: 4
    script: {fileID: 0}
  - curve:
      serializedVersion: 2
      m_Curve: []
      m_PreInfinity: 2
      m_PostInfinity: 2
      m_RotationOrder: 4
    attribute: m_LocalEulerAngles.x
    path: Body/Torso/TorsoUpper/Neck/Head
    classID: 4
    script: {fileID: 0}
  - curve:
      serializedVersion: 2
      m_Curve: []
      m_PreInfinity: 2
      m_PostInfinity: 2
      m_RotationOrder: 4
    attribute: m_LocalEulerAngles.z
    path: Body/Torso/TorsoUpper/RightArm/RightForearm/RightHand
    classID: 4
    script: {fileID: 0}
  - curve:
      serializedVersion: 2
      m_Curve: []
      m_PreInfinity: 2
      m_PostInfinity: 2
      m_RotationOrder: 4
    attribute: m_LocalEulerAngles.y
    path: Body/Torso/TorsoUpper/RightArm/RightForearm/RightHand
    classID: 4
    script: {fileID: 0}
  - curve:
      serializedVersion: 2
      m_Curve: []
      m_PreInfinity: 2
      m_PostInfinity: 2
      m_RotationOrder: 4
    attribute: m_LocalEulerAngles.x
    path: Body/Torso/TorsoUpper/RightArm/RightForearm/RightHand
    classID: 4
    script: {fileID: 0}
  - curve:
      serializedVersion: 2
      m_Curve: []
      m_PreInfinity: 2
      m_PostInfinity: 2
      m_RotationOrder: 4
    attribute: m_LocalEulerAngles.z
    path: Body/Torso/TorsoUpper/LeftArm/LeftForearm
    classID: 4
    script: {fileID: 0}
  - curve:
      serializedVersion: 2
      m_Curve: []
      m_PreInfinity: 2
      m_PostInfinity: 2
      m_RotationOrder: 4
    attribute: m_LocalEulerAngles.y
    path: Body/Torso/TorsoUpper/LeftArm/LeftForearm
    classID: 4
    script: {fileID: 0}
  - curve:
      serializedVersion: 2
      m_Curve: []
      m_PreInfinity: 2
      m_PostInfinity: 2
      m_RotationOrder: 4
    attribute: m_LocalEulerAngles.x
    path: Body/Torso/TorsoUpper/LeftArm/LeftForearm
    classID: 4
    script: {fileID: 0}
  - curve:
      serializedVersion: 2
      m_Curve: []
      m_PreInfinity: 2
      m_PostInfinity: 2
      m_RotationOrder: 4
    attribute: m_LocalEulerAngles.z
    path: Body/Torso/TorsoUpper
    classID: 4
    script: {fileID: 0}
  - curve:
      serializedVersion: 2
      m_Curve: []
      m_PreInfinity: 2
      m_PostInfinity: 2
      m_RotationOrder: 4
    attribute: m_LocalEulerAngles.y
    path: Body/Torso/TorsoUpper
    classID: 4
    script: {fileID: 0}
  - curve:
      serializedVersion: 2
      m_Curve: []
      m_PreInfinity: 2
      m_PostInfinity: 2
      m_RotationOrder: 4
    attribute: m_LocalEulerAngles.x
    path: Body/Torso/TorsoUpper
    classID: 4
    script: {fileID: 0}
  - curve:
      serializedVersion: 2
      m_Curve: []
      m_PreInfinity: 2
      m_PostInfinity: 2
      m_RotationOrder: 4
    attribute: m_LocalEulerAngles.z
    path: Body/Torso/TorsoUpper/Neck/Head/Face/Right/RightEyebrow
    classID: 4
    script: {fileID: 0}
  - curve:
      serializedVersion: 2
      m_Curve: []
      m_PreInfinity: 2
      m_PostInfinity: 2
      m_RotationOrder: 4
    attribute: m_LocalEulerAngles.y
    path: Body/Torso/TorsoUpper/Neck/Head/Face/Right/RightEyebrow
    classID: 4
    script: {fileID: 0}
  - curve:
      serializedVersion: 2
      m_Curve: []
      m_PreInfinity: 2
      m_PostInfinity: 2
      m_RotationOrder: 4
    attribute: m_LocalEulerAngles.x
    path: Body/Torso/TorsoUpper/Neck/Head/Face/Right/RightEyebrow
    classID: 4
    script: {fileID: 0}
  - curve:
      serializedVersion: 2
      m_Curve: []
      m_PreInfinity: 2
      m_PostInfinity: 2
      m_RotationOrder: 4
    attribute: m_LocalEulerAngles.z
    path: Body/Torso/TorsoUpper/Neck/Head/Face/Left/LeftEyebrow
    classID: 4
    script: {fileID: 0}
  - curve:
      serializedVersion: 2
      m_Curve: []
      m_PreInfinity: 2
      m_PostInfinity: 2
      m_RotationOrder: 4
    attribute: m_LocalEulerAngles.y
    path: Body/Torso/TorsoUpper/Neck/Head/Face/Left/LeftEyebrow
    classID: 4
    script: {fileID: 0}
  - curve:
      serializedVersion: 2
      m_Curve: []
      m_PreInfinity: 2
      m_PostInfinity: 2
      m_RotationOrder: 4
    attribute: m_LocalEulerAngles.x
    path: Body/Torso/TorsoUpper/Neck/Head/Face/Left/LeftEyebrow
    classID: 4
    script: {fileID: 0}
  - curve:
      serializedVersion: 2
      m_Curve: []
      m_PreInfinity: 2
      m_PostInfinity: 2
      m_RotationOrder: 4
    attribute: m_LocalEulerAngles.z
    path: Body/Torso/TorsoUpper/LeftArm
    classID: 4
    script: {fileID: 0}
  - curve:
      serializedVersion: 2
      m_Curve: []
      m_PreInfinity: 2
      m_PostInfinity: 2
      m_RotationOrder: 4
    attribute: m_LocalEulerAngles.y
    path: Body/Torso/TorsoUpper/LeftArm
    classID: 4
    script: {fileID: 0}
  - curve:
      serializedVersion: 2
      m_Curve: []
      m_PreInfinity: 2
      m_PostInfinity: 2
      m_RotationOrder: 4
    attribute: m_LocalEulerAngles.x
    path: Body/Torso/TorsoUpper/LeftArm
    classID: 4
    script: {fileID: 0}
  - curve:
      serializedVersion: 2
      m_Curve: []
      m_PreInfinity: 2
      m_PostInfinity: 2
      m_RotationOrder: 4
    attribute: m_LocalEulerAngles.z
    path: Body/Torso/TorsoUpper/LeftArm/LeftForearm/LeftHand
    classID: 4
    script: {fileID: 0}
  - curve:
      serializedVersion: 2
      m_Curve: []
      m_PreInfinity: 2
      m_PostInfinity: 2
      m_RotationOrder: 4
    attribute: m_LocalEulerAngles.y
    path: Body/Torso/TorsoUpper/LeftArm/LeftForearm/LeftHand
    classID: 4
    script: {fileID: 0}
  - curve:
      serializedVersion: 2
      m_Curve: []
      m_PreInfinity: 2
      m_PostInfinity: 2
      m_RotationOrder: 4
    attribute: m_LocalEulerAngles.x
    path: Body/Torso/TorsoUpper/LeftArm/LeftForearm/LeftHand
    classID: 4
    script: {fileID: 0}
  - curve:
      serializedVersion: 2
      m_Curve: []
      m_PreInfinity: 2
      m_PostInfinity: 2
      m_RotationOrder: 4
    attribute: m_LocalEulerAngles.z
    path: Body/RightLeg/RightLegLower
    classID: 4
    script: {fileID: 0}
  - curve:
      serializedVersion: 2
      m_Curve: []
      m_PreInfinity: 2
      m_PostInfinity: 2
      m_RotationOrder: 4
    attribute: m_LocalEulerAngles.y
    path: Body/RightLeg/RightLegLower
    classID: 4
    script: {fileID: 0}
  - curve:
      serializedVersion: 2
      m_Curve: []
      m_PreInfinity: 2
      m_PostInfinity: 2
      m_RotationOrder: 4
    attribute: m_LocalEulerAngles.x
    path: Body/RightLeg/RightLegLower
    classID: 4
    script: {fileID: 0}
  - curve:
      serializedVersion: 2
      m_Curve: []
      m_PreInfinity: 2
      m_PostInfinity: 2
      m_RotationOrder: 4
    attribute: m_LocalEulerAngles.z
    path: Body/Torso/TorsoUpper/RightArm
    classID: 4
    script: {fileID: 0}
  - curve:
      serializedVersion: 2
      m_Curve: []
      m_PreInfinity: 2
      m_PostInfinity: 2
      m_RotationOrder: 4
    attribute: m_LocalEulerAngles.y
    path: Body/Torso/TorsoUpper/RightArm
    classID: 4
    script: {fileID: 0}
  - curve:
      serializedVersion: 2
      m_Curve: []
      m_PreInfinity: 2
      m_PostInfinity: 2
      m_RotationOrder: 4
    attribute: m_LocalEulerAngles.x
    path: Body/Torso/TorsoUpper/RightArm
    classID: 4
    script: {fileID: 0}
  - curve:
      serializedVersion: 2
      m_Curve: []
      m_PreInfinity: 2
      m_PostInfinity: 2
      m_RotationOrder: 4
    attribute: m_LocalEulerAngles.z
    path: Body/RightLeg
    classID: 4
    script: {fileID: 0}
  - curve:
      serializedVersion: 2
      m_Curve: []
      m_PreInfinity: 2
      m_PostInfinity: 2
      m_RotationOrder: 4
    attribute: m_LocalEulerAngles.y
    path: Body/RightLeg
    classID: 4
    script: {fileID: 0}
  - curve:
      serializedVersion: 2
      m_Curve: []
      m_PreInfinity: 2
      m_PostInfinity: 2
      m_RotationOrder: 4
    attribute: m_LocalEulerAngles.x
    path: Body/RightLeg
    classID: 4
    script: {fileID: 0}
  - curve:
      serializedVersion: 2
      m_Curve: []
      m_PreInfinity: 2
      m_PostInfinity: 2
      m_RotationOrder: 4
    attribute: m_LocalEulerAngles.z
    path: Body/Torso
    classID: 4
    script: {fileID: 0}
  - curve:
      serializedVersion: 2
      m_Curve: []
      m_PreInfinity: 2
      m_PostInfinity: 2
      m_RotationOrder: 4
    attribute: m_LocalEulerAngles.y
    path: Body/Torso
    classID: 4
    script: {fileID: 0}
  - curve:
      serializedVersion: 2
      m_Curve: []
      m_PreInfinity: 2
      m_PostInfinity: 2
      m_RotationOrder: 4
    attribute: m_LocalEulerAngles.x
    path: Body/Torso
    classID: 4
    script: {fileID: 0}
  - curve:
      serializedVersion: 2
      m_Curve: []
      m_PreInfinity: 2
      m_PostInfinity: 2
      m_RotationOrder: 4
    attribute: m_LocalEulerAngles.x
    path: Body/RightLeg/RightLegLower/RightShoe
    classID: 4
    script: {fileID: 0}
  - curve:
      serializedVersion: 2
      m_Curve: []
      m_PreInfinity: 2
      m_PostInfinity: 2
      m_RotationOrder: 4
    attribute: m_LocalEulerAngles.y
    path: Body/RightLeg/RightLegLower/RightShoe
    classID: 4
    script: {fileID: 0}
  - curve:
      serializedVersion: 2
      m_Curve: []
      m_PreInfinity: 2
      m_PostInfinity: 2
      m_RotationOrder: 4
    attribute: m_LocalEulerAngles.z
    path: Body/RightLeg/RightLegLower/RightShoe
    classID: 4
    script: {fileID: 0}
  m_HasGenericRootTransform: 0
  m_HasMotionFloatCurves: 0
  m_GenerateMotionCurves: 0
  m_Events: []
