%YAML 1.1
%TAG !u! tag:unity3d.com,2011:
--- !u!74 &7400000
AnimationClip:
  m_ObjectHideFlags: 0
  m_PrefabParentObject: {fileID: 0}
  m_PrefabInternal: {fileID: 0}
  m_Name: MaleFear
  serializedVersion: 6
  m_Legacy: 0
  m_Compressed: 0
  m_UseHighQualityCurve: 1
  m_RotationCurves: []
  m_CompressedRotationCurves: []
  m_EulerCurves:
  - curve:
      serializedVersion: 2
      m_Curve:
      - time: 0
        value: {x: 0, y: 0, z: 0}
        inSlope: {x: 61.428005, y: 0, z: 0}
        outSlope: {x: 61.428005, y: 0, z: 0}
        tangentMode: 0
      - time: 0.65
        value: {x: 40.90145, y: 0, z: 0}
        inSlope: {x: 6.027636, y: 0, z: 66.11983}
        outSlope: {x: 6.027636, y: 0, z: 66.11983}
        tangentMode: 0
      - time: 0.6666667
        value: {x: 40.952003, y: 0, z: 2.204}
        inSlope: {x: 0, y: 0, z: 58.77316}
        outSlope: {x: 0, y: 0, z: 58.77316}
        tangentMode: 0
      - time: 0.81666666
        value: {x: 40.952003, y: 0, z: 0}
        inSlope: {x: 0, y: 0, z: -7.346668}
        outSlope: {x: 0, y: 0, z: -7.346668}
        tangentMode: 0
      - time: 2.3166666
        value: {x: 40.952003, y: 0, z: 0}
        inSlope: {x: 0, y: 0, z: 0}
        outSlope: {x: 0, y: 0, z: 0}
        tangentMode: 0
      - time: 3.1833334
        value: {x: 2.3489358, y: 0, z: 0}
        inSlope: {x: -49.149776, y: 0, z: 0}
        outSlope: {x: -49.149776, y: 0, z: 0}
        tangentMode: 0
      - time: 3.2333333
        value: {x: 0, y: 0, z: 0}
        inSlope: {x: -44.674908, y: 0, z: 0}
        outSlope: {x: -44.674908, y: 0, z: 0}
        tangentMode: 0
      m_PreInfinity: 2
      m_PostInfinity: 2
      m_RotationOrder: 4
    path: Body/Torso/TorsoUpper/RightArm
  - curve:
      serializedVersion: 2
      m_Curve:
      - time: 0
        value: {x: -0, y: 0, z: 0}
        inSlope: {x: 0, y: 0, z: -12.958}
        outSlope: {x: 0, y: 0, z: -12.958}
        tangentMode: 0
      - time: 0.5
        value: {x: 0, y: 0, z: -6.479}
        inSlope: {x: 0, y: 0, z: -12.659002}
        outSlope: {x: 0, y: 0, z: -12.659002}
        tangentMode: 0
      - time: 0.71666664
        value: {x: 0, y: 0, z: -9.157001}
        inSlope: {x: 0, y: 0, z: 0}
        outSlope: {x: 0, y: 0, z: 0}
        tangentMode: 0
      - time: 2.7833333
        value: {x: 0, y: 0, z: -9.157001}
        inSlope: {x: 0, y: 0, z: 0}
        outSlope: {x: 0, y: 0, z: 0}
        tangentMode: 0
      - time: 3.2166667
        value: {x: -0, y: 0, z: 0}
        inSlope: {x: -0, y: 0, z: 21.131536}
        outSlope: {x: -0, y: 0, z: 21.131536}
        tangentMode: 0
      m_PreInfinity: 2
      m_PostInfinity: 2
      m_RotationOrder: 4
    path: Body/Torso/TorsoUpper/LeftArm
  - curve:
      serializedVersion: 2
      m_Curve:
      - time: 0
        value: {x: 0, y: 0, z: 0}
        inSlope: {x: 0, y: 0, z: -0.81200004}
        outSlope: {x: 0, y: 0, z: -0.81200004}
        tangentMode: 0
      - time: 0.5
        value: {x: 0, y: 0, z: -0.40600002}
        inSlope: {x: 0, y: 0, z: -185.50833}
        outSlope: {x: 0, y: 0, z: -185.50833}
        tangentMode: 0
      - time: 0.71666664
        value: {x: 0, y: 0, z: -80.617}
        inSlope: {x: 0, y: 0, z: 0}
        outSlope: {x: 0, y: 0, z: 0}
        tangentMode: 0
      - time: 2.7833333
        value: {x: 0, y: 0, z: -80.617}
        inSlope: {x: 0, y: 0, z: 0}
        outSlope: {x: 0, y: 0, z: 0}
        tangentMode: 0
      - time: 3.2166667
        value: {x: 0, y: 0, z: 0}
        inSlope: {x: 0, y: 0, z: 186.0392}
        outSlope: {x: 0, y: 0, z: 186.0392}
        tangentMode: 0
      m_PreInfinity: 2
      m_PostInfinity: 2
      m_RotationOrder: 4
    path: Body/Torso/TorsoUpper/LeftArm/LeftForearm
  - curve:
      serializedVersion: 2
      m_Curve:
      - time: 0
        value: {x: 0, y: 0, z: 0}
        inSlope: {x: 0, y: 0, z: 9.408}
        outSlope: {x: 0, y: 0, z: 9.408}
        tangentMode: 0
      - time: 0.5
        value: {x: 0, y: 0, z: 4.704}
        inSlope: {x: 0, y: 0, z: 4.9856668}
        outSlope: {x: 0, y: 0, z: 4.9856668}
        tangentMode: 0
      - time: 2.6
        value: {x: 0, y: 0, z: 5.887}
        inSlope: {x: 0, y: 0, z: -4.4915757}
        outSlope: {x: 0, y: 0, z: -4.4915757}
        tangentMode: 0
      - time: 3.2166667
        value: {x: 0, y: 0, z: 0}
        inSlope: {x: 0, y: 0, z: -9.546485}
        outSlope: {x: 0, y: 0, z: -9.546485}
        tangentMode: 0
      m_PreInfinity: 2
      m_PostInfinity: 2
      m_RotationOrder: 4
    path: Body/Torso/TorsoUpper/Neck
  - curve:
      serializedVersion: 2
      m_Curve:
      - time: 0
        value: {x: 0, y: 0, z: 0}
        inSlope: {x: 0, y: 0, z: -11.882001}
        outSlope: {x: 0, y: 0, z: -11.882001}
        tangentMode: 0
      - time: 0.5
        value: {x: 0, y: 0, z: -5.9410005}
        inSlope: {x: 0, y: 0, z: -6.5767145}
        outSlope: {x: 0, y: 0, z: -6.5767145}
        tangentMode: 0
      - time: 2.6
        value: {x: 0, y: 0, z: -8.611}
        inSlope: {x: 0, y: 0, z: 6.3461766}
        outSlope: {x: 0, y: 0, z: 6.3461766}
        tangentMode: 0
      - time: 3.2166667
        value: {x: 0, y: 0, z: 0}
        inSlope: {x: 0, y: 0, z: 13.963781}
        outSlope: {x: 0, y: 0, z: 13.963781}
        tangentMode: 0
      m_PreInfinity: 2
      m_PostInfinity: 2
      m_RotationOrder: 4
    path: Body/Torso/TorsoUpper/Neck/Head
  - curve:
      serializedVersion: 2
      m_Curve:
      - time: 0
        value: {x: 0, y: 0, z: -3.3853066}
        inSlope: {x: 0, y: 0, z: 0.030612946}
        outSlope: {x: 0, y: 0, z: 0.030612946}
        tangentMode: 0
      - time: 0.5
        value: {x: 0, y: 0, z: -3.3700001}
        inSlope: {x: 0, y: 0, z: 0}
        outSlope: {x: 0, y: 0, z: 0}
        tangentMode: 0
      - time: 2.7833333
        value: {x: 0, y: 0, z: -3.3700001}
        inSlope: {x: 0, y: 0, z: 0}
        outSlope: {x: 0, y: 0, z: 0}
        tangentMode: 0
      - time: 3.2166667
        value: {x: 0, y: 0, z: -3.3853066}
        inSlope: {x: 0, y: 0, z: -0.035322625}
        outSlope: {x: 0, y: 0, z: -0.035322625}
        tangentMode: 0
      m_PreInfinity: 2
      m_PostInfinity: 2
      m_RotationOrder: 4
    path: Body/Waist
  - curve:
      serializedVersion: 2
      m_Curve:
      - time: 0
        value: {x: -0, y: 0, z: 0}
        inSlope: {x: 0, y: 0, z: -10.152}
        outSlope: {x: 0, y: 0, z: -10.152}
        tangentMode: 0
      - time: 0.5
        value: {x: 0, y: 0, z: -5.076}
        inSlope: {x: 0, y: 0, z: 0}
        outSlope: {x: 0, y: 0, z: 0}
        tangentMode: 0
      - time: 2.7833333
        value: {x: 0, y: 0, z: -19.37}
        inSlope: {x: 0, y: 0, z: 0}
        outSlope: {x: 0, y: 0, z: 0}
        tangentMode: 0
      - time: 3.2166667
        value: {x: -0, y: 0, z: 0}
        inSlope: {x: -0, y: 0, z: 44.699997}
        outSlope: {x: -0, y: 0, z: 44.699997}
        tangentMode: 0
      m_PreInfinity: 2
      m_PostInfinity: 2
      m_RotationOrder: 4
    path: Body/Torso/TorsoUpper/LeftArm/LeftForearm/LeftHand
  - curve:
      serializedVersion: 2
      m_Curve:
      - time: 0
        value: {x: 0, y: 0, z: -7.913772}
        inSlope: {x: 0, y: 0, z: -9.861445}
        outSlope: {x: 0, y: 0, z: -9.861445}
        tangentMode: 0
      - time: 0.5
        value: {x: 0, y: 0, z: -12.844495}
        inSlope: {x: 0, y: 0, z: 0}
        outSlope: {x: 0, y: 0, z: 0}
        tangentMode: 0
      - time: 0.71666664
        value: {x: 0, y: 0, z: -7.471743}
        inSlope: {x: 0, y: 0, z: 42.00958}
        outSlope: {x: 0, y: 0, z: 42.00958}
        tangentMode: 0
      - time: 0.81666666
        value: {x: -0.49600002, y: 0.97800004, z: -2.9880269}
        inSlope: {x: 0, y: 0, z: 46.048954}
        outSlope: {x: 0, y: 0, z: 46.048954}
        tangentMode: 0
      - time: 1.1166667
        value: {x: -0.4697871, y: 0.92631406, z: 6.1005836}
        inSlope: {x: 0.16595, y: -0.3272159, z: 0}
        outSlope: {x: 0.16595, y: -0.3272159, z: 0}
        tangentMode: 0
      - time: 2.7
        value: {x: -0.01223299, y: 0.024120692, z: 6.1005836}
        inSlope: {x: 0.1668103, y: -0.3289123, z: 0}
        outSlope: {x: 0.1668103, y: -0.3289123, z: 0}
        tangentMode: 0
      - time: 2.7833333
        value: {x: 0, y: 0, z: 5.430233}
        inSlope: {x: 0.1261017, y: -0.24864407, z: -15.382802}
        outSlope: {x: 0.1261017, y: -0.24864407, z: -15.382802}
        tangentMode: 0
      - time: 3.2166667
        value: {x: 0, y: 0, z: -7.913772}
        inSlope: {x: 0, y: 0, z: -27.12456}
        outSlope: {x: 0, y: 0, z: -27.12456}
        tangentMode: 0
      m_PreInfinity: 2
      m_PostInfinity: 2
      m_RotationOrder: 4
    path: Body/Torso/TorsoUpper/RightArm/RightForearm/RightHand
  - curve:
      serializedVersion: 2
      m_Curve:
      - time: 0
        value: {x: 0, y: 0, z: 0}
        inSlope: {x: 0, y: 0, z: 6.5360003}
        outSlope: {x: 0, y: 0, z: 6.5360003}
        tangentMode: 0
      - time: 0.5
        value: {x: 0, y: 0, z: 3.2680001}
        inSlope: {x: 0, y: 0, z: 5.764924}
        outSlope: {x: 0, y: 0, z: 5.764924}
        tangentMode: 0
      - time: 0.71666664
        value: {x: 0, y: 0, z: 4.3500004}
        inSlope: {x: 0, y: 0, z: 2.8279858}
        outSlope: {x: 0, y: 0, z: 2.8279858}
        tangentMode: 0
      - time: 2.6
        value: {x: 0, y: 0, z: 5.597}
        inSlope: {x: 0, y: 0, z: -4.2070456}
        outSlope: {x: 0, y: 0, z: -4.2070456}
        tangentMode: 0
      - time: 3.2166667
        value: {x: 0, y: 0, z: 0}
        inSlope: {x: 0, y: 0, z: -9.076215}
        outSlope: {x: 0, y: 0, z: -9.076215}
        tangentMode: 0
      m_PreInfinity: 2
      m_PostInfinity: 2
      m_RotationOrder: 4
    path: Body/Torso/TorsoUpper
  - curve:
      serializedVersion: 2
      m_Curve:
      - time: 0
        value: {x: 0, y: 0, z: 0}
        inSlope: {x: -68.88231, y: 0, z: 244.97403}
        outSlope: {x: -68.88231, y: 0, z: 244.97403}
        tangentMode: 0
      - time: 0.65000004
        value: {x: -45.86486, y: 0, z: 159.23312}
        inSlope: {x: -6.759075, y: 0, z: 0}
        outSlope: {x: -6.759075, y: 0, z: 0}
        tangentMode: 0
      - time: 0.6666667
        value: {x: -45.92154, y: 0, z: 159.23218}
        inSlope: {x: 0, y: 0, z: -0.11211426}
        outSlope: {x: 0, y: 0, z: -0.11211426}
        tangentMode: 0
      - time: 2.3166666
        value: {x: -45.92154, y: 0, z: 154.75943}
        inSlope: {x: 0, y: 0, z: -2.4024448}
        outSlope: {x: 0, y: 0, z: -2.4024448}
        tangentMode: 0
      - time: 2.7666667
        value: {x: -23.5869, y: 0, z: 154.17023}
        inSlope: {x: 75.119484, y: 0, z: 0}
        outSlope: {x: 75.119484, y: 0, z: 0}
        tangentMode: 0
      - time: 3.2333333
        value: {x: 0, y: 0, z: 0}
        inSlope: {x: 0, y: 0, z: 0}
        outSlope: {x: 0, y: 0, z: 0}
        tangentMode: 0
      m_PreInfinity: 2
      m_PostInfinity: 2
      m_RotationOrder: 4
    path: Body/Torso/TorsoUpper/RightArm/RightForearm
  - curve:
      serializedVersion: 2
      m_Curve:
      - time: 0
        value: {x: 0, y: 0, z: 0}
        inSlope: {x: 0, y: 0, z: -5.0566673}
        outSlope: {x: 0, y: 0, z: -5.0566673}
        tangentMode: 0
      - time: 2.1
        value: {x: 0, y: 0, z: -10.619}
        inSlope: {x: 0, y: 0, z: 0}
        outSlope: {x: 0, y: 0, z: 0}
        tangentMode: 0
      - time: 3.2333333
        value: {x: 0, y: 0, z: 0}
        inSlope: {x: 0, y: 0, z: 9.369705}
        outSlope: {x: 0, y: 0, z: 9.369705}
        tangentMode: 0
      m_PreInfinity: 2
      m_PostInfinity: 2
      m_RotationOrder: 4
    path: Body/Torso/TorsoUpper/Neck/Head/Face/Left/LeftEyebrow
  - curve:
      serializedVersion: 2
      m_Curve:
      - time: 0
        value: {x: 0, y: 0, z: 0}
        inSlope: {x: 0, y: 0, z: 6.898096}
        outSlope: {x: 0, y: 0, z: 6.898096}
        tangentMode: 0
      - time: 2.1
        value: {x: 0, y: 0, z: 14.486001}
        inSlope: {x: 0, y: 0, z: 0}
        outSlope: {x: 0, y: 0, z: 0}
        tangentMode: 0
      - time: 3.2333333
        value: {x: 0, y: 0, z: 0}
        inSlope: {x: 0, y: 0, z: -12.781764}
        outSlope: {x: 0, y: 0, z: -12.781764}
        tangentMode: 0
      m_PreInfinity: 2
      m_PostInfinity: 2
      m_RotationOrder: 4
    path: Body/Torso/TorsoUpper/Neck/Head/Face/Right/RightEyebrow
  - curve:
      serializedVersion: 2
      m_Curve:
      - time: 0
        value: {x: -0, y: -0, z: 101.13151}
        inSlope: {x: 7.940635, y: 1432.9685, z: -224.5053}
        outSlope: {x: 7.940635, y: 1432.9685, z: -224.5053}
        tangentMode: 0
      - time: 0.25
        value: {x: 1.9851588, y: 358.24213, z: 45.005184}
        inSlope: {x: 7.940635, y: 1432.9685, z: -224.5053}
        outSlope: {x: 7.940635, y: 1432.9685, z: -224.5053}
        tangentMode: 0
      m_PreInfinity: 2
      m_PostInfinity: 2
      m_RotationOrder: 4
    path: Body/Torso/TorsoUpper/RightArm/RightForearm/RightHand/HandRightConfusionFront
      (1)
  - curve:
      serializedVersion: 2
      m_Curve:
      - time: 0
        value: {x: 0, y: 0, z: 0}
        inSlope: {x: 0, y: 0, z: 0}
        outSlope: {x: 0, y: 0, z: 0}
        tangentMode: 0
      m_PreInfinity: 2
      m_PostInfinity: 2
      m_RotationOrder: 4
    path: Body/Torso/TorsoUpper/Neck/Neck
  m_PositionCurves:
  - curve:
      serializedVersion: 2
      m_Curve:
      - time: 0
        value: {x: 2.2209988, y: 4.0872903, z: 0}
        inSlope: {x: 0, y: 0, z: 0}
        outSlope: {x: 0, y: 0, z: 0}
        tangentMode: 0
      - time: 3.2166667
        value: {x: 2.2209988, y: 4.0872903, z: 0}
        inSlope: {x: 0, y: 0, z: 0}
        outSlope: {x: 0, y: 0, z: 0}
        tangentMode: 0
      m_PreInfinity: 2
      m_PostInfinity: 2
      m_RotationOrder: 4
    path: Body/Torso/TorsoUpper/LeftArm
  - curve:
      serializedVersion: 2
      m_Curve:
      - time: 0
        value: {x: 0.054000854, y: 0.2729988, z: 0}
        inSlope: {x: -0.02800171, y: -0.43323302, z: 0}
        outSlope: {x: -0.02800171, y: -0.43323302, z: 0}
        tangentMode: 0
      - time: 0.5
        value: {x: 0.04, y: 0.056382306, z: 0}
        inSlope: {x: -0.014000855, y: -0.21661651, z: 0}
        outSlope: {x: -0.014000855, y: -0.21661651, z: 0}
        tangentMode: 0
      - time: 2.7833333
        value: {x: 0.04, y: 0.056382306, z: 0}
        inSlope: {x: 0.016154831, y: 0.2499421, z: 0}
        outSlope: {x: 0.016154831, y: 0.2499421, z: 0}
        tangentMode: 0
      - time: 3.2166667
        value: {x: 0.054000854, y: 0.2729988, z: 0}
        inSlope: {x: 0.032309663, y: 0.4998842, z: 0}
        outSlope: {x: 0.032309663, y: 0.4998842, z: 0}
        tangentMode: 0
      m_PreInfinity: 2
      m_PostInfinity: 2
      m_RotationOrder: 4
    path: Body/Torso/TorsoUpper/Neck/Head
  - curve:
      serializedVersion: 2
      m_Curve:
      - time: 0
        value: {x: 0, y: 11.462, z: 0}
        inSlope: {x: 0, y: -0.3239994, z: 0}
        outSlope: {x: 0, y: -0.3239994, z: 0}
        tangentMode: 0
      - time: 0.5
        value: {x: 0, y: 11.3, z: 0}
        inSlope: {x: 0, y: 0, z: 0}
        outSlope: {x: 0, y: 0, z: 0}
        tangentMode: 0
      - time: 2.7833333
        value: {x: 0, y: 11.3, z: 0}
        inSlope: {x: 0, y: 0, z: 0}
        outSlope: {x: 0, y: 0, z: 0}
        tangentMode: 0
      - time: 3.2166667
        value: {x: 0, y: 11.462, z: 0}
        inSlope: {x: 0, y: 0.3738454, z: 0}
        outSlope: {x: 0, y: 0.3738454, z: 0}
        tangentMode: 0
      m_PreInfinity: 2
      m_PostInfinity: 2
      m_RotationOrder: 4
    path: Body/Torso
  - curve:
      serializedVersion: 2
      m_Curve:
      - time: 0
        value: {x: 0.073999405, y: 9.837, z: 0}
        inSlope: {x: -0.12799881, y: -0.17399979, z: 0}
        outSlope: {x: -0.12799881, y: -0.17399979, z: 0}
        tangentMode: 0
      - time: 0.5
        value: {x: 0.01, y: 9.75, z: 0}
        inSlope: {x: -0.06399941, y: 0, z: 0}
        outSlope: {x: -0.06399941, y: 0, z: 0}
        tangentMode: 0
      - time: 2.7833333
        value: {x: 0.01, y: 9.75, z: 0}
        inSlope: {x: 0.07384546, y: 0, z: 0}
        outSlope: {x: 0.07384546, y: 0, z: 0}
        tangentMode: 0
      - time: 3.2166667
        value: {x: 0.073999405, y: 9.837, z: 0}
        inSlope: {x: 0.14769092, y: 0.20076895, z: 0}
        outSlope: {x: 0.14769092, y: 0.20076895, z: 0}
        tangentMode: 0
      m_PreInfinity: 2
      m_PostInfinity: 2
      m_RotationOrder: 4
    path: Body/Waist
  - curve:
      serializedVersion: 2
      m_Curve:
      - time: 0
        value: {x: -0.035567224, y: 0.24988551, z: 0}
        inSlope: {x: -0.0011584642, y: -0.019469291, z: 0}
        outSlope: {x: -0.0011584642, y: -0.019469291, z: 0}
        tangentMode: 0
      - time: 2.1
        value: {x: -0.038, y: 0.209, z: 0}
        inSlope: {x: 0.0004940508, y: 0.008303076, z: 0}
        outSlope: {x: 0.0004940508, y: 0.008303076, z: 0}
        tangentMode: 0
      - time: 3.2333333
        value: {x: -0.035567224, y: 0.24988551, z: 0}
        inSlope: {x: 0.0021465658, y: 0.036075443, z: 0}
        outSlope: {x: 0.0021465658, y: 0.036075443, z: 0}
        tangentMode: 0
      m_PreInfinity: 2
      m_PostInfinity: 2
      m_RotationOrder: 4
    path: Body/Torso/TorsoUpper/Neck/Head/Face/Left/LeftEyebrow
  - curve:
      serializedVersion: 2
      m_Curve:
      - time: 0
        value: {x: -0.07975675, y: 0.21237452, z: 0}
        inSlope: {x: -0.00059202313, y: -0.013035486, z: 0}
        outSlope: {x: -0.00059202313, y: -0.013035486, z: 0}
        tangentMode: 0
      - time: 2.1
        value: {x: -0.081, y: 0.185, z: 0}
        inSlope: {x: 0.0002524804, y: 0.0055592502, z: 0}
        outSlope: {x: 0.0002524804, y: 0.0055592502, z: 0}
        tangentMode: 0
      - time: 3.2333333
        value: {x: -0.07975675, y: 0.21237452, z: 0}
        inSlope: {x: 0.0010969839, y: 0.024153987, z: 0}
        outSlope: {x: 0.0010969839, y: 0.024153987, z: 0}
        tangentMode: 0
      m_PreInfinity: 2
      m_PostInfinity: 2
      m_RotationOrder: 4
    path: Body/Torso/TorsoUpper/Neck/Head/Face/Right/RightEyebrow
  - curve:
      serializedVersion: 2
      m_Curve:
      - time: 0
        value: {x: -0.050080355, y: 0.024111519, z: 0}
        inSlope: {x: 0.0009906453, y: 0.012804039, z: 0}
        outSlope: {x: 0.0009906453, y: 0.012804039, z: 0}
        tangentMode: 0
      - time: 2.1
        value: {x: -0.048, y: 0.051, z: 0}
        inSlope: {x: -0.00047984353, y: -0.0062019536, z: 0}
        outSlope: {x: -0.00047984353, y: -0.0062019536, z: 0}
        tangentMode: 0
      - time: 3.1666667
        value: {x: -0.050080355, y: 0.024111519, z: 0}
        inSlope: {x: -0.0019503323, y: -0.025207946, z: 0}
        outSlope: {x: -0.0019503323, y: -0.025207946, z: 0}
        tangentMode: 0
      m_PreInfinity: 2
      m_PostInfinity: 2
      m_RotationOrder: 4
    path: Body/Torso/TorsoUpper/Neck/Head/Face/Right/RightPupil
  - curve:
      serializedVersion: 2
      m_Curve:
      - time: 0
        value: {x: -0.090286165, y: 0.02462239, z: 0}
        inSlope: {x: 0.000612459, y: 0.0077988626, z: 0}
        outSlope: {x: 0.000612459, y: 0.0077988626, z: 0}
        tangentMode: 0
      - time: 2.1
        value: {x: -0.089, y: 0.041, z: 0}
        inSlope: {x: -0.0002966597, y: -0.0037775724, z: 0}
        outSlope: {x: -0.0002966597, y: -0.0037775724, z: 0}
        tangentMode: 0
      - time: 3.1666667
        value: {x: -0.090286165, y: 0.02462239, z: 0}
        inSlope: {x: -0.0012057784, y: -0.0153540075, z: 0}
        outSlope: {x: -0.0012057784, y: -0.0153540075, z: 0}
        tangentMode: 0
      m_PreInfinity: 2
      m_PostInfinity: 2
      m_RotationOrder: 4
    path: Body/Torso/TorsoUpper/Neck/Head/Face/Left/LeftPupil
  - curve:
      serializedVersion: 2
      m_Curve:
      - time: 0
        value: {x: -38.87276, y: -0.14205074, z: 0}
        inSlope: {x: 145.7699, y: 5.2560687, z: -2.439313}
        outSlope: {x: 145.7699, y: 5.2560687, z: -2.439313}
        tangentMode: 0
      - time: 0.25
        value: {x: -2.430285, y: 1.1719664, z: -0.60982823}
        inSlope: {x: 145.7699, y: 5.2560687, z: -2.439313}
        outSlope: {x: 145.7699, y: 5.2560687, z: -2.439313}
        tangentMode: 0
      m_PreInfinity: 2
      m_PostInfinity: 2
      m_RotationOrder: 4
    path: Body/Torso/TorsoUpper/RightArm/RightForearm/RightHand/HandRightConfusionFront
      (1)
  - curve:
      serializedVersion: 2
      m_Curve:
      - time: 0
        value: {x: 0, y: 0, z: 0}
        inSlope: {x: 0.013953488, y: -0.16744186, z: 0}
        outSlope: {x: 0.013953488, y: -0.16744186, z: 0}
        tangentMode: 0
      - time: 0.71666664
        value: {x: 0.01, y: -0.12, z: 0}
        inSlope: {x: 0.004989989, y: -0.05987987, z: 0}
        outSlope: {x: 0.004989989, y: -0.05987987, z: 0}
        tangentMode: 0
      - time: 3.2333333
        value: {x: 0, y: 0, z: 0}
        inSlope: {x: -0.0039735097, y: 0.047682118, z: 0}
        outSlope: {x: -0.0039735097, y: 0.047682118, z: 0}
        tangentMode: 0
      m_PreInfinity: 2
      m_PostInfinity: 2
      m_RotationOrder: 4
    path: Body/Torso/TorsoUpper/Neck/Neck
  m_ScaleCurves:
  - curve:
      serializedVersion: 2
      m_Curve:
      - time: 0
        value: {x: 0.35000002, y: 0.35000002, z: 0.34999993}
        inSlope: {x: 2.5999994, y: 2.5999994, z: 2.599999}
        outSlope: {x: 2.5999994, y: 2.5999994, z: 2.599999}
        tangentMode: 0
      - time: 0.25
        value: {x: 0.9999999, y: 0.9999999, z: 0.99999964}
        inSlope: {x: 2.5999994, y: 2.5999994, z: 2.599999}
        outSlope: {x: 2.5999994, y: 2.5999994, z: 2.599999}
        tangentMode: 0
      m_PreInfinity: 2
      m_PostInfinity: 2
      m_RotationOrder: 4
    path: Body/Torso/TorsoUpper/RightArm/RightForearm/RightHand/HandRightConfusionFront
      (1)
  m_FloatCurves:
  - curve:
      serializedVersion: 2
      m_Curve:
      - time: 0
        value: 1
        inSlope: Infinity
        outSlope: Infinity
        tangentMode: 31
      - time: 0.65
        value: 1
        inSlope: Infinity
        outSlope: Infinity
        tangentMode: 31
      m_PreInfinity: 2
      m_PostInfinity: 2
      m_RotationOrder: 4
    attribute: m_IsActive
    path: Body/Torso/TorsoUpper/RightArm
    classID: 1
    script: {fileID: 0}
  - curve:
      serializedVersion: 2
      m_Curve:
      - time: 0
        value: 1
        inSlope: Infinity
        outSlope: Infinity
        tangentMode: 31
      - time: 0.65
        value: 1
        inSlope: Infinity
        outSlope: Infinity
        tangentMode: 31
      m_PreInfinity: 2
      m_PostInfinity: 2
      m_RotationOrder: 4
    attribute: m_IsActive
    path: Body/Torso/TorsoUpper/RightArm/RightForearm/RightHand
    classID: 1
    script: {fileID: 0}
  - curve:
      serializedVersion: 2
      m_Curve:
      - time: 0
        value: 1
        inSlope: Infinity
        outSlope: Infinity
        tangentMode: 31
      - time: 0.28333333
        value: 0
        inSlope: Infinity
        outSlope: Infinity
        tangentMode: 31
      - time: 3.2166667
        value: 1
        inSlope: Infinity
        outSlope: Infinity
        tangentMode: 31
      m_PreInfinity: 2
      m_PostInfinity: 2
      m_RotationOrder: 4
    attribute: m_IsActive
    path: Body/Torso/TorsoUpper/Neck/Head/Face/MouthClosed
    classID: 1
    script: {fileID: 0}
  - curve:
      serializedVersion: 2
      m_Curve:
      - time: 0
        value: 0
        inSlope: Infinity
        outSlope: Infinity
        tangentMode: 31
      - time: 0.28333333
        value: 1
        inSlope: Infinity
        outSlope: Infinity
        tangentMode: 31
      - time: 3.2166667
        value: 0
        inSlope: Infinity
        outSlope: Infinity
        tangentMode: 31
      m_PreInfinity: 2
      m_PostInfinity: 2
      m_RotationOrder: 4
    attribute: m_IsActive
    path: Body/Torso/TorsoUpper/Neck/Head/Face/MouthAnger
    classID: 1
    script: {fileID: 0}
  - curve:
      serializedVersion: 2
      m_Curve:
      - time: 0
        value: 1
        inSlope: Infinity
        outSlope: Infinity
        tangentMode: 31
      m_PreInfinity: 2
      m_PostInfinity: 2
      m_RotationOrder: 4
    attribute: m_IsActive
    path: Body/Torso/TorsoUpper/RightArm/RightForearm/RightForearmFront
    classID: 1
    script: {fileID: 0}
  - curve:
      serializedVersion: 2
      m_Curve:
      - time: 0
        value: 0
        inSlope: Infinity
        outSlope: Infinity
        tangentMode: 31
      m_PreInfinity: 2
      m_PostInfinity: 2
      m_RotationOrder: 4
    attribute: m_IsActive
    path: Body/Torso/TorsoUpper/RightArm/RightForearm/RightForearm
    classID: 1
    script: {fileID: 0}
  - curve:
      serializedVersion: 2
      m_Curve:
      - time: 0
        value: 1
        inSlope: Infinity
        outSlope: Infinity
        tangentMode: 31
      - time: 0.5
        value: 0
        inSlope: Infinity
        outSlope: Infinity
        tangentMode: 31
      - time: 0.6666667
        value: 0
        inSlope: Infinity
        outSlope: Infinity
        tangentMode: 31
      - time: 2.8666666
        value: 1
        inSlope: Infinity
        outSlope: Infinity
        tangentMode: 31
      m_PreInfinity: 2
      m_PostInfinity: 2
      m_RotationOrder: 4
    attribute: m_IsActive
    path: Body/Torso/TorsoUpper/RightArm/RightForearm/RightHand/HandRightIdleFront
    classID: 1
    script: {fileID: 0}
  - curve:
      serializedVersion: 2
      m_Curve:
      - time: 0
        value: 0
        inSlope: Infinity
        outSlope: Infinity
        tangentMode: 31
      m_PreInfinity: 2
      m_PostInfinity: 2
      m_RotationOrder: 4
    attribute: m_IsActive
    path: Body/Torso/TorsoUpper/RightArm/RightForearm/RightHand/HandRightIdle
    classID: 1
    script: {fileID: 0}
  - curve:
      serializedVersion: 2
      m_Curve:
      - time: 0
        value: 0
        inSlope: Infinity
        outSlope: Infinity
        tangentMode: 31
      - time: 0.5
        value: 1
        inSlope: Infinity
        outSlope: Infinity
        tangentMode: 31
      - time: 0.6666667
        value: 1
        inSlope: Infinity
        outSlope: Infinity
        tangentMode: 31
      - time: 2.8666666
        value: 0
        inSlope: Infinity
        outSlope: Infinity
        tangentMode: 31
      m_PreInfinity: 2
      m_PostInfinity: 2
      m_RotationOrder: 4
    attribute: m_IsActive
    path: Body/Torso/TorsoUpper/RightArm/RightForearm/RightHand/HandRightWorryFront
    classID: 1
    script: {fileID: 0}
  - curve:
      serializedVersion: 2
      m_Curve:
      - time: 0
        value: 1
        inSlope: Infinity
        outSlope: Infinity
        tangentMode: 31
      m_PreInfinity: 2
      m_PostInfinity: 2
      m_RotationOrder: 4
    attribute: m_IsActive
    path: Body/Torso/TorsoUpper/RightArm/RightForearm/RightHand/ArmletRightFront
    classID: 1
    script: {fileID: 0}
  - curve:
      serializedVersion: 2
      m_Curve:
      - time: 0
        value: 0
        inSlope: Infinity
        outSlope: Infinity
        tangentMode: 31
      - time: 0.5
        value: 0
        inSlope: Infinity
        outSlope: Infinity
        tangentMode: 31
      m_PreInfinity: 2
      m_PostInfinity: 2
      m_RotationOrder: 4
    attribute: m_IsActive
    path: Body/Torso/TorsoUpper/RightArm/RightForearm/RightHand/HandRightThinkingFront
    classID: 1
    script: {fileID: 0}
  - curve:
      serializedVersion: 2
      m_Curve:
      - time: 0
        value: 0
        inSlope: Infinity
        outSlope: Infinity
        tangentMode: 31
      - time: 0.5
        value: 0
        inSlope: Infinity
        outSlope: Infinity
        tangentMode: 31
      m_PreInfinity: 2
      m_PostInfinity: 2
      m_RotationOrder: 4
    attribute: m_IsActive
    path: Body/Torso/TorsoUpper/RightArm/RightForearm/RightHand/HandRightLaughter
    classID: 1
    script: {fileID: 0}
  - curve:
      serializedVersion: 2
      m_Curve:
      - time: 0
        value: 0
        inSlope: Infinity
        outSlope: Infinity
        tangentMode: 31
      - time: 0.5
        value: 0
        inSlope: Infinity
        outSlope: Infinity
        tangentMode: 31
      m_PreInfinity: 2
      m_PostInfinity: 2
      m_RotationOrder: 4
    attribute: m_IsActive
    path: Body/Torso/TorsoUpper/RightArm/RightForearm/RightHand/HandRightDisagree
    classID: 1
    script: {fileID: 0}
  - curve:
      serializedVersion: 2
      m_Curve:
      - time: 0
        value: 0
        inSlope: Infinity
        outSlope: Infinity
        tangentMode: 31
      - time: 0.5
        value: 0
        inSlope: Infinity
        outSlope: Infinity
        tangentMode: 31
      m_PreInfinity: 2
      m_PostInfinity: 2
      m_RotationOrder: 4
    attribute: m_IsActive
    path: Body/Torso/TorsoUpper/RightArm/RightForearm/RightHand/HandRightConfusionFront
    classID: 1
    script: {fileID: 0}
  m_PPtrCurves: []
  m_SampleRate: 60
  m_WrapMode: 0
  m_Bounds:
    m_Center: {x: 0, y: 0, z: 0}
    m_Extent: {x: 0, y: 0, z: 0}
  m_ClipBindingConstant:
    genericBindings:
    - path: 1997562997
      attribute: 1
      script: {fileID: 0}
      classID: 4
      customType: 0
      isPPtrCurve: 0
    - path: 17307992
      attribute: 1
      script: {fileID: 0}
      classID: 4
      customType: 0
      isPPtrCurve: 0
    - path: 1013027270
      attribute: 1
      script: {fileID: 0}
      classID: 4
      customType: 0
      isPPtrCurve: 0
    - path: 1701800160
      attribute: 1
      script: {fileID: 0}
      classID: 4
      customType: 0
      isPPtrCurve: 0
    - path: 4044341784
      attribute: 1
      script: {fileID: 0}
      classID: 4
      customType: 0
      isPPtrCurve: 0
    - path: 531640403
      attribute: 1
      script: {fileID: 0}
      classID: 4
      customType: 0
      isPPtrCurve: 0
    - path: 1441443029
      attribute: 1
      script: {fileID: 0}
      classID: 4
      customType: 0
      isPPtrCurve: 0
    - path: 2828691070
      attribute: 1
      script: {fileID: 0}
      classID: 4
      customType: 0
      isPPtrCurve: 0
    - path: 4042409146
      attribute: 1
      script: {fileID: 0}
      classID: 4
      customType: 0
      isPPtrCurve: 0
    - path: 928226820
      attribute: 4
      script: {fileID: 0}
      classID: 4
      customType: 14
      isPPtrCurve: 0
    - path: 3095407969
      attribute: 4
      script: {fileID: 0}
      classID: 4
      customType: 14
      isPPtrCurve: 0
    - path: 541443673
      attribute: 4
      script: {fileID: 0}
      classID: 4
      customType: 14
      isPPtrCurve: 0
    - path: 4166763380
      attribute: 4
      script: {fileID: 0}
      classID: 4
      customType: 14
      isPPtrCurve: 0
    - path: 1997562997
      attribute: 4
      script: {fileID: 0}
      classID: 4
      customType: 14
      isPPtrCurve: 0
    - path: 1013027270
      attribute: 4
      script: {fileID: 0}
      classID: 4
      customType: 14
      isPPtrCurve: 0
    - path: 464622508
      attribute: 4
      script: {fileID: 0}
      classID: 4
      customType: 14
      isPPtrCurve: 0
    - path: 1209925952
      attribute: 4
      script: {fileID: 0}
      classID: 4
      customType: 14
      isPPtrCurve: 0
    - path: 2157539374
      attribute: 4
      script: {fileID: 0}
      classID: 4
      customType: 14
      isPPtrCurve: 0
    - path: 2224152727
      attribute: 4
      script: {fileID: 0}
      classID: 4
      customType: 14
      isPPtrCurve: 0
    - path: 1701800160
      attribute: 4
      script: {fileID: 0}
      classID: 4
      customType: 14
      isPPtrCurve: 0
    - path: 4044341784
      attribute: 4
      script: {fileID: 0}
      classID: 4
      customType: 14
      isPPtrCurve: 0
    - path: 2828691070
      attribute: 4
      script: {fileID: 0}
      classID: 4
      customType: 14
      isPPtrCurve: 0
    - path: 2828691070
      attribute: 3
      script: {fileID: 0}
      classID: 4
      customType: 0
      isPPtrCurve: 0
    - path: 928226820
      attribute: 2086281974
      script: {fileID: 0}
      classID: 1
      customType: 0
      isPPtrCurve: 0
    - path: 1209925952
      attribute: 2086281974
      script: {fileID: 0}
      classID: 1
      customType: 0
      isPPtrCurve: 0
    - path: 1030089362
      attribute: 2086281974
      script: {fileID: 0}
      classID: 1
      customType: 0
      isPPtrCurve: 0
    - path: 4085567332
      attribute: 2086281974
      script: {fileID: 0}
      classID: 1
      customType: 0
      isPPtrCurve: 0
    - path: 16591906
      attribute: 2086281974
      script: {fileID: 0}
      classID: 1
      customType: 0
      isPPtrCurve: 0
    - path: 2085222645
      attribute: 2086281974
      script: {fileID: 0}
      classID: 1
      customType: 0
      isPPtrCurve: 0
    - path: 1402237883
      attribute: 2086281974
      script: {fileID: 0}
      classID: 1
      customType: 0
      isPPtrCurve: 0
    - path: 3114764356
      attribute: 2086281974
      script: {fileID: 0}
      classID: 1
      customType: 0
      isPPtrCurve: 0
    - path: 467779216
      attribute: 2086281974
      script: {fileID: 0}
      classID: 1
      customType: 0
      isPPtrCurve: 0
    - path: 809828208
      attribute: 2086281974
      script: {fileID: 0}
      classID: 1
      customType: 0
      isPPtrCurve: 0
    - path: 50642267
      attribute: 2086281974
      script: {fileID: 0}
      classID: 1
      customType: 0
      isPPtrCurve: 0
    - path: 3334851114
      attribute: 2086281974
      script: {fileID: 0}
      classID: 1
      customType: 0
      isPPtrCurve: 0
    - path: 2699780198
      attribute: 2086281974
      script: {fileID: 0}
      classID: 1
      customType: 0
      isPPtrCurve: 0
    - path: 1558640174
      attribute: 2086281974
      script: {fileID: 0}
      classID: 1
      customType: 0
      isPPtrCurve: 0
    - path: 3095407969
      attribute: 1
      script: {fileID: 0}
      classID: 4
      customType: 0
      isPPtrCurve: 0
    - path: 4042409146
      attribute: 4
      script: {fileID: 0}
      classID: 4
      customType: 14
      isPPtrCurve: 0
    pptrCurveMapping: []
  m_AnimationClipSettings:
    serializedVersion: 2
    m_AdditiveReferencePoseClip: {fileID: 0}
    m_AdditiveReferencePoseTime: 0
    m_StartTime: 0
    m_StopTime: 3.2333333
    m_OrientationOffsetY: 0
    m_Level: 0
    m_CycleOffset: 0
    m_HasAdditiveReferencePose: 0
    m_LoopTime: 0
    m_LoopBlend: 0
    m_LoopBlendOrientation: 0
    m_LoopBlendPositionY: 0
    m_LoopBlendPositionXZ: 0
    m_KeepOriginalOrientation: 0
    m_KeepOriginalPositionY: 1
    m_KeepOriginalPositionXZ: 0
    m_HeightFromFeet: 0
    m_Mirror: 0
  m_EditorCurves:
  - curve:
      serializedVersion: 2
      m_Curve:
      - time: 0
        value: 0
        inSlope: 61.428005
        outSlope: 61.428005
        tangentMode: 10
      - time: 0.6666667
        value: 40.952003
        inSlope: 0
        outSlope: 0
        tangentMode: 0
      - time: 2.3166666
        value: 40.952003
        inSlope: 0
        outSlope: 0
        tangentMode: 0
      - time: 3.2333333
        value: 0
        inSlope: -44.674908
        outSlope: -44.674908
        tangentMode: 10
      m_PreInfinity: 2
      m_PostInfinity: 2
      m_RotationOrder: 4
    attribute: localEulerAnglesRaw.x
    path: Body/Torso/TorsoUpper/RightArm
    classID: 4
    script: {fileID: 0}
  - curve:
      serializedVersion: 2
      m_Curve: []
      m_PreInfinity: 2
      m_PostInfinity: 2
      m_RotationOrder: 4
    attribute: localEulerAnglesRaw.y
    path: Body/Torso/TorsoUpper/RightArm
    classID: 4
    script: {fileID: 0}
  - curve:
      serializedVersion: 2
      m_Curve:
      - time: 0
        value: 0
        inSlope: 0
        outSlope: 0
        tangentMode: 10
      - time: 0.65
        value: 0
        inSlope: 66.11983
        outSlope: 66.11983
        tangentMode: 10
      - time: 0.6666667
        value: 2.204
        inSlope: 58.77316
        outSlope: 58.77316
        tangentMode: 10
      - time: 0.81666666
        value: 0
        inSlope: -7.346668
        outSlope: -7.346668
        tangentMode: 10
      - time: 2.3166666
        value: 0
        inSlope: 0
        outSlope: 0
        tangentMode: 10
      - time: 3.1833334
        value: 0
        inSlope: 0
        outSlope: 0
        tangentMode: 10
      m_PreInfinity: 2
      m_PostInfinity: 2
      m_RotationOrder: 4
    attribute: localEulerAnglesRaw.z
    path: Body/Torso/TorsoUpper/RightArm
    classID: 4
    script: {fileID: 0}
  - curve:
      serializedVersion: 2
      m_Curve:
      - time: 0
        value: 1
        inSlope: Infinity
        outSlope: Infinity
        tangentMode: 31
      - time: 0.65
        value: 1
        inSlope: Infinity
        outSlope: Infinity
        tangentMode: 31
      m_PreInfinity: 2
      m_PostInfinity: 2
      m_RotationOrder: 4
    attribute: m_IsActive
    path: Body/Torso/TorsoUpper/RightArm
    classID: 1
    script: {fileID: 0}
  - curve:
      serializedVersion: 2
      m_Curve:
      - time: 0
        value: 2.2209988
        inSlope: 0
        outSlope: 0
        tangentMode: 10
      - time: 3.2166667
        value: 2.2209988
        inSlope: 0
        outSlope: 0
        tangentMode: 10
      m_PreInfinity: 2
      m_PostInfinity: 2
      m_RotationOrder: 4
    attribute: m_LocalPosition.x
    path: Body/Torso/TorsoUpper/LeftArm
    classID: 4
    script: {fileID: 0}
  - curve:
      serializedVersion: 2
      m_Curve:
      - time: 0
        value: 4.0872903
        inSlope: 0
        outSlope: 0
        tangentMode: 10
      - time: 3.2166667
        value: 4.0872903
        inSlope: 0
        outSlope: 0
        tangentMode: 10
      m_PreInfinity: 2
      m_PostInfinity: 2
      m_RotationOrder: 4
    attribute: m_LocalPosition.y
    path: Body/Torso/TorsoUpper/LeftArm
    classID: 4
    script: {fileID: 0}
  - curve:
      serializedVersion: 2
      m_Curve:
      - time: 0
        value: 0
        inSlope: 0
        outSlope: 0
        tangentMode: 10
      - time: 3.2166667
        value: 0
        inSlope: 0
        outSlope: 0
        tangentMode: 10
      m_PreInfinity: 2
      m_PostInfinity: 2
      m_RotationOrder: 4
    attribute: m_LocalPosition.z
    path: Body/Torso/TorsoUpper/LeftArm
    classID: 4
    script: {fileID: 0}
  - curve:
      serializedVersion: 2
      m_Curve:
      - time: 0
        value: -0
        inSlope: 0
        outSlope: 0
        tangentMode: 10
      - time: 0.5
        value: 0
        inSlope: 0
        outSlope: 0
        tangentMode: 10
      - time: 0.71666664
        value: 0
        inSlope: 0
        outSlope: 0
        tangentMode: 0
      - time: 2.7833333
        value: 0
        inSlope: 0
        outSlope: 0
        tangentMode: 0
      - time: 3.2166667
        value: -0
        inSlope: -0
        outSlope: -0
        tangentMode: 10
      m_PreInfinity: 2
      m_PostInfinity: 2
      m_RotationOrder: 4
    attribute: localEulerAnglesRaw.x
    path: Body/Torso/TorsoUpper/LeftArm
    classID: 4
    script: {fileID: 0}
  - curve:
      serializedVersion: 2
      m_Curve:
      - time: 0
        value: 0
        inSlope: 0
        outSlope: 0
        tangentMode: 10
      - time: 0.5
        value: 0
        inSlope: 0
        outSlope: 0
        tangentMode: 10
      - time: 0.71666664
        value: 0
        inSlope: 0
        outSlope: 0
        tangentMode: 0
      - time: 2.7833333
        value: 0
        inSlope: 0
        outSlope: 0
        tangentMode: 0
      - time: 3.2166667
        value: 0
        inSlope: 0
        outSlope: 0
        tangentMode: 10
      m_PreInfinity: 2
      m_PostInfinity: 2
      m_RotationOrder: 4
    attribute: localEulerAnglesRaw.y
    path: Body/Torso/TorsoUpper/LeftArm
    classID: 4
    script: {fileID: 0}
  - curve:
      serializedVersion: 2
      m_Curve:
      - time: 0
        value: 0
        inSlope: -12.958
        outSlope: -12.958
        tangentMode: 10
      - time: 0.5
        value: -6.479
        inSlope: -12.659002
        outSlope: -12.659002
        tangentMode: 10
      - time: 0.71666664
        value: -9.157001
        inSlope: 0
        outSlope: 0
        tangentMode: 0
      - time: 2.7833333
        value: -9.157001
        inSlope: 0
        outSlope: 0
        tangentMode: 0
      - time: 3.2166667
        value: 0
        inSlope: 21.131536
        outSlope: 21.131536
        tangentMode: 10
      m_PreInfinity: 2
      m_PostInfinity: 2
      m_RotationOrder: 4
    attribute: localEulerAnglesRaw.z
    path: Body/Torso/TorsoUpper/LeftArm
    classID: 4
    script: {fileID: 0}
  - curve:
      serializedVersion: 2
      m_Curve:
      - time: 0
        value: 0
        inSlope: 0
        outSlope: 0
        tangentMode: 10
      - time: 0.5
        value: 0
        inSlope: 0
        outSlope: 0
        tangentMode: 10
      - time: 0.71666664
        value: 0
        inSlope: 0
        outSlope: 0
        tangentMode: 0
      - time: 2.7833333
        value: 0
        inSlope: 0
        outSlope: 0
        tangentMode: 0
      - time: 3.2166667
        value: 0
        inSlope: 0
        outSlope: 0
        tangentMode: 10
      m_PreInfinity: 2
      m_PostInfinity: 2
      m_RotationOrder: 4
    attribute: localEulerAnglesRaw.x
    path: Body/Torso/TorsoUpper/LeftArm/LeftForearm
    classID: 4
    script: {fileID: 0}
  - curve:
      serializedVersion: 2
      m_Curve:
      - time: 0
        value: 0
        inSlope: 0
        outSlope: 0
        tangentMode: 10
      - time: 0.5
        value: 0
        inSlope: 0
        outSlope: 0
        tangentMode: 10
      - time: 0.71666664
        value: 0
        inSlope: 0
        outSlope: 0
        tangentMode: 0
      - time: 2.7833333
        value: 0
        inSlope: 0
        outSlope: 0
        tangentMode: 0
      - time: 3.2166667
        value: 0
        inSlope: 0
        outSlope: 0
        tangentMode: 10
      m_PreInfinity: 2
      m_PostInfinity: 2
      m_RotationOrder: 4
    attribute: localEulerAnglesRaw.y
    path: Body/Torso/TorsoUpper/LeftArm/LeftForearm
    classID: 4
    script: {fileID: 0}
  - curve:
      serializedVersion: 2
      m_Curve:
      - time: 0
        value: 0
        inSlope: -0.81200004
        outSlope: -0.81200004
        tangentMode: 10
      - time: 0.5
        value: -0.40600002
        inSlope: -185.50833
        outSlope: -185.50833
        tangentMode: 10
      - time: 0.71666664
        value: -80.617
        inSlope: 0
        outSlope: 0
        tangentMode: 0
      - time: 2.7833333
        value: -80.617
        inSlope: 0
        outSlope: 0
        tangentMode: 0
      - time: 3.2166667
        value: 0
        inSlope: 186.0392
        outSlope: 186.0392
        tangentMode: 10
      m_PreInfinity: 2
      m_PostInfinity: 2
      m_RotationOrder: 4
    attribute: localEulerAnglesRaw.z
    path: Body/Torso/TorsoUpper/LeftArm/LeftForearm
    classID: 4
    script: {fileID: 0}
  - curve:
      serializedVersion: 2
      m_Curve:
      - time: 0
        value: 0
        inSlope: 0
        outSlope: 0
        tangentMode: 10
      - time: 0.5
        value: 0
        inSlope: 0
        outSlope: 0
        tangentMode: 10
      - time: 2.6
        value: 0
        inSlope: 0
        outSlope: 0
        tangentMode: 10
      - time: 3.2166667
        value: 0
        inSlope: 0
        outSlope: 0
        tangentMode: 10
      m_PreInfinity: 2
      m_PostInfinity: 2
      m_RotationOrder: 4
    attribute: localEulerAnglesRaw.x
    path: Body/Torso/TorsoUpper/Neck
    classID: 4
    script: {fileID: 0}
  - curve:
      serializedVersion: 2
      m_Curve:
      - time: 0
        value: 0
        inSlope: 0
        outSlope: 0
        tangentMode: 10
      - time: 0.5
        value: 0
        inSlope: 0
        outSlope: 0
        tangentMode: 10
      - time: 2.6
        value: 0
        inSlope: 0
        outSlope: 0
        tangentMode: 10
      - time: 3.2166667
        value: 0
        inSlope: 0
        outSlope: 0
        tangentMode: 10
      m_PreInfinity: 2
      m_PostInfinity: 2
      m_RotationOrder: 4
    attribute: localEulerAnglesRaw.y
    path: Body/Torso/TorsoUpper/Neck
    classID: 4
    script: {fileID: 0}
  - curve:
      serializedVersion: 2
      m_Curve:
      - time: 0
        value: 0
        inSlope: 9.408
        outSlope: 9.408
        tangentMode: 10
      - time: 0.5
        value: 4.704
        inSlope: 4.9856668
        outSlope: 4.9856668
        tangentMode: 10
      - time: 2.6
        value: 5.887
        inSlope: -4.4915757
        outSlope: -4.4915757
        tangentMode: 10
      - time: 3.2166667
        value: 0
        inSlope: -9.546485
        outSlope: -9.546485
        tangentMode: 10
      m_PreInfinity: 2
      m_PostInfinity: 2
      m_RotationOrder: 4
    attribute: localEulerAnglesRaw.z
    path: Body/Torso/TorsoUpper/Neck
    classID: 4
    script: {fileID: 0}
  - curve:
      serializedVersion: 2
      m_Curve:
      - time: 0
        value: 0
        inSlope: 0
        outSlope: 0
        tangentMode: 10
      - time: 0.5
        value: 0
        inSlope: 0
        outSlope: 0
        tangentMode: 10
      - time: 2.6
        value: 0
        inSlope: 0
        outSlope: 0
        tangentMode: 10
      - time: 3.2166667
        value: 0
        inSlope: 0
        outSlope: 0
        tangentMode: 10
      m_PreInfinity: 2
      m_PostInfinity: 2
      m_RotationOrder: 4
    attribute: localEulerAnglesRaw.x
    path: Body/Torso/TorsoUpper/Neck/Head
    classID: 4
    script: {fileID: 0}
  - curve:
      serializedVersion: 2
      m_Curve:
      - time: 0
        value: 0
        inSlope: 0
        outSlope: 0
        tangentMode: 10
      - time: 0.5
        value: 0
        inSlope: 0
        outSlope: 0
        tangentMode: 10
      - time: 2.6
        value: 0
        inSlope: 0
        outSlope: 0
        tangentMode: 10
      - time: 3.2166667
        value: 0
        inSlope: 0
        outSlope: 0
        tangentMode: 10
      m_PreInfinity: 2
      m_PostInfinity: 2
      m_RotationOrder: 4
    attribute: localEulerAnglesRaw.y
    path: Body/Torso/TorsoUpper/Neck/Head
    classID: 4
    script: {fileID: 0}
  - curve:
      serializedVersion: 2
      m_Curve:
      - time: 0
        value: 0
        inSlope: -11.882001
        outSlope: -11.882001
        tangentMode: 10
      - time: 0.5
        value: -5.9410005
        inSlope: -6.5767145
        outSlope: -6.5767145
        tangentMode: 10
      - time: 2.6
        value: -8.611
        inSlope: 6.3461766
        outSlope: 6.3461766
        tangentMode: 10
      - time: 3.2166667
        value: 0
        inSlope: 13.963781
        outSlope: 13.963781
        tangentMode: 10
      m_PreInfinity: 2
      m_PostInfinity: 2
      m_RotationOrder: 4
    attribute: localEulerAnglesRaw.z
    path: Body/Torso/TorsoUpper/Neck/Head
    classID: 4
    script: {fileID: 0}
  - curve:
      serializedVersion: 2
      m_Curve:
      - time: 0
        value: 0.054000854
        inSlope: -0.02800171
        outSlope: -0.02800171
        tangentMode: 10
      - time: 0.5
        value: 0.04
        inSlope: -0.014000855
        outSlope: -0.014000855
        tangentMode: 10
      - time: 2.7833333
        value: 0.04
        inSlope: 0.016154831
        outSlope: 0.016154831
        tangentMode: 10
      - time: 3.2166667
        value: 0.054000854
        inSlope: 0.032309663
        outSlope: 0.032309663
        tangentMode: 10
      m_PreInfinity: 2
      m_PostInfinity: 2
      m_RotationOrder: 4
    attribute: m_LocalPosition.x
    path: Body/Torso/TorsoUpper/Neck/Head
    classID: 4
    script: {fileID: 0}
  - curve:
      serializedVersion: 2
      m_Curve:
      - time: 0
        value: 0.2729988
        inSlope: -0.43323302
        outSlope: -0.43323302
        tangentMode: 10
      - time: 0.5
        value: 0.056382306
        inSlope: -0.21661651
        outSlope: -0.21661651
        tangentMode: 10
      - time: 2.7833333
        value: 0.056382306
        inSlope: 0.2499421
        outSlope: 0.2499421
        tangentMode: 10
      - time: 3.2166667
        value: 0.2729988
        inSlope: 0.4998842
        outSlope: 0.4998842
        tangentMode: 10
      m_PreInfinity: 2
      m_PostInfinity: 2
      m_RotationOrder: 4
    attribute: m_LocalPosition.y
    path: Body/Torso/TorsoUpper/Neck/Head
    classID: 4
    script: {fileID: 0}
  - curve:
      serializedVersion: 2
      m_Curve:
      - time: 0
        value: 0
        inSlope: 0
        outSlope: 0
        tangentMode: 10
      - time: 0.5
        value: 0
        inSlope: 0
        outSlope: 0
        tangentMode: 10
      - time: 2.7833333
        value: 0
        inSlope: 0
        outSlope: 0
        tangentMode: 10
      - time: 3.2166667
        value: 0
        inSlope: 0
        outSlope: 0
        tangentMode: 10
      m_PreInfinity: 2
      m_PostInfinity: 2
      m_RotationOrder: 4
    attribute: m_LocalPosition.z
    path: Body/Torso/TorsoUpper/Neck/Head
    classID: 4
    script: {fileID: 0}
  - curve:
      serializedVersion: 2
      m_Curve:
      - time: 0
        value: 0
        inSlope: 0
        outSlope: 0
        tangentMode: 10
      - time: 0.5
        value: 0
        inSlope: 0
        outSlope: 0
        tangentMode: 10
      - time: 2.7833333
        value: 0
        inSlope: 0
        outSlope: 0
        tangentMode: 10
      - time: 3.2166667
        value: 0
        inSlope: 0
        outSlope: 0
        tangentMode: 10
      m_PreInfinity: 2
      m_PostInfinity: 2
      m_RotationOrder: 4
    attribute: m_LocalPosition.x
    path: Body/Torso
    classID: 4
    script: {fileID: 0}
  - curve:
      serializedVersion: 2
      m_Curve:
      - time: 0
        value: 11.462
        inSlope: -0.3239994
        outSlope: -0.3239994
        tangentMode: 10
      - time: 0.5
        value: 11.3
        inSlope: 0
        outSlope: 0
        tangentMode: 0
      - time: 2.7833333
        value: 11.3
        inSlope: 0
        outSlope: 0
        tangentMode: 0
      - time: 3.2166667
        value: 11.462
        inSlope: 0.3738454
        outSlope: 0.3738454
        tangentMode: 10
      m_PreInfinity: 2
      m_PostInfinity: 2
      m_RotationOrder: 4
    attribute: m_LocalPosition.y
    path: Body/Torso
    classID: 4
    script: {fileID: 0}
  - curve:
      serializedVersion: 2
      m_Curve:
      - time: 0
        value: 0
        inSlope: 0
        outSlope: 0
        tangentMode: 10
      - time: 0.5
        value: 0
        inSlope: 0
        outSlope: 0
        tangentMode: 10
      - time: 2.7833333
        value: 0
        inSlope: 0
        outSlope: 0
        tangentMode: 10
      - time: 3.2166667
        value: 0
        inSlope: 0
        outSlope: 0
        tangentMode: 10
      m_PreInfinity: 2
      m_PostInfinity: 2
      m_RotationOrder: 4
    attribute: m_LocalPosition.z
    path: Body/Torso
    classID: 4
    script: {fileID: 0}
  - curve:
      serializedVersion: 2
      m_Curve:
      - time: 0
        value: 0.073999405
        inSlope: -0.12799881
        outSlope: -0.12799881
        tangentMode: 10
      - time: 0.5
        value: 0.01
        inSlope: -0.06399941
        outSlope: -0.06399941
        tangentMode: 10
      - time: 2.7833333
        value: 0.01
        inSlope: 0.07384546
        outSlope: 0.07384546
        tangentMode: 10
      - time: 3.2166667
        value: 0.073999405
        inSlope: 0.14769092
        outSlope: 0.14769092
        tangentMode: 10
      m_PreInfinity: 2
      m_PostInfinity: 2
      m_RotationOrder: 4
    attribute: m_LocalPosition.x
    path: Body/Waist
    classID: 4
    script: {fileID: 0}
  - curve:
      serializedVersion: 2
      m_Curve:
      - time: 0
        value: 9.837
        inSlope: -0.17399979
        outSlope: -0.17399979
        tangentMode: 10
      - time: 0.5
        value: 9.75
        inSlope: 0
        outSlope: 0
        tangentMode: 0
      - time: 2.7833333
        value: 9.75
        inSlope: 0
        outSlope: 0
        tangentMode: 0
      - time: 3.2166667
        value: 9.837
        inSlope: 0.20076895
        outSlope: 0.20076895
        tangentMode: 10
      m_PreInfinity: 2
      m_PostInfinity: 2
      m_RotationOrder: 4
    attribute: m_LocalPosition.y
    path: Body/Waist
    classID: 4
    script: {fileID: 0}
  - curve:
      serializedVersion: 2
      m_Curve:
      - time: 0
        value: 0
        inSlope: 0
        outSlope: 0
        tangentMode: 10
      - time: 0.5
        value: 0
        inSlope: 0
        outSlope: 0
        tangentMode: 10
      - time: 2.7833333
        value: 0
        inSlope: 0
        outSlope: 0
        tangentMode: 10
      - time: 3.2166667
        value: 0
        inSlope: 0
        outSlope: 0
        tangentMode: 10
      m_PreInfinity: 2
      m_PostInfinity: 2
      m_RotationOrder: 4
    attribute: m_LocalPosition.z
    path: Body/Waist
    classID: 4
    script: {fileID: 0}
  - curve:
      serializedVersion: 2
      m_Curve:
      - time: 0
        value: 0
        inSlope: 0
        outSlope: 0
        tangentMode: 10
      - time: 0.5
        value: 0
        inSlope: 0
        outSlope: 0
        tangentMode: 10
      - time: 2.7833333
        value: 0
        inSlope: 0
        outSlope: 0
        tangentMode: 10
      - time: 3.2166667
        value: 0
        inSlope: 0
        outSlope: 0
        tangentMode: 10
      m_PreInfinity: 2
      m_PostInfinity: 2
      m_RotationOrder: 4
    attribute: localEulerAnglesRaw.x
    path: Body/Waist
    classID: 4
    script: {fileID: 0}
  - curve:
      serializedVersion: 2
      m_Curve:
      - time: 0
        value: 0
        inSlope: 0
        outSlope: 0
        tangentMode: 10
      - time: 0.5
        value: 0
        inSlope: 0
        outSlope: 0
        tangentMode: 10
      - time: 2.7833333
        value: 0
        inSlope: 0
        outSlope: 0
        tangentMode: 10
      - time: 3.2166667
        value: 0
        inSlope: 0
        outSlope: 0
        tangentMode: 10
      m_PreInfinity: 2
      m_PostInfinity: 2
      m_RotationOrder: 4
    attribute: localEulerAnglesRaw.y
    path: Body/Waist
    classID: 4
    script: {fileID: 0}
  - curve:
      serializedVersion: 2
      m_Curve:
      - time: 0
        value: -3.3853066
        inSlope: 0.030612946
        outSlope: 0.030612946
        tangentMode: 10
      - time: 0.5
        value: -3.3700001
        inSlope: 0
        outSlope: 0
        tangentMode: 0
      - time: 2.7833333
        value: -3.3700001
        inSlope: 0
        outSlope: 0
        tangentMode: 0
      - time: 3.2166667
        value: -3.3853066
        inSlope: -0.035322625
        outSlope: -0.035322625
        tangentMode: 10
      m_PreInfinity: 2
      m_PostInfinity: 2
      m_RotationOrder: 4
    attribute: localEulerAnglesRaw.z
    path: Body/Waist
    classID: 4
    script: {fileID: 0}
  - curve:
      serializedVersion: 2
      m_Curve:
      - time: 0
        value: -0
        inSlope: 0
        outSlope: 0
        tangentMode: 10
      - time: 0.5
        value: 0
        inSlope: 0
        outSlope: 0
        tangentMode: 10
      - time: 2.7833333
        value: 0
        inSlope: 0
        outSlope: 0
        tangentMode: 0
      - time: 3.2166667
        value: -0
        inSlope: -0
        outSlope: -0
        tangentMode: 10
      m_PreInfinity: 2
      m_PostInfinity: 2
      m_RotationOrder: 4
    attribute: localEulerAnglesRaw.x
    path: Body/Torso/TorsoUpper/LeftArm/LeftForearm/LeftHand
    classID: 4
    script: {fileID: 0}
  - curve:
      serializedVersion: 2
      m_Curve:
      - time: 0
        value: 0
        inSlope: 0
        outSlope: 0
        tangentMode: 10
      - time: 0.5
        value: 0
        inSlope: 0
        outSlope: 0
        tangentMode: 10
      - time: 2.7833333
        value: 0
        inSlope: 0
        outSlope: 0
        tangentMode: 0
      - time: 3.2166667
        value: 0
        inSlope: 0
        outSlope: 0
        tangentMode: 10
      m_PreInfinity: 2
      m_PostInfinity: 2
      m_RotationOrder: 4
    attribute: localEulerAnglesRaw.y
    path: Body/Torso/TorsoUpper/LeftArm/LeftForearm/LeftHand
    classID: 4
    script: {fileID: 0}
  - curve:
      serializedVersion: 2
      m_Curve:
      - time: 0
        value: 0
        inSlope: -10.152
        outSlope: -10.152
        tangentMode: 10
      - time: 0.5
        value: -5.076
        inSlope: 0
        outSlope: 0
        tangentMode: 0
      - time: 2.7833333
        value: -19.37
        inSlope: 0
        outSlope: 0
        tangentMode: 0
      - time: 3.2166667
        value: 0
        inSlope: 44.699997
        outSlope: 44.699997
        tangentMode: 10
      m_PreInfinity: 2
      m_PostInfinity: 2
      m_RotationOrder: 4
    attribute: localEulerAnglesRaw.z
    path: Body/Torso/TorsoUpper/LeftArm/LeftForearm/LeftHand
    classID: 4
    script: {fileID: 0}
  - curve:
      serializedVersion: 2
      m_Curve:
      - time: 0
        value: 0
        inSlope: 0
        outSlope: 0
        tangentMode: 10
      - time: 0.5
        value: 0
        inSlope: 0
        outSlope: 0
        tangentMode: 10
      - time: 0.71666664
        value: 0
        inSlope: 0
        outSlope: 0
        tangentMode: 0
      - time: 0.81666666
        value: -0.49600002
        inSlope: 0
        outSlope: 0
        tangentMode: 0
      - time: 2.7833333
        value: 0
        inSlope: 0.1261017
        outSlope: 0.1261017
        tangentMode: 10
      - time: 3.2166667
        value: 0
        inSlope: 0
        outSlope: 0
        tangentMode: 10
      m_PreInfinity: 2
      m_PostInfinity: 2
      m_RotationOrder: 4
    attribute: localEulerAnglesRaw.x
    path: Body/Torso/TorsoUpper/RightArm/RightForearm/RightHand
    classID: 4
    script: {fileID: 0}
  - curve:
      serializedVersion: 2
      m_Curve:
      - time: 0
        value: 0
        inSlope: 0
        outSlope: 0
        tangentMode: 10
      - time: 0.5
        value: 0
        inSlope: 0
        outSlope: 0
        tangentMode: 10
      - time: 0.71666664
        value: 0
        inSlope: 0
        outSlope: 0
        tangentMode: 0
      - time: 0.81666666
        value: 0.97800004
        inSlope: 0
        outSlope: 0
        tangentMode: 0
      - time: 2.7833333
        value: 0
        inSlope: -0.24864407
        outSlope: -0.24864407
        tangentMode: 10
      - time: 3.2166667
        value: 0
        inSlope: 0
        outSlope: 0
        tangentMode: 10
      m_PreInfinity: 2
      m_PostInfinity: 2
      m_RotationOrder: 4
    attribute: localEulerAnglesRaw.y
    path: Body/Torso/TorsoUpper/RightArm/RightForearm/RightHand
    classID: 4
    script: {fileID: 0}
  - curve:
      serializedVersion: 2
      m_Curve:
      - time: 0
        value: -7.913772
        inSlope: -9.861445
        outSlope: -9.861445
        tangentMode: 10
      - time: 0.5
        value: -12.844495
        inSlope: 0
        outSlope: 0
        tangentMode: 0
      - time: 1.1166667
        value: 6.1005836
        inSlope: 0
        outSlope: 0
        tangentMode: 0
      - time: 2.7
        value: 6.1005836
        inSlope: 0
        outSlope: 0
        tangentMode: 0
      - time: 3.2166667
        value: -7.913772
        inSlope: -27.12456
        outSlope: -27.12456
        tangentMode: 10
      m_PreInfinity: 2
      m_PostInfinity: 2
      m_RotationOrder: 4
    attribute: localEulerAnglesRaw.z
    path: Body/Torso/TorsoUpper/RightArm/RightForearm/RightHand
    classID: 4
    script: {fileID: 0}
  - curve:
      serializedVersion: 2
      m_Curve:
      - time: 0
        value: 1
        inSlope: Infinity
        outSlope: Infinity
        tangentMode: 31
      - time: 0.65
        value: 1
        inSlope: Infinity
        outSlope: Infinity
        tangentMode: 31
      m_PreInfinity: 2
      m_PostInfinity: 2
      m_RotationOrder: 4
    attribute: m_IsActive
    path: Body/Torso/TorsoUpper/RightArm/RightForearm/RightHand
    classID: 1
    script: {fileID: 0}
  - curve:
      serializedVersion: 2
      m_Curve:
      - time: 0
        value: 0
        inSlope: 0
        outSlope: 0
        tangentMode: 10
      - time: 0.5
        value: 0
        inSlope: 0
        outSlope: 0
        tangentMode: 10
      - time: 0.71666664
        value: 0
        inSlope: 0
        outSlope: 0
        tangentMode: 10
      - time: 2.6
        value: 0
        inSlope: 0
        outSlope: 0
        tangentMode: 10
      - time: 3.2166667
        value: 0
        inSlope: 0
        outSlope: 0
        tangentMode: 10
      m_PreInfinity: 2
      m_PostInfinity: 2
      m_RotationOrder: 4
    attribute: localEulerAnglesRaw.x
    path: Body/Torso/TorsoUpper
    classID: 4
    script: {fileID: 0}
  - curve:
      serializedVersion: 2
      m_Curve:
      - time: 0
        value: 0
        inSlope: 0
        outSlope: 0
        tangentMode: 10
      - time: 0.5
        value: 0
        inSlope: 0
        outSlope: 0
        tangentMode: 10
      - time: 0.71666664
        value: 0
        inSlope: 0
        outSlope: 0
        tangentMode: 10
      - time: 2.6
        value: 0
        inSlope: 0
        outSlope: 0
        tangentMode: 10
      - time: 3.2166667
        value: 0
        inSlope: 0
        outSlope: 0
        tangentMode: 10
      m_PreInfinity: 2
      m_PostInfinity: 2
      m_RotationOrder: 4
    attribute: localEulerAnglesRaw.y
    path: Body/Torso/TorsoUpper
    classID: 4
    script: {fileID: 0}
  - curve:
      serializedVersion: 2
      m_Curve:
      - time: 0
        value: 0
        inSlope: 6.5360003
        outSlope: 6.5360003
        tangentMode: 10
      - time: 0.5
        value: 3.2680001
        inSlope: 5.764924
        outSlope: 5.764924
        tangentMode: 10
      - time: 0.71666664
        value: 4.3500004
        inSlope: 2.8279858
        outSlope: 2.8279858
        tangentMode: 10
      - time: 2.6
        value: 5.597
        inSlope: -4.2070456
        outSlope: -4.2070456
        tangentMode: 10
      - time: 3.2166667
        value: 0
        inSlope: -9.076215
        outSlope: -9.076215
        tangentMode: 10
      m_PreInfinity: 2
      m_PostInfinity: 2
      m_RotationOrder: 4
    attribute: localEulerAnglesRaw.z
    path: Body/Torso/TorsoUpper
    classID: 4
    script: {fileID: 0}
  - curve:
      serializedVersion: 2
      m_Curve:
      - time: 0
        value: 0
        inSlope: -68.88231
        outSlope: -68.88231
        tangentMode: 10
      - time: 0.6666667
        value: -45.92154
        inSlope: 0
        outSlope: 0
        tangentMode: 0
      - time: 2.3166666
        value: -45.92154
        inSlope: 0
        outSlope: 0
        tangentMode: 0
      - time: 3.2333333
        value: 0
        inSlope: 0
        outSlope: 0
        tangentMode: 0
      m_PreInfinity: 2
      m_PostInfinity: 2
      m_RotationOrder: 4
    attribute: localEulerAnglesRaw.x
    path: Body/Torso/TorsoUpper/RightArm/RightForearm
    classID: 4
    script: {fileID: 0}
  - curve:
      serializedVersion: 2
      m_Curve:
      - time: 0
        value: 0
        inSlope: 0
        outSlope: 0
        tangentMode: 10
      - time: 3.2333333
        value: 0
        inSlope: 0
        outSlope: 0
        tangentMode: 0
      m_PreInfinity: 2
      m_PostInfinity: 2
      m_RotationOrder: 4
    attribute: localEulerAnglesRaw.y
    path: Body/Torso/TorsoUpper/RightArm/RightForearm
    classID: 4
    script: {fileID: 0}
  - curve:
      serializedVersion: 2
      m_Curve:
      - time: 0
        value: 0
        inSlope: 244.97403
        outSlope: 244.97403
        tangentMode: 10
      - time: 0.65000004
        value: 159.23312
        inSlope: 0
        outSlope: 0
        tangentMode: 0
      - time: 2.7666667
        value: 154.17023
        inSlope: 0
        outSlope: 0
        tangentMode: 0
      - time: 3.2333333
        value: 0
        inSlope: 0
        outSlope: 0
        tangentMode: 0
      m_PreInfinity: 2
      m_PostInfinity: 2
      m_RotationOrder: 4
    attribute: localEulerAnglesRaw.z
    path: Body/Torso/TorsoUpper/RightArm/RightForearm
    classID: 4
    script: {fileID: 0}
  - curve:
      serializedVersion: 2
      m_Curve:
      - time: 0
        value: 1
        inSlope: Infinity
        outSlope: Infinity
        tangentMode: 31
      - time: 0.28333333
        value: 0
        inSlope: Infinity
        outSlope: Infinity
        tangentMode: 31
      - time: 3.2166667
        value: 1
        inSlope: Infinity
        outSlope: Infinity
        tangentMode: 31
      m_PreInfinity: 2
      m_PostInfinity: 2
      m_RotationOrder: 4
    attribute: m_IsActive
    path: Body/Torso/TorsoUpper/Neck/Head/Face/MouthClosed
    classID: 1
    script: {fileID: 0}
  - curve:
      serializedVersion: 2
      m_Curve:
      - time: 0
        value: 0
        inSlope: Infinity
        outSlope: Infinity
        tangentMode: 31
      - time: 0.28333333
        value: 1
        inSlope: Infinity
        outSlope: Infinity
        tangentMode: 31
      - time: 3.2166667
        value: 0
        inSlope: Infinity
        outSlope: Infinity
        tangentMode: 31
      m_PreInfinity: 2
      m_PostInfinity: 2
      m_RotationOrder: 4
    attribute: m_IsActive
    path: Body/Torso/TorsoUpper/Neck/Head/Face/MouthAnger
    classID: 1
    script: {fileID: 0}
  - curve:
      serializedVersion: 2
      m_Curve:
      - time: 0
        value: 1
        inSlope: Infinity
        outSlope: Infinity
        tangentMode: 31
      m_PreInfinity: 2
      m_PostInfinity: 2
      m_RotationOrder: 4
    attribute: m_IsActive
    path: Body/Torso/TorsoUpper/RightArm/RightForearm/RightForearmFront
    classID: 1
    script: {fileID: 0}
  - curve:
      serializedVersion: 2
      m_Curve:
      - time: 0
        value: 0
        inSlope: Infinity
        outSlope: Infinity
        tangentMode: 31
      m_PreInfinity: 2
      m_PostInfinity: 2
      m_RotationOrder: 4
    attribute: m_IsActive
    path: Body/Torso/TorsoUpper/RightArm/RightForearm/RightForearm
    classID: 1
    script: {fileID: 0}
  - curve:
      serializedVersion: 2
      m_Curve:
      - time: 0
        value: 1
        inSlope: Infinity
        outSlope: Infinity
        tangentMode: 31
      - time: 0.5
        value: 0
        inSlope: Infinity
        outSlope: Infinity
        tangentMode: 31
      - time: 0.6666667
        value: 0
        inSlope: Infinity
        outSlope: Infinity
        tangentMode: 31
      - time: 2.8666666
        value: 1
        inSlope: Infinity
        outSlope: Infinity
        tangentMode: 31
      m_PreInfinity: 2
      m_PostInfinity: 2
      m_RotationOrder: 4
    attribute: m_IsActive
    path: Body/Torso/TorsoUpper/RightArm/RightForearm/RightHand/HandRightIdleFront
    classID: 1
    script: {fileID: 0}
  - curve:
      serializedVersion: 2
      m_Curve:
      - time: 0
        value: 0
        inSlope: Infinity
        outSlope: Infinity
        tangentMode: 31
      m_PreInfinity: 2
      m_PostInfinity: 2
      m_RotationOrder: 4
    attribute: m_IsActive
    path: Body/Torso/TorsoUpper/RightArm/RightForearm/RightHand/HandRightIdle
    classID: 1
    script: {fileID: 0}
  - curve:
      serializedVersion: 2
      m_Curve:
      - time: 0
        value: 0
        inSlope: 0
        outSlope: 0
        tangentMode: 10
      - time: 2.1
        value: 0
        inSlope: 0
        outSlope: 0
        tangentMode: 10
      - time: 3.2333333
        value: 0
        inSlope: 0
        outSlope: 0
        tangentMode: 10
      m_PreInfinity: 2
      m_PostInfinity: 2
      m_RotationOrder: 4
    attribute: localEulerAnglesRaw.x
    path: Body/Torso/TorsoUpper/Neck/Head/Face/Left/LeftEyebrow
    classID: 4
    script: {fileID: 0}
  - curve:
      serializedVersion: 2
      m_Curve:
      - time: 0
        value: 0
        inSlope: 0
        outSlope: 0
        tangentMode: 10
      - time: 2.1
        value: 0
        inSlope: 0
        outSlope: 0
        tangentMode: 10
      - time: 3.2333333
        value: 0
        inSlope: 0
        outSlope: 0
        tangentMode: 10
      m_PreInfinity: 2
      m_PostInfinity: 2
      m_RotationOrder: 4
    attribute: localEulerAnglesRaw.y
    path: Body/Torso/TorsoUpper/Neck/Head/Face/Left/LeftEyebrow
    classID: 4
    script: {fileID: 0}
  - curve:
      serializedVersion: 2
      m_Curve:
      - time: 0
        value: 0
        inSlope: -5.0566673
        outSlope: -5.0566673
        tangentMode: 10
      - time: 2.1
        value: -10.619
        inSlope: 0
        outSlope: 0
        tangentMode: 0
      - time: 3.2333333
        value: 0
        inSlope: 9.369705
        outSlope: 9.369705
        tangentMode: 10
      m_PreInfinity: 2
      m_PostInfinity: 2
      m_RotationOrder: 4
    attribute: localEulerAnglesRaw.z
    path: Body/Torso/TorsoUpper/Neck/Head/Face/Left/LeftEyebrow
    classID: 4
    script: {fileID: 0}
  - curve:
      serializedVersion: 2
      m_Curve:
      - time: 0
        value: -0.035567224
        inSlope: -0.0011584642
        outSlope: -0.0011584642
        tangentMode: 10
      - time: 2.1
        value: -0.038
        inSlope: 0.0004940508
        outSlope: 0.0004940508
        tangentMode: 10
      - time: 3.2333333
        value: -0.035567224
        inSlope: 0.0021465658
        outSlope: 0.0021465658
        tangentMode: 10
      m_PreInfinity: 2
      m_PostInfinity: 2
      m_RotationOrder: 4
    attribute: m_LocalPosition.x
    path: Body/Torso/TorsoUpper/Neck/Head/Face/Left/LeftEyebrow
    classID: 4
    script: {fileID: 0}
  - curve:
      serializedVersion: 2
      m_Curve:
      - time: 0
        value: 0.24988551
        inSlope: -0.019469291
        outSlope: -0.019469291
        tangentMode: 10
      - time: 2.1
        value: 0.209
        inSlope: 0.008303076
        outSlope: 0.008303076
        tangentMode: 10
      - time: 3.2333333
        value: 0.24988551
        inSlope: 0.036075443
        outSlope: 0.036075443
        tangentMode: 10
      m_PreInfinity: 2
      m_PostInfinity: 2
      m_RotationOrder: 4
    attribute: m_LocalPosition.y
    path: Body/Torso/TorsoUpper/Neck/Head/Face/Left/LeftEyebrow
    classID: 4
    script: {fileID: 0}
  - curve:
      serializedVersion: 2
      m_Curve:
      - time: 0
        value: 0
        inSlope: 0
        outSlope: 0
        tangentMode: 10
      - time: 2.1
        value: 0
        inSlope: 0
        outSlope: 0
        tangentMode: 10
      - time: 3.2333333
        value: 0
        inSlope: 0
        outSlope: 0
        tangentMode: 10
      m_PreInfinity: 2
      m_PostInfinity: 2
      m_RotationOrder: 4
    attribute: m_LocalPosition.z
    path: Body/Torso/TorsoUpper/Neck/Head/Face/Left/LeftEyebrow
    classID: 4
    script: {fileID: 0}
  - curve:
      serializedVersion: 2
      m_Curve:
      - time: 0
        value: 0
        inSlope: 0
        outSlope: 0
        tangentMode: 10
      - time: 2.1
        value: 0
        inSlope: 0
        outSlope: 0
        tangentMode: 10
      - time: 3.2333333
        value: 0
        inSlope: 0
        outSlope: 0
        tangentMode: 10
      m_PreInfinity: 2
      m_PostInfinity: 2
      m_RotationOrder: 4
    attribute: localEulerAnglesRaw.x
    path: Body/Torso/TorsoUpper/Neck/Head/Face/Right/RightEyebrow
    classID: 4
    script: {fileID: 0}
  - curve:
      serializedVersion: 2
      m_Curve:
      - time: 0
        value: 0
        inSlope: 0
        outSlope: 0
        tangentMode: 10
      - time: 2.1
        value: 0
        inSlope: 0
        outSlope: 0
        tangentMode: 10
      - time: 3.2333333
        value: 0
        inSlope: 0
        outSlope: 0
        tangentMode: 10
      m_PreInfinity: 2
      m_PostInfinity: 2
      m_RotationOrder: 4
    attribute: localEulerAnglesRaw.y
    path: Body/Torso/TorsoUpper/Neck/Head/Face/Right/RightEyebrow
    classID: 4
    script: {fileID: 0}
  - curve:
      serializedVersion: 2
      m_Curve:
      - time: 0
        value: 0
        inSlope: 6.898096
        outSlope: 6.898096
        tangentMode: 10
      - time: 2.1
        value: 14.486001
        inSlope: 0
        outSlope: 0
        tangentMode: 0
      - time: 3.2333333
        value: 0
        inSlope: -12.781764
        outSlope: -12.781764
        tangentMode: 10
      m_PreInfinity: 2
      m_PostInfinity: 2
      m_RotationOrder: 4
    attribute: localEulerAnglesRaw.z
    path: Body/Torso/TorsoUpper/Neck/Head/Face/Right/RightEyebrow
    classID: 4
    script: {fileID: 0}
  - curve:
      serializedVersion: 2
      m_Curve:
      - time: 0
        value: -0.07975675
        inSlope: -0.00059202313
        outSlope: -0.00059202313
        tangentMode: 10
      - time: 2.1
        value: -0.081
        inSlope: 0.0002524804
        outSlope: 0.0002524804
        tangentMode: 10
      - time: 3.2333333
        value: -0.07975675
        inSlope: 0.0010969839
        outSlope: 0.0010969839
        tangentMode: 10
      m_PreInfinity: 2
      m_PostInfinity: 2
      m_RotationOrder: 4
    attribute: m_LocalPosition.x
    path: Body/Torso/TorsoUpper/Neck/Head/Face/Right/RightEyebrow
    classID: 4
    script: {fileID: 0}
  - curve:
      serializedVersion: 2
      m_Curve:
      - time: 0
        value: 0.21237452
        inSlope: -0.013035486
        outSlope: -0.013035486
        tangentMode: 10
      - time: 2.1
        value: 0.185
        inSlope: 0.0055592502
        outSlope: 0.0055592502
        tangentMode: 10
      - time: 3.2333333
        value: 0.21237452
        inSlope: 0.024153987
        outSlope: 0.024153987
        tangentMode: 10
      m_PreInfinity: 2
      m_PostInfinity: 2
      m_RotationOrder: 4
    attribute: m_LocalPosition.y
    path: Body/Torso/TorsoUpper/Neck/Head/Face/Right/RightEyebrow
    classID: 4
    script: {fileID: 0}
  - curve:
      serializedVersion: 2
      m_Curve:
      - time: 0
        value: 0
        inSlope: 0
        outSlope: 0
        tangentMode: 10
      - time: 2.1
        value: 0
        inSlope: 0
        outSlope: 0
        tangentMode: 10
      - time: 3.2333333
        value: 0
        inSlope: 0
        outSlope: 0
        tangentMode: 10
      m_PreInfinity: 2
      m_PostInfinity: 2
      m_RotationOrder: 4
    attribute: m_LocalPosition.z
    path: Body/Torso/TorsoUpper/Neck/Head/Face/Right/RightEyebrow
    classID: 4
    script: {fileID: 0}
  - curve:
      serializedVersion: 2
      m_Curve:
      - time: 0
        value: -0.050080355
        inSlope: 0.0009906453
        outSlope: 0.0009906453
        tangentMode: 10
      - time: 2.1
        value: -0.048
        inSlope: -0.00047984353
        outSlope: -0.00047984353
        tangentMode: 10
      - time: 3.1666667
        value: -0.050080355
        inSlope: -0.0019503323
        outSlope: -0.0019503323
        tangentMode: 10
      m_PreInfinity: 2
      m_PostInfinity: 2
      m_RotationOrder: 4
    attribute: m_LocalPosition.x
    path: Body/Torso/TorsoUpper/Neck/Head/Face/Right/RightPupil
    classID: 4
    script: {fileID: 0}
  - curve:
      serializedVersion: 2
      m_Curve:
      - time: 0
        value: 0.024111519
        inSlope: 0.012804039
        outSlope: 0.012804039
        tangentMode: 10
      - time: 2.1
        value: 0.051
        inSlope: -0.0062019536
        outSlope: -0.0062019536
        tangentMode: 10
      - time: 3.1666667
        value: 0.024111519
        inSlope: -0.025207946
        outSlope: -0.025207946
        tangentMode: 10
      m_PreInfinity: 2
      m_PostInfinity: 2
      m_RotationOrder: 4
    attribute: m_LocalPosition.y
    path: Body/Torso/TorsoUpper/Neck/Head/Face/Right/RightPupil
    classID: 4
    script: {fileID: 0}
  - curve:
      serializedVersion: 2
      m_Curve:
      - time: 0
        value: 0
        inSlope: 0
        outSlope: 0
        tangentMode: 10
      - time: 2.1
        value: 0
        inSlope: 0
        outSlope: 0
        tangentMode: 10
      - time: 3.1666667
        value: 0
        inSlope: 0
        outSlope: 0
        tangentMode: 10
      m_PreInfinity: 2
      m_PostInfinity: 2
      m_RotationOrder: 4
    attribute: m_LocalPosition.z
    path: Body/Torso/TorsoUpper/Neck/Head/Face/Right/RightPupil
    classID: 4
    script: {fileID: 0}
  - curve:
      serializedVersion: 2
      m_Curve:
      - time: 0
        value: -0.090286165
        inSlope: 0.000612459
        outSlope: 0.000612459
        tangentMode: 10
      - time: 2.1
        value: -0.089
        inSlope: -0.0002966597
        outSlope: -0.0002966597
        tangentMode: 10
      - time: 3.1666667
        value: -0.090286165
        inSlope: -0.0012057784
        outSlope: -0.0012057784
        tangentMode: 10
      m_PreInfinity: 2
      m_PostInfinity: 2
      m_RotationOrder: 4
    attribute: m_LocalPosition.x
    path: Body/Torso/TorsoUpper/Neck/Head/Face/Left/LeftPupil
    classID: 4
    script: {fileID: 0}
  - curve:
      serializedVersion: 2
      m_Curve:
      - time: 0
        value: 0.02462239
        inSlope: 0.0077988626
        outSlope: 0.0077988626
        tangentMode: 10
      - time: 2.1
        value: 0.041
        inSlope: -0.0037775724
        outSlope: -0.0037775724
        tangentMode: 10
      - time: 3.1666667
        value: 0.02462239
        inSlope: -0.0153540075
        outSlope: -0.0153540075
        tangentMode: 10
      m_PreInfinity: 2
      m_PostInfinity: 2
      m_RotationOrder: 4
    attribute: m_LocalPosition.y
    path: Body/Torso/TorsoUpper/Neck/Head/Face/Left/LeftPupil
    classID: 4
    script: {fileID: 0}
  - curve:
      serializedVersion: 2
      m_Curve:
      - time: 0
        value: 0
        inSlope: 0
        outSlope: 0
        tangentMode: 10
      - time: 2.1
        value: 0
        inSlope: 0
        outSlope: 0
        tangentMode: 10
      - time: 3.1666667
        value: 0
        inSlope: 0
        outSlope: 0
        tangentMode: 10
      m_PreInfinity: 2
      m_PostInfinity: 2
      m_RotationOrder: 4
    attribute: m_LocalPosition.z
    path: Body/Torso/TorsoUpper/Neck/Head/Face/Left/LeftPupil
    classID: 4
    script: {fileID: 0}
  - curve:
      serializedVersion: 2
      m_Curve:
      - time: 0
        value: -0
        inSlope: 7.940635
        outSlope: 7.940635
        tangentMode: 10
      - time: 0.25
        value: 1.9851588
        inSlope: 7.940635
        outSlope: 7.940635
        tangentMode: 10
      m_PreInfinity: 2
      m_PostInfinity: 2
      m_RotationOrder: 4
    attribute: localEulerAnglesRaw.x
    path: Body/Torso/TorsoUpper/RightArm/RightForearm/RightHand/HandRightConfusionFront
      (1)
    classID: 4
    script: {fileID: 0}
  - curve:
      serializedVersion: 2
      m_Curve:
      - time: 0
        value: -0
        inSlope: 1432.9685
        outSlope: 1432.9685
        tangentMode: 10
      - time: 0.25
        value: 358.24213
        inSlope: 1432.9685
        outSlope: 1432.9685
        tangentMode: 10
      m_PreInfinity: 2
      m_PostInfinity: 2
      m_RotationOrder: 4
    attribute: localEulerAnglesRaw.y
    path: Body/Torso/TorsoUpper/RightArm/RightForearm/RightHand/HandRightConfusionFront
      (1)
    classID: 4
    script: {fileID: 0}
  - curve:
      serializedVersion: 2
      m_Curve:
      - time: 0
        value: 101.13151
        inSlope: -224.5053
        outSlope: -224.5053
        tangentMode: 10
      - time: 0.25
        value: 45.005184
        inSlope: -224.5053
        outSlope: -224.5053
        tangentMode: 10
      m_PreInfinity: 2
      m_PostInfinity: 2
      m_RotationOrder: 4
    attribute: localEulerAnglesRaw.z
    path: Body/Torso/TorsoUpper/RightArm/RightForearm/RightHand/HandRightConfusionFront
      (1)
    classID: 4
    script: {fileID: 0}
  - curve:
      serializedVersion: 2
      m_Curve:
      - time: 0
        value: -38.87276
        inSlope: 145.7699
        outSlope: 145.7699
        tangentMode: 10
      - time: 0.25
        value: -2.430285
        inSlope: 145.7699
        outSlope: 145.7699
        tangentMode: 10
      m_PreInfinity: 2
      m_PostInfinity: 2
      m_RotationOrder: 4
    attribute: m_LocalPosition.x
    path: Body/Torso/TorsoUpper/RightArm/RightForearm/RightHand/HandRightConfusionFront
      (1)
    classID: 4
    script: {fileID: 0}
  - curve:
      serializedVersion: 2
      m_Curve:
      - time: 0
        value: -0.14205074
        inSlope: 5.2560687
        outSlope: 5.2560687
        tangentMode: 10
      - time: 0.25
        value: 1.1719664
        inSlope: 5.2560687
        outSlope: 5.2560687
        tangentMode: 10
      m_PreInfinity: 2
      m_PostInfinity: 2
      m_RotationOrder: 4
    attribute: m_LocalPosition.y
    path: Body/Torso/TorsoUpper/RightArm/RightForearm/RightHand/HandRightConfusionFront
      (1)
    classID: 4
    script: {fileID: 0}
  - curve:
      serializedVersion: 2
      m_Curve:
      - time: 0
        value: 0
        inSlope: -2.439313
        outSlope: -2.439313
        tangentMode: 10
      - time: 0.25
        value: -0.60982823
        inSlope: -2.439313
        outSlope: -2.439313
        tangentMode: 10
      m_PreInfinity: 2
      m_PostInfinity: 2
      m_RotationOrder: 4
    attribute: m_LocalPosition.z
    path: Body/Torso/TorsoUpper/RightArm/RightForearm/RightHand/HandRightConfusionFront
      (1)
    classID: 4
    script: {fileID: 0}
  - curve:
      serializedVersion: 2
      m_Curve:
      - time: 0
        value: 0.35000002
        inSlope: 2.5999994
        outSlope: 2.5999994
        tangentMode: 10
      - time: 0.25
        value: 0.9999999
        inSlope: 2.5999994
        outSlope: 2.5999994
        tangentMode: 10
      m_PreInfinity: 2
      m_PostInfinity: 2
      m_RotationOrder: 4
    attribute: m_LocalScale.x
    path: Body/Torso/TorsoUpper/RightArm/RightForearm/RightHand/HandRightConfusionFront
      (1)
    classID: 4
    script: {fileID: 0}
  - curve:
      serializedVersion: 2
      m_Curve:
      - time: 0
        value: 0.35000002
        inSlope: 2.5999994
        outSlope: 2.5999994
        tangentMode: 10
      - time: 0.25
        value: 0.9999999
        inSlope: 2.5999994
        outSlope: 2.5999994
        tangentMode: 10
      m_PreInfinity: 2
      m_PostInfinity: 2
      m_RotationOrder: 4
    attribute: m_LocalScale.y
    path: Body/Torso/TorsoUpper/RightArm/RightForearm/RightHand/HandRightConfusionFront
      (1)
    classID: 4
    script: {fileID: 0}
  - curve:
      serializedVersion: 2
      m_Curve:
      - time: 0
        value: 0.34999993
        inSlope: 2.599999
        outSlope: 2.599999
        tangentMode: 10
      - time: 0.25
        value: 0.99999964
        inSlope: 2.599999
        outSlope: 2.599999
        tangentMode: 10
      m_PreInfinity: 2
      m_PostInfinity: 2
      m_RotationOrder: 4
    attribute: m_LocalScale.z
    path: Body/Torso/TorsoUpper/RightArm/RightForearm/RightHand/HandRightConfusionFront
      (1)
    classID: 4
    script: {fileID: 0}
  - curve:
      serializedVersion: 2
      m_Curve:
      - time: 0
        value: 0
        inSlope: Infinity
        outSlope: Infinity
        tangentMode: 31
      - time: 0.5
        value: 1
        inSlope: Infinity
        outSlope: Infinity
        tangentMode: 31
      - time: 0.6666667
        value: 1
        inSlope: Infinity
        outSlope: Infinity
        tangentMode: 31
      - time: 2.8666666
        value: 0
        inSlope: Infinity
        outSlope: Infinity
        tangentMode: 31
      m_PreInfinity: 2
      m_PostInfinity: 2
      m_RotationOrder: 4
    attribute: m_IsActive
    path: Body/Torso/TorsoUpper/RightArm/RightForearm/RightHand/HandRightWorryFront
    classID: 1
    script: {fileID: 0}
  - curve:
      serializedVersion: 2
      m_Curve:
      - time: 0
        value: 1
        inSlope: Infinity
        outSlope: Infinity
        tangentMode: 31
      m_PreInfinity: 2
      m_PostInfinity: 2
      m_RotationOrder: 4
    attribute: m_IsActive
    path: Body/Torso/TorsoUpper/RightArm/RightForearm/RightHand/ArmletRightFront
    classID: 1
    script: {fileID: 0}
  - curve:
      serializedVersion: 2
      m_Curve:
      - time: 0
        value: 0
        inSlope: Infinity
        outSlope: Infinity
        tangentMode: 31
      - time: 0.5
        value: 0
        inSlope: Infinity
        outSlope: Infinity
        tangentMode: 31
      m_PreInfinity: 2
      m_PostInfinity: 2
      m_RotationOrder: 4
    attribute: m_IsActive
    path: Body/Torso/TorsoUpper/RightArm/RightForearm/RightHand/HandRightThinkingFront
    classID: 1
    script: {fileID: 0}
  - curve:
      serializedVersion: 2
      m_Curve:
      - time: 0
        value: 0
        inSlope: Infinity
        outSlope: Infinity
        tangentMode: 31
      - time: 0.5
        value: 0
        inSlope: Infinity
        outSlope: Infinity
        tangentMode: 31
      m_PreInfinity: 2
      m_PostInfinity: 2
      m_RotationOrder: 4
    attribute: m_IsActive
    path: Body/Torso/TorsoUpper/RightArm/RightForearm/RightHand/HandRightLaughter
    classID: 1
    script: {fileID: 0}
  - curve:
      serializedVersion: 2
      m_Curve:
      - time: 0
        value: 0
        inSlope: Infinity
        outSlope: Infinity
        tangentMode: 31
      - time: 0.5
        value: 0
        inSlope: Infinity
        outSlope: Infinity
        tangentMode: 31
      m_PreInfinity: 2
      m_PostInfinity: 2
      m_RotationOrder: 4
    attribute: m_IsActive
    path: Body/Torso/TorsoUpper/RightArm/RightForearm/RightHand/HandRightDisagree
    classID: 1
    script: {fileID: 0}
  - curve:
      serializedVersion: 2
      m_Curve:
      - time: 0
        value: 0
        inSlope: Infinity
        outSlope: Infinity
        tangentMode: 31
      - time: 0.5
        value: 0
        inSlope: Infinity
        outSlope: Infinity
        tangentMode: 31
      m_PreInfinity: 2
      m_PostInfinity: 2
      m_RotationOrder: 4
    attribute: m_IsActive
    path: Body/Torso/TorsoUpper/RightArm/RightForearm/RightHand/HandRightConfusionFront
    classID: 1
    script: {fileID: 0}
  - curve:
      serializedVersion: 2
      m_Curve:
      - time: 0
        value: 0
        inSlope: 0
        outSlope: 0
        tangentMode: 10
      m_PreInfinity: 2
      m_PostInfinity: 2
      m_RotationOrder: 4
    attribute: localEulerAnglesRaw.x
    path: Body/Torso/TorsoUpper/Neck/Neck
    classID: 4
    script: {fileID: 0}
  - curve:
      serializedVersion: 2
      m_Curve:
      - time: 0
        value: 0
        inSlope: 0
        outSlope: 0
        tangentMode: 10
      m_PreInfinity: 2
      m_PostInfinity: 2
      m_RotationOrder: 4
    attribute: localEulerAnglesRaw.y
    path: Body/Torso/TorsoUpper/Neck/Neck
    classID: 4
    script: {fileID: 0}
  - curve:
      serializedVersion: 2
      m_Curve:
      - time: 0
        value: 0
        inSlope: -4.632439
        outSlope: -4.632439
        tangentMode: 10
      m_PreInfinity: 2
      m_PostInfinity: 2
      m_RotationOrder: 4
    attribute: localEulerAnglesRaw.z
    path: Body/Torso/TorsoUpper/Neck/Neck
    classID: 4
    script: {fileID: 0}
  - curve:
      serializedVersion: 2
      m_Curve:
      - time: 0
        value: 0
        inSlope: 0.013953488
        outSlope: 0.013953488
        tangentMode: 10
      - time: 0.71666664
        value: 0.01
        inSlope: 0.004989989
        outSlope: 0.004989989
        tangentMode: 10
      - time: 3.2333333
        value: 0
        inSlope: -0.0039735097
        outSlope: -0.0039735097
        tangentMode: 10
      m_PreInfinity: 2
      m_PostInfinity: 2
      m_RotationOrder: 4
    attribute: m_LocalPosition.x
    path: Body/Torso/TorsoUpper/Neck/Neck
    classID: 4
    script: {fileID: 0}
  - curve:
      serializedVersion: 2
      m_Curve:
      - time: 0
        value: 0
        inSlope: -0.16744186
        outSlope: -0.16744186
        tangentMode: 10
      - time: 0.71666664
        value: -0.12
        inSlope: -0.05987987
        outSlope: -0.05987987
        tangentMode: 10
      - time: 3.2333333
        value: 0
        inSlope: 0.047682118
        outSlope: 0.047682118
        tangentMode: 10
      m_PreInfinity: 2
      m_PostInfinity: 2
      m_RotationOrder: 4
    attribute: m_LocalPosition.y
    path: Body/Torso/TorsoUpper/Neck/Neck
    classID: 4
    script: {fileID: 0}
  - curve:
      serializedVersion: 2
      m_Curve:
      - time: 0
        value: 0
        inSlope: 0
        outSlope: 0
        tangentMode: 10
      - time: 0.71666664
        value: 0
        inSlope: 0
        outSlope: 0
        tangentMode: 10
      - time: 3.2333333
        value: 0
        inSlope: 0
        outSlope: 0
        tangentMode: 10
      m_PreInfinity: 2
      m_PostInfinity: 2
      m_RotationOrder: 4
    attribute: m_LocalPosition.z
    path: Body/Torso/TorsoUpper/Neck/Neck
    classID: 4
    script: {fileID: 0}
  m_EulerEditorCurves:
  - curve:
      serializedVersion: 2
      m_Curve: []
      m_PreInfinity: 2
      m_PostInfinity: 2
      m_RotationOrder: 4
    attribute: m_LocalEulerAngles.z
    path: Body/Torso/TorsoUpper/Neck/Head/Face/Left/LeftEyebrow
    classID: 4
    script: {fileID: 0}
  - curve:
      serializedVersion: 2
      m_Curve: []
      m_PreInfinity: 2
      m_PostInfinity: 2
      m_RotationOrder: 4
    attribute: m_LocalEulerAngles.y
    path: Body/Torso/TorsoUpper/Neck/Head/Face/Left/LeftEyebrow
    classID: 4
    script: {fileID: 0}
  - curve:
      serializedVersion: 2
      m_Curve: []
      m_PreInfinity: 2
      m_PostInfinity: 2
      m_RotationOrder: 4
    attribute: m_LocalEulerAngles.x
    path: Body/Torso/TorsoUpper/Neck/Head/Face/Left/LeftEyebrow
    classID: 4
    script: {fileID: 0}
  - curve:
      serializedVersion: 2
      m_Curve: []
      m_PreInfinity: 2
      m_PostInfinity: 2
      m_RotationOrder: 4
    attribute: m_LocalEulerAngles.z
    path: Body/Torso/TorsoUpper/Neck/Neck
    classID: 4
    script: {fileID: 0}
  - curve:
      serializedVersion: 2
      m_Curve: []
      m_PreInfinity: 2
      m_PostInfinity: 2
      m_RotationOrder: 4
    attribute: m_LocalEulerAngles.y
    path: Body/Torso/TorsoUpper/Neck/Neck
    classID: 4
    script: {fileID: 0}
  - curve:
      serializedVersion: 2
      m_Curve: []
      m_PreInfinity: 2
      m_PostInfinity: 2
      m_RotationOrder: 4
    attribute: m_LocalEulerAngles.x
    path: Body/Torso/TorsoUpper/Neck/Neck
    classID: 4
    script: {fileID: 0}
  - curve:
      serializedVersion: 2
      m_Curve: []
      m_PreInfinity: 2
      m_PostInfinity: 2
      m_RotationOrder: 4
    attribute: m_LocalEulerAngles.z
    path: Body/Torso/TorsoUpper/LeftArm/LeftForearm/LeftHand
    classID: 4
    script: {fileID: 0}
  - curve:
      serializedVersion: 2
      m_Curve: []
      m_PreInfinity: 2
      m_PostInfinity: 2
      m_RotationOrder: 4
    attribute: m_LocalEulerAngles.y
    path: Body/Torso/TorsoUpper/LeftArm/LeftForearm/LeftHand
    classID: 4
    script: {fileID: 0}
  - curve:
      serializedVersion: 2
      m_Curve: []
      m_PreInfinity: 2
      m_PostInfinity: 2
      m_RotationOrder: 4
    attribute: m_LocalEulerAngles.x
    path: Body/Torso/TorsoUpper/LeftArm/LeftForearm/LeftHand
    classID: 4
    script: {fileID: 0}
  - curve:
      serializedVersion: 2
      m_Curve: []
      m_PreInfinity: 2
      m_PostInfinity: 2
      m_RotationOrder: 4
    attribute: m_LocalEulerAngles.z
    path: Body/Torso/TorsoUpper/RightArm
    classID: 4
    script: {fileID: 0}
  - curve:
      serializedVersion: 2
      m_Curve: []
      m_PreInfinity: 2
      m_PostInfinity: 2
      m_RotationOrder: 4
    attribute: m_LocalEulerAngles.y
    path: Body/Torso/TorsoUpper/RightArm
    classID: 4
    script: {fileID: 0}
  - curve:
      serializedVersion: 2
      m_Curve: []
      m_PreInfinity: 2
      m_PostInfinity: 2
      m_RotationOrder: 4
    attribute: m_LocalEulerAngles.x
    path: Body/Torso/TorsoUpper/RightArm
    classID: 4
    script: {fileID: 0}
  - curve:
      serializedVersion: 2
      m_Curve: []
      m_PreInfinity: 2
      m_PostInfinity: 2
      m_RotationOrder: 4
    attribute: m_LocalEulerAngles.z
    path: Body/Torso/TorsoUpper/RightArm/RightForearm
    classID: 4
    script: {fileID: 0}
  - curve:
      serializedVersion: 2
      m_Curve: []
      m_PreInfinity: 2
      m_PostInfinity: 2
      m_RotationOrder: 4
    attribute: m_LocalEulerAngles.y
    path: Body/Torso/TorsoUpper/RightArm/RightForearm
    classID: 4
    script: {fileID: 0}
  - curve:
      serializedVersion: 2
      m_Curve: []
      m_PreInfinity: 2
      m_PostInfinity: 2
      m_RotationOrder: 4
    attribute: m_LocalEulerAngles.x
    path: Body/Torso/TorsoUpper/RightArm/RightForearm
    classID: 4
    script: {fileID: 0}
  - curve:
      serializedVersion: 2
      m_Curve: []
      m_PreInfinity: 2
      m_PostInfinity: 2
      m_RotationOrder: 4
    attribute: m_LocalEulerAngles.z
    path: Body/Torso/TorsoUpper/LeftArm/LeftForearm
    classID: 4
    script: {fileID: 0}
  - curve:
      serializedVersion: 2
      m_Curve: []
      m_PreInfinity: 2
      m_PostInfinity: 2
      m_RotationOrder: 4
    attribute: m_LocalEulerAngles.y
    path: Body/Torso/TorsoUpper/LeftArm/LeftForearm
    classID: 4
    script: {fileID: 0}
  - curve:
      serializedVersion: 2
      m_Curve: []
      m_PreInfinity: 2
      m_PostInfinity: 2
      m_RotationOrder: 4
    attribute: m_LocalEulerAngles.x
    path: Body/Torso/TorsoUpper/LeftArm/LeftForearm
    classID: 4
    script: {fileID: 0}
  - curve:
      serializedVersion: 2
      m_Curve: []
      m_PreInfinity: 2
      m_PostInfinity: 2
      m_RotationOrder: 4
    attribute: m_LocalEulerAngles.z
    path: Body/Torso/TorsoUpper/LeftArm
    classID: 4
    script: {fileID: 0}
  - curve:
      serializedVersion: 2
      m_Curve: []
      m_PreInfinity: 2
      m_PostInfinity: 2
      m_RotationOrder: 4
    attribute: m_LocalEulerAngles.y
    path: Body/Torso/TorsoUpper/LeftArm
    classID: 4
    script: {fileID: 0}
  - curve:
      serializedVersion: 2
      m_Curve: []
      m_PreInfinity: 2
      m_PostInfinity: 2
      m_RotationOrder: 4
    attribute: m_LocalEulerAngles.x
    path: Body/Torso/TorsoUpper/LeftArm
    classID: 4
    script: {fileID: 0}
  - curve:
      serializedVersion: 2
      m_Curve: []
      m_PreInfinity: 2
      m_PostInfinity: 2
      m_RotationOrder: 4
    attribute: m_LocalEulerAngles.z
    path: Body/Torso/TorsoUpper/Neck/Head
    classID: 4
    script: {fileID: 0}
  - curve:
      serializedVersion: 2
      m_Curve: []
      m_PreInfinity: 2
      m_PostInfinity: 2
      m_RotationOrder: 4
    attribute: m_LocalEulerAngles.y
    path: Body/Torso/TorsoUpper/Neck/Head
    classID: 4
    script: {fileID: 0}
  - curve:
      serializedVersion: 2
      m_Curve: []
      m_PreInfinity: 2
      m_PostInfinity: 2
      m_RotationOrder: 4
    attribute: m_LocalEulerAngles.x
    path: Body/Torso/TorsoUpper/Neck/Head
    classID: 4
    script: {fileID: 0}
  - curve:
      serializedVersion: 2
      m_Curve: []
      m_PreInfinity: 2
      m_PostInfinity: 2
      m_RotationOrder: 4
    attribute: m_LocalEulerAngles.z
    path: Body/Torso/TorsoUpper
    classID: 4
    script: {fileID: 0}
  - curve:
      serializedVersion: 2
      m_Curve: []
      m_PreInfinity: 2
      m_PostInfinity: 2
      m_RotationOrder: 4
    attribute: m_LocalEulerAngles.y
    path: Body/Torso/TorsoUpper
    classID: 4
    script: {fileID: 0}
  - curve:
      serializedVersion: 2
      m_Curve: []
      m_PreInfinity: 2
      m_PostInfinity: 2
      m_RotationOrder: 4
    attribute: m_LocalEulerAngles.x
    path: Body/Torso/TorsoUpper
    classID: 4
    script: {fileID: 0}
  - curve:
      serializedVersion: 2
      m_Curve: []
      m_PreInfinity: 2
      m_PostInfinity: 2
      m_RotationOrder: 4
    attribute: m_LocalEulerAngles.z
    path: Body/Torso/TorsoUpper/Neck
    classID: 4
    script: {fileID: 0}
  - curve:
      serializedVersion: 2
      m_Curve: []
      m_PreInfinity: 2
      m_PostInfinity: 2
      m_RotationOrder: 4
    attribute: m_LocalEulerAngles.y
    path: Body/Torso/TorsoUpper/Neck
    classID: 4
    script: {fileID: 0}
  - curve:
      serializedVersion: 2
      m_Curve: []
      m_PreInfinity: 2
      m_PostInfinity: 2
      m_RotationOrder: 4
    attribute: m_LocalEulerAngles.x
    path: Body/Torso/TorsoUpper/Neck
    classID: 4
    script: {fileID: 0}
  - curve:
      serializedVersion: 2
      m_Curve: []
      m_PreInfinity: 2
      m_PostInfinity: 2
      m_RotationOrder: 4
    attribute: m_LocalEulerAngles.z
    path: Body/Torso/TorsoUpper/RightArm/RightForearm/RightHand
    classID: 4
    script: {fileID: 0}
  - curve:
      serializedVersion: 2
      m_Curve: []
      m_PreInfinity: 2
      m_PostInfinity: 2
      m_RotationOrder: 4
    attribute: m_LocalEulerAngles.y
    path: Body/Torso/TorsoUpper/RightArm/RightForearm/RightHand
    classID: 4
    script: {fileID: 0}
  - curve:
      serializedVersion: 2
      m_Curve: []
      m_PreInfinity: 2
      m_PostInfinity: 2
      m_RotationOrder: 4
    attribute: m_LocalEulerAngles.x
    path: Body/Torso/TorsoUpper/RightArm/RightForearm/RightHand
    classID: 4
    script: {fileID: 0}
  - curve:
      serializedVersion: 2
      m_Curve: []
      m_PreInfinity: 2
      m_PostInfinity: 2
      m_RotationOrder: 4
    attribute: m_LocalEulerAngles.z
    path: Body/Waist
    classID: 4
    script: {fileID: 0}
  - curve:
      serializedVersion: 2
      m_Curve: []
      m_PreInfinity: 2
      m_PostInfinity: 2
      m_RotationOrder: 4
    attribute: m_LocalEulerAngles.y
    path: Body/Waist
    classID: 4
    script: {fileID: 0}
  - curve:
      serializedVersion: 2
      m_Curve: []
      m_PreInfinity: 2
      m_PostInfinity: 2
      m_RotationOrder: 4
    attribute: m_LocalEulerAngles.x
    path: Body/Waist
    classID: 4
    script: {fileID: 0}
  - curve:
      serializedVersion: 2
      m_Curve: []
      m_PreInfinity: 2
      m_PostInfinity: 2
      m_RotationOrder: 4
    attribute: m_LocalEulerAngles.x
    path: Body/Torso/TorsoUpper/RightArm/RightForearm/RightHand/HandRightConfusionFront
      (1)
    classID: 4
    script: {fileID: 0}
  - curve:
      serializedVersion: 2
      m_Curve: []
      m_PreInfinity: 2
      m_PostInfinity: 2
      m_RotationOrder: 4
    attribute: m_LocalEulerAngles.y
    path: Body/Torso/TorsoUpper/RightArm/RightForearm/RightHand/HandRightConfusionFront
      (1)
    classID: 4
    script: {fileID: 0}
  - curve:
      serializedVersion: 2
      m_Curve: []
      m_PreInfinity: 2
      m_PostInfinity: 2
      m_RotationOrder: 4
    attribute: m_LocalEulerAngles.z
    path: Body/Torso/TorsoUpper/RightArm/RightForearm/RightHand/HandRightConfusionFront
      (1)
    classID: 4
    script: {fileID: 0}
  - curve:
      serializedVersion: 2
      m_Curve: []
      m_PreInfinity: 2
      m_PostInfinity: 2
      m_RotationOrder: 4
    attribute: m_LocalEulerAngles.x
    path: Body/Torso/TorsoUpper/Neck/Head/Face/Right/RightEyebrow
    classID: 4
    script: {fileID: 0}
  - curve:
      serializedVersion: 2
      m_Curve: []
      m_PreInfinity: 2
      m_PostInfinity: 2
      m_RotationOrder: 4
    attribute: m_LocalEulerAngles.y
    path: Body/Torso/TorsoUpper/Neck/Head/Face/Right/RightEyebrow
    classID: 4
    script: {fileID: 0}
  - curve:
      serializedVersion: 2
      m_Curve: []
      m_PreInfinity: 2
      m_PostInfinity: 2
      m_RotationOrder: 4
    attribute: m_LocalEulerAngles.z
    path: Body/Torso/TorsoUpper/Neck/Head/Face/Right/RightEyebrow
    classID: 4
    script: {fileID: 0}
  m_HasGenericRootTransform: 0
  m_HasMotionFloatCurves: 0
  m_GenerateMotionCurves: 0
  m_Events: []
