%YAML 1.1
%TAG !u! tag:unity3d.com,2011:
--- !u!74 &7400000
AnimationClip:
  m_ObjectHideFlags: 0
  m_PrefabParentObject: {fileID: 0}
  m_PrefabInternal: {fileID: 0}
  m_Name: FemaleTakeSomething
  serializedVersion: 6
  m_Legacy: 0
  m_Compressed: 0
  m_UseHighQualityCurve: 1
  m_RotationCurves: []
  m_CompressedRotationCurves: []
  m_EulerCurves:
  - curve:
      serializedVersion: 2
      m_Curve:
      - time: 0
        value: {x: 0, y: 0, z: -0.103455424}
        inSlope: {x: 0, y: 0, z: 0.012084987}
        outSlope: {x: 0, y: 0, z: 0.012084987}
        tangentMode: 0
      - time: 0.6333333
        value: {x: 0, y: 0, z: -0.8797058}
        inSlope: {x: 0, y: 0, z: -0.41734374}
        outSlope: {x: 0, y: 0, z: -0.41734374}
        tangentMode: 0
      - time: 2.05
        value: {x: 0, y: 0, z: -0.3258301}
        inSlope: {x: 0, y: 0, z: -0.09429057}
        outSlope: {x: 0, y: 0, z: -0.09429057}
        tangentMode: 0
      - time: 3.0166667
        value: {x: 0, y: 0, z: -0.88606393}
        inSlope: {x: 0, y: 0, z: 0.2562298}
        outSlope: {x: 0, y: 0, z: 0.2562298}
        tangentMode: 0
      - time: 3.7333333
        value: {x: 0, y: 0, z: -0.103455424}
        inSlope: {x: 0, y: 0, z: 0.014196476}
        outSlope: {x: 0, y: 0, z: 0.014196476}
        tangentMode: 0
      m_PreInfinity: 2
      m_PostInfinity: 2
      m_RotationOrder: 4
    path: Body/Torso
  - curve:
      serializedVersion: 2
      m_Curve:
      - time: 0
        value: {x: 0, y: 0, z: 0}
        inSlope: {x: 0, y: 0, z: -1.5605505}
        outSlope: {x: 0, y: 0, z: -1.5605505}
        tangentMode: 0
      - time: 1.8166667
        value: {x: 0, y: 0, z: -2.835}
        inSlope: {x: 0, y: 0, z: -0.11582208}
        outSlope: {x: 0, y: 0, z: -0.11582208}
        tangentMode: 0
      - time: 3.95
        value: {x: 0, y: 0, z: 0}
        inSlope: {x: 0, y: 0, z: 1.3289063}
        outSlope: {x: 0, y: 0, z: 1.3289063}
        tangentMode: 0
      m_PreInfinity: 2
      m_PostInfinity: 2
      m_RotationOrder: 4
    path: Body/UpperLegLeft
  - curve:
      serializedVersion: 2
      m_Curve:
      - time: 0
        value: {x: 0, y: 0, z: 0}
        inSlope: {x: 0, y: 0, z: -2.025688}
        outSlope: {x: 0, y: 0, z: -2.025688}
        tangentMode: 0
      - time: 1.8166667
        value: {x: 0, y: 0, z: -3.68}
        inSlope: {x: 0, y: 0, z: -0.1503439}
        outSlope: {x: 0, y: 0, z: -0.1503439}
        tangentMode: 0
      - time: 3.95
        value: {x: 0, y: 0, z: 0}
        inSlope: {x: 0, y: 0, z: 1.7250001}
        outSlope: {x: 0, y: 0, z: 1.7250001}
        tangentMode: 0
      m_PreInfinity: 2
      m_PostInfinity: 2
      m_RotationOrder: 4
    path: Body/UpperLegRight
  - curve:
      serializedVersion: 2
      m_Curve:
      - time: 0
        value: {x: 0, y: 0, z: 0}
        inSlope: {x: 0, y: 0, z: 1.9172128}
        outSlope: {x: 0, y: 0, z: 1.9172128}
        tangentMode: 0
      - time: 0.71666664
        value: {x: 0, y: 0, z: 1.3740025}
        inSlope: {x: 0, y: 0, z: 1.0238124}
        outSlope: {x: 0, y: 0, z: 1.0238124}
        tangentMode: 0
      - time: 1.55
        value: {x: 0, y: 0, z: 1.4826791}
        inSlope: {x: 0, y: 0, z: -0.4203794}
        outSlope: {x: 0, y: 0, z: -0.4203794}
        tangentMode: 0
      - time: 2.2666667
        value: {x: 0, y: 0, z: 0.7866733}
        inSlope: {x: 0, y: 0, z: -0.28898054}
        outSlope: {x: 0, y: 0, z: -0.28898054}
        tangentMode: 0
      - time: 3.15
        value: {x: 0, y: 0, z: 1.1340086}
        inSlope: {x: 0, y: 0, z: -0.5121505}
        outSlope: {x: 0, y: 0, z: -0.5121505}
        tangentMode: 0
      - time: 3.95
        value: {x: 0, y: 0, z: 0}
        inSlope: {x: 0, y: 0, z: -1.4175109}
        outSlope: {x: 0, y: 0, z: -1.4175109}
        tangentMode: 0
      m_PreInfinity: 2
      m_PostInfinity: 2
      m_RotationOrder: 4
    path: Body/Torso/Skirt
  - curve:
      serializedVersion: 2
      m_Curve:
      - time: 0
        value: {x: 0, y: 0, z: 0}
        inSlope: {x: 0, y: 0, z: -0.7665281}
        outSlope: {x: 0, y: 0, z: -0.7665281}
        tangentMode: 0
      - time: 0.38333333
        value: {x: 0, y: 0, z: -0.34106967}
        inSlope: {x: 0, y: 0, z: -0.9862296}
        outSlope: {x: 0, y: 0, z: -0.9862296}
        tangentMode: 0
      - time: 0.9166667
        value: {x: 0, y: 0, z: -0.8912106}
        inSlope: {x: 0, y: 0, z: -1.025045}
        outSlope: {x: 0, y: 0, z: -1.025045}
        tangentMode: 0
      - time: 1.8833333
        value: {x: 0, y: 0, z: -1.6157233}
        inSlope: {x: 0, y: 0, z: -0.303927}
        outSlope: {x: 0, y: 0, z: -0.303927}
        tangentMode: 0
      - time: 2.15
        value: {x: 0, y: 0, z: -1.6480355}
        inSlope: {x: 0, y: 0, z: 0.0745236}
        outSlope: {x: 0, y: 0, z: 0.0745236}
        tangentMode: 0
      - time: 2.7333333
        value: {x: 0, y: 0, z: -1.3380995}
        inSlope: {x: 0, y: 0, z: 0.8997838}
        outSlope: {x: 0, y: 0, z: 0.8997838}
        tangentMode: 0
      - time: 3.3833334
        value: {x: 0, y: 0, z: -0.6216307}
        inSlope: {x: 0, y: 0, z: 1.1950605}
        outSlope: {x: 0, y: 0, z: 1.1950605}
        tangentMode: 0
      - time: 3.95
        value: {x: 0, y: 0, z: 0}
        inSlope: {x: 0, y: 0, z: 0.9155753}
        outSlope: {x: 0, y: 0, z: 0.9155753}
        tangentMode: 0
      m_PreInfinity: 2
      m_PostInfinity: 2
      m_RotationOrder: 4
    path: Body/Torso/Wallet
  - curve:
      serializedVersion: 2
      m_Curve:
      - time: 0
        value: {x: 0, y: 0, z: 0}
        inSlope: {x: 0, y: 0, z: 4.518716}
        outSlope: {x: 0, y: 0, z: 4.518716}
        tangentMode: 0
      - time: 1.8166667
        value: {x: 0, y: 0, z: 8.209001}
        inSlope: {x: 0, y: 0, z: 0.33537328}
        outSlope: {x: 0, y: 0, z: 0.33537328}
        tangentMode: 0
      - time: 3.95
        value: {x: 0, y: 0, z: 0}
        inSlope: {x: 0, y: 0, z: -3.8479693}
        outSlope: {x: 0, y: 0, z: -3.8479693}
        tangentMode: 0
      m_PreInfinity: 2
      m_PostInfinity: 2
      m_RotationOrder: 4
    path: Body/UpperLegLeft/LowerLegLeft
  - curve:
      serializedVersion: 2
      m_Curve:
      - time: 0
        value: {x: 0, y: 0, z: 0}
        inSlope: {x: 0, y: 0, z: 4.3222017}
        outSlope: {x: 0, y: 0, z: 4.3222017}
        tangentMode: 0
      - time: 1.8166667
        value: {x: 0, y: 0, z: 7.852}
        inSlope: {x: 0, y: 0, z: 0.32078815}
        outSlope: {x: 0, y: 0, z: 0.32078815}
        tangentMode: 0
      - time: 3.95
        value: {x: 0, y: 0, z: 0}
        inSlope: {x: 0, y: 0, z: -3.6806254}
        outSlope: {x: 0, y: 0, z: -3.6806254}
        tangentMode: 0
      m_PreInfinity: 2
      m_PostInfinity: 2
      m_RotationOrder: 4
    path: Body/UpperLegRight/LowerLegRight
  - curve:
      serializedVersion: 2
      m_Curve:
      - time: 0
        value: {x: 0, y: 0, z: 0}
        inSlope: {x: 0, y: 0, z: -0.52638054}
        outSlope: {x: 0, y: 0, z: -0.52638054}
        tangentMode: 0
      - time: 0.38333333
        value: {x: 0, y: 0, z: -0.23491314}
        inSlope: {x: 0, y: 0, z: -0.681503}
        outSlope: {x: 0, y: 0, z: -0.681503}
        tangentMode: 0
      - time: 0.9166667
        value: {x: 0, y: 0, z: -0.61785185}
        inSlope: {x: 0, y: 0, z: -0.7201577}
        outSlope: {x: 0, y: 0, z: -0.7201577}
        tangentMode: 0
      - time: 1.8833333
        value: {x: 0, y: 0, z: -1.1484511}
        inSlope: {x: 0, y: 0, z: -0.26475626}
        outSlope: {x: 0, y: 0, z: -0.26475626}
        tangentMode: 0
      - time: 2.25
        value: {x: 0, y: 0, z: -1.1843562}
        inSlope: {x: 0, y: 0, z: 0.085149795}
        outSlope: {x: 0, y: 0, z: 0.085149795}
        tangentMode: 0
      - time: 2.7333333
        value: {x: 0, y: 0, z: -0.99902195}
        inSlope: {x: 0, y: 0, z: 0.6323179}
        outSlope: {x: 0, y: 0, z: 0.6323179}
        tangentMode: 0
      - time: 3.3833334
        value: {x: 0, y: 0, z: -0.47179282}
        inSlope: {x: 0, y: 0, z: 0.9005234}
        outSlope: {x: 0, y: 0, z: 0.9005234}
        tangentMode: 0
      - time: 3.95
        value: {x: 0, y: 0, z: 0}
        inSlope: {x: 0, y: 0, z: 0.6966801}
        outSlope: {x: 0, y: 0, z: 0.6966801}
        tangentMode: 0
      m_PreInfinity: 2
      m_PostInfinity: 2
      m_RotationOrder: 4
    path: Body/Torso/Wallet/Wallet
  - curve:
      serializedVersion: 2
      m_Curve:
      - time: 0
        value: {x: 0, y: 0, z: 0}
        inSlope: {x: 0, y: 0, z: -2.770459}
        outSlope: {x: 0, y: 0, z: -2.770459}
        tangentMode: 0
      - time: 1.8166667
        value: {x: 0, y: 0, z: -5.0330005}
        inSlope: {x: 0, y: 0, z: -0.20561993}
        outSlope: {x: 0, y: 0, z: -0.20561993}
        tangentMode: 0
      - time: 3.95
        value: {x: 0, y: 0, z: 0}
        inSlope: {x: 0, y: 0, z: 2.359219}
        outSlope: {x: 0, y: 0, z: 2.359219}
        tangentMode: 0
      m_PreInfinity: 2
      m_PostInfinity: 2
      m_RotationOrder: 4
    path: Body/UpperLegLeft/LowerLegLeft/LeftShoe
  - curve:
      serializedVersion: 2
      m_Curve:
      - time: 0
        value: {x: 0, y: 0, z: 0}
        inSlope: {x: 0, y: 0, z: 15.82889}
        outSlope: {x: 0, y: 0, z: 15.82889}
        tangentMode: 0
      - time: 0.45
        value: {x: 0, y: 0, z: 7.123}
        inSlope: {x: 0, y: 0, z: 0.10521412}
        outSlope: {x: 0, y: 0, z: 0.10521412}
        tangentMode: 0
      - time: 0.8833333
        value: {x: 0, y: 0, z: 0.35500002}
        inSlope: {x: 0, y: 0, z: -4.619897}
        outSlope: {x: 0, y: 0, z: -4.619897}
        tangentMode: 0
      - time: 1.6333333
        value: {x: 0, y: 0, z: 5.1390004}
        inSlope: {x: 0, y: 0, z: 0.31164122}
        outSlope: {x: 0, y: 0, z: 0.31164122}
        tangentMode: 0
      - time: 2.2833333
        value: {x: 0, y: 0, z: 1.3980001}
        inSlope: {x: 0, y: 0, z: 0.32930708}
        outSlope: {x: 0, y: 0, z: 0.32930708}
        tangentMode: 0
      - time: 2.95
        value: {x: 0, y: 0, z: 5.6740003}
        inSlope: {x: 0, y: 0, z: 0.3699994}
        outSlope: {x: 0, y: 0, z: 0.3699994}
        tangentMode: 0
      - time: 3.95
        value: {x: 0, y: 0, z: 0}
        inSlope: {x: 0, y: 0, z: -5.6740003}
        outSlope: {x: 0, y: 0, z: -5.6740003}
        tangentMode: 0
      m_PreInfinity: 2
      m_PostInfinity: 2
      m_RotationOrder: 4
    path: Body/Torso/Neck/Head/Jewel
  - curve:
      serializedVersion: 2
      m_Curve:
      - time: 0
        value: {x: 0, y: 0, z: 0}
        inSlope: {x: 0, y: 0, z: 5.53875}
        outSlope: {x: 0, y: 0, z: 5.53875}
        tangentMode: 0
      - time: 1.0666667
        value: {x: 0, y: 0, z: 5.9080005}
        inSlope: {x: 0, y: 0, z: 0}
        outSlope: {x: 0, y: 0, z: 0}
        tangentMode: 0
      - time: 3.2
        value: {x: 0, y: 0, z: 5.9080005}
        inSlope: {x: 0, y: 0, z: 0}
        outSlope: {x: 0, y: 0, z: 0}
        tangentMode: 0
      - time: 3.95
        value: {x: 0, y: 0, z: 0}
        inSlope: {x: 0, y: 0, z: -7.877334}
        outSlope: {x: 0, y: 0, z: -7.877334}
        tangentMode: 0
      m_PreInfinity: 2
      m_PostInfinity: 2
      m_RotationOrder: 4
    path: Body/Torso/Neck/Head
  - curve:
      serializedVersion: 2
      m_Curve:
      - time: 0
        value: {x: 0, y: 0, z: 0}
        inSlope: {x: 0, y: 0, z: 82.63402}
        outSlope: {x: 0, y: 0, z: 82.63402}
        tangentMode: 0
      - time: 0.43333334
        value: {x: 0, y: 0, z: 35.808075}
        inSlope: {x: 0, y: 0, z: 0}
        outSlope: {x: 0, y: 0, z: 0}
        tangentMode: 0
      - time: 1.0666667
        value: {x: 0, y: 0, z: 35.808075}
        inSlope: {x: 0, y: 0, z: 0}
        outSlope: {x: 0, y: 0, z: 0}
        tangentMode: 0
      - time: 3.1166666
        value: {x: 0, y: 0, z: 35.808075}
        inSlope: {x: 0, y: 0, z: 0}
        outSlope: {x: 0, y: 0, z: 0}
        tangentMode: 0
      - time: 3.95
        value: {x: 0, y: 0, z: 0}
        inSlope: {x: 0, y: 0, z: -42.96968}
        outSlope: {x: 0, y: 0, z: -42.96968}
        tangentMode: 0
      m_PreInfinity: 2
      m_PostInfinity: 2
      m_RotationOrder: 4
    path: Body/Torso/RightShoulder
  - curve:
      serializedVersion: 2
      m_Curve:
      - time: 0
        value: {x: 0, y: 0, z: 0}
        inSlope: {x: 0, y: 0, z: -67.72357}
        outSlope: {x: 0, y: 0, z: -67.72357}
        tangentMode: 0
      - time: 0.43333334
        value: {x: 0, y: 0, z: -29.346882}
        inSlope: {x: 0, y: 0, z: 0}
        outSlope: {x: 0, y: 0, z: 0}
        tangentMode: 0
      - time: 3.1166666
        value: {x: 0, y: 0, z: -29.346882}
        inSlope: {x: 0, y: 0, z: 0}
        outSlope: {x: 0, y: 0, z: 0}
        tangentMode: 0
      - time: 3.95
        value: {x: 0, y: 0, z: 0}
        inSlope: {x: 0, y: 0, z: 35.21625}
        outSlope: {x: 0, y: 0, z: 35.21625}
        tangentMode: 0
      m_PreInfinity: 2
      m_PostInfinity: 2
      m_RotationOrder: 4
    path: Body/Torso/LeftShoulder
  - curve:
      serializedVersion: 2
      m_Curve:
      - time: 0
        value: {x: 0, y: 0, z: 0}
        inSlope: {x: 0, y: 0, z: -147.83925}
        outSlope: {x: 0, y: 0, z: -147.83925}
        tangentMode: 0
      - time: 0.4666667
        value: {x: 0, y: 0, z: -68.99165}
        inSlope: {x: 0, y: 0, z: 0}
        outSlope: {x: 0, y: 0, z: 0}
        tangentMode: 0
      - time: 1.0666667
        value: {x: 0, y: 0, z: -68.99165}
        inSlope: {x: 0, y: 0, z: 0}
        outSlope: {x: 0, y: 0, z: 0}
        tangentMode: 0
      - time: 3.1166666
        value: {x: 0, y: 0, z: -68.99165}
        inSlope: {x: 0, y: 0, z: 0}
        outSlope: {x: 0, y: 0, z: 0}
        tangentMode: 0
      - time: 3.95
        value: {x: 0, y: 0, z: 0}
        inSlope: {x: 0, y: 0, z: 82.78997}
        outSlope: {x: 0, y: 0, z: 82.78997}
        tangentMode: 0
      m_PreInfinity: 2
      m_PostInfinity: 2
      m_RotationOrder: 4
    path: Body/Torso/LeftShoulder/LeftArm
  - curve:
      serializedVersion: 2
      m_Curve:
      - time: 0
        value: {x: 0, y: 0, z: 0}
        inSlope: {x: 0, y: 0, z: -240.94928}
        outSlope: {x: 0, y: 0, z: -240.94928}
        tangentMode: 0
      - time: 0.4666667
        value: {x: 0, y: 0, z: -112.44301}
        inSlope: {x: 0, y: 0, z: 0}
        outSlope: {x: 0, y: 0, z: 0}
        tangentMode: 0
      - time: 1.0666667
        value: {x: 0, y: 0, z: -112.44301}
        inSlope: {x: 0, y: 0, z: 0}
        outSlope: {x: 0, y: 0, z: 0}
        tangentMode: 0
      - time: 3.1166666
        value: {x: 0, y: 0, z: -112.44301}
        inSlope: {x: 0, y: 0, z: 0}
        outSlope: {x: 0, y: 0, z: 0}
        tangentMode: 0
      - time: 3.95
        value: {x: 0, y: 0, z: 0}
        inSlope: {x: 0, y: 0, z: 134.93158}
        outSlope: {x: 0, y: 0, z: 134.93158}
        tangentMode: 0
      m_PreInfinity: 2
      m_PostInfinity: 2
      m_RotationOrder: 4
    path: Body/Torso/RightShoulder/RightArm
  - curve:
      serializedVersion: 2
      m_Curve:
      - time: 0
        value: {x: 0, y: 0, z: 0}
        inSlope: {x: 0, y: 0, z: 52.13556}
        outSlope: {x: 0, y: 0, z: 52.13556}
        tangentMode: 0
      - time: 0.45
        value: {x: 0, y: 0, z: 23.461}
        inSlope: {x: 0, y: 0, z: 0}
        outSlope: {x: 0, y: 0, z: 0}
        tangentMode: 0
      - time: 3.2833333
        value: {x: 0, y: 0, z: 23.461}
        inSlope: {x: 0, y: 0, z: 0}
        outSlope: {x: 0, y: 0, z: 0}
        tangentMode: 0
      - time: 3.95
        value: {x: 0, y: 0, z: 0}
        inSlope: {x: 0, y: 0, z: -35.191498}
        outSlope: {x: 0, y: 0, z: -35.191498}
        tangentMode: 0
      m_PreInfinity: 2
      m_PostInfinity: 2
      m_RotationOrder: 4
    path: Body/Torso/LeftShoulder/LeftArm/LeftHand
  - curve:
      serializedVersion: 2
      m_Curve:
      - time: 0
        value: {x: 0, y: 0, z: 0}
        inSlope: {x: 0, y: 0, z: 1.648302}
        outSlope: {x: 0, y: 0, z: 1.648302}
        tangentMode: 0
      - time: 0.8833333
        value: {x: 0, y: 0, z: 1.4560001}
        inSlope: {x: 0, y: 0, z: 0}
        outSlope: {x: 0, y: 0, z: 0}
        tangentMode: 0
      - time: 3.1666667
        value: {x: 0, y: 0, z: 1.4560001}
        inSlope: {x: 0, y: 0, z: 0}
        outSlope: {x: 0, y: 0, z: 0}
        tangentMode: 0
      - time: 3.95
        value: {x: 0, y: 0, z: 0}
        inSlope: {x: 0, y: 0, z: -1.8587236}
        outSlope: {x: 0, y: 0, z: -1.8587236}
        tangentMode: 0
      m_PreInfinity: 2
      m_PostInfinity: 2
      m_RotationOrder: 4
    path: Body/Torso/Neck
  - curve:
      serializedVersion: 2
      m_Curve:
      - time: 0
        value: {x: 0, y: 0, z: -5.951}
        inSlope: {x: 0, y: 0, z: 63.62853}
        outSlope: {x: 0, y: 0, z: 63.62853}
        tangentMode: 0
      - time: 0.46666667
        value: {x: 0, y: 0, z: 23.742313}
        inSlope: {x: 0, y: 0, z: 0}
        outSlope: {x: 0, y: 0, z: 0}
        tangentMode: 0
      - time: 2.9
        value: {x: 0, y: 0, z: 23.742313}
        inSlope: {x: 0, y: 0, z: 0}
        outSlope: {x: 0, y: 0, z: 0}
        tangentMode: 0
      - time: 3.95
        value: {x: 0, y: 0, z: -5.951}
        inSlope: {x: 0, y: 0, z: -28.279348}
        outSlope: {x: 0, y: 0, z: -28.279348}
        tangentMode: 0
      m_PreInfinity: 2
      m_PostInfinity: 2
      m_RotationOrder: 4
    path: Body/Torso/RightShoulder/RightArm/RightHand
  - curve:
      serializedVersion: 2
      m_Curve:
      - time: 0
        value: {x: 0, y: 0, z: 0}
        inSlope: {x: 0, y: 0, z: -5.8855386}
        outSlope: {x: 0, y: 0, z: -5.8855386}
        tangentMode: 0
      - time: 1.0833334
        value: {x: 0, y: 0, z: -6.3760004}
        inSlope: {x: 0, y: 0, z: 0}
        outSlope: {x: 0, y: 0, z: 0}
        tangentMode: 0
      - time: 3.45
        value: {x: 0, y: 0, z: -6.3760004}
        inSlope: {x: 0, y: 0, z: 0}
        outSlope: {x: 0, y: 0, z: 0}
        tangentMode: 0
      - time: 3.95
        value: {x: 0, y: 0, z: 0}
        inSlope: {x: 0, y: 0, z: 12.752001}
        outSlope: {x: 0, y: 0, z: 12.752001}
        tangentMode: 0
      m_PreInfinity: 2
      m_PostInfinity: 2
      m_RotationOrder: 4
    path: Body/Torso/Neck/Head/Hair
  m_PositionCurves:
  - curve:
      serializedVersion: 2
      m_Curve:
      - time: 0
        value: {x: 1.3409996, y: 2.8200002, z: 0}
        inSlope: {x: 0.008437894, y: 0.009374767, z: 0}
        outSlope: {x: 0.008437894, y: 0.009374767, z: 0}
        tangentMode: 0
      - time: 1.0666667
        value: {x: 1.35, y: 2.83, z: 0}
        inSlope: {x: 0.008437894, y: 0.009374767, z: 0}
        outSlope: {x: 0.008437894, y: 0.009374767, z: 0}
        tangentMode: 0
      m_PreInfinity: 2
      m_PostInfinity: 2
      m_RotationOrder: 4
    path: Body/Torso/LeftShoulder
  - curve:
      serializedVersion: 2
      m_Curve:
      - time: 0
        value: {x: -0.0399971, y: 0.020999908, z: 0}
        inSlope: {x: 0.074992746, y: -0.07749976, z: 0}
        outSlope: {x: 0.074992746, y: -0.07749976, z: 0}
        tangentMode: 0
      - time: 0.40000004
        value: {x: -0.01, y: -0.01, z: 0}
        inSlope: {x: 0, y: 0, z: 0}
        outSlope: {x: 0, y: 0, z: 0}
        tangentMode: 0
      - time: 2.0666666
        value: {x: -0.02, y: 0.06, z: 0}
        inSlope: {x: 0, y: 0, z: 0}
        outSlope: {x: 0, y: 0, z: 0}
        tangentMode: 0
      - time: 3.5833333
        value: {x: -0.01, y: -0.01, z: 0}
        inSlope: {x: 0, y: 0, z: 0}
        outSlope: {x: 0, y: 0, z: 0}
        tangentMode: 0
      - time: 3.95
        value: {x: -0.0399971, y: 0.020999908, z: 0}
        inSlope: {x: -0.08181025, y: 0.08454517, z: 0}
        outSlope: {x: -0.08181025, y: 0.08454517, z: 0}
        tangentMode: 0
      m_PreInfinity: 2
      m_PostInfinity: 2
      m_RotationOrder: 4
    path: Body/Torso/Neck/Head/Face/Right/PupilRight
  - curve:
      serializedVersion: 2
      m_Curve:
      - time: 0
        value: {x: -0.06499863, y: -0.0029993057, z: 0}
        inSlope: {x: 0.012496569, y: -0.09250172, z: 0}
        outSlope: {x: 0.012496569, y: -0.09250172, z: 0}
        tangentMode: 0
      - time: 0.40000004
        value: {x: -0.06, y: -0.04, z: 0}
        inSlope: {x: 0, y: 0, z: 0}
        outSlope: {x: 0, y: 0, z: 0}
        tangentMode: 0
      - time: 2.0666666
        value: {x: -0.07, y: 0.02, z: 0}
        inSlope: {x: 0, y: 0, z: 0}
        outSlope: {x: 0, y: 0, z: 0}
        tangentMode: 0
      - time: 3.5833333
        value: {x: -0.06, y: -0.04, z: 0}
        inSlope: {x: 0, y: 0, z: 0}
        outSlope: {x: 0, y: 0, z: 0}
        tangentMode: 0
      - time: 3.95
        value: {x: -0.06499863, y: -0.0029993057, z: 0}
        inSlope: {x: -0.013632617, y: 0.10091095, z: 0}
        outSlope: {x: -0.013632617, y: 0.10091095, z: 0}
        tangentMode: 0
      m_PreInfinity: 2
      m_PostInfinity: 2
      m_RotationOrder: 4
    path: Body/Torso/Neck/Head/Face/Left/PupilLeft
  m_ScaleCurves: []
  m_FloatCurves:
  - curve:
      serializedVersion: 2
      m_Curve:
      - time: 0
        value: 1
        inSlope: Infinity
        outSlope: Infinity
        tangentMode: 31
      - time: 0.26666668
        value: 0
        inSlope: Infinity
        outSlope: Infinity
        tangentMode: 31
      - time: 3.4166667
        value: 1
        inSlope: Infinity
        outSlope: Infinity
        tangentMode: 31
      m_PreInfinity: 2
      m_PostInfinity: 2
      m_RotationOrder: 4
    attribute: m_IsActive
    path: Body/Torso/RightShoulder/RightArm/RightHand/HandRight
    classID: 1
    script: {fileID: 0}
  - curve:
      serializedVersion: 2
      m_Curve:
      - time: 0
        value: 0
        inSlope: Infinity
        outSlope: Infinity
        tangentMode: 31
      - time: 0.26666668
        value: 1
        inSlope: Infinity
        outSlope: Infinity
        tangentMode: 31
      - time: 3.4166667
        value: 0
        inSlope: Infinity
        outSlope: Infinity
        tangentMode: 31
      m_PreInfinity: 2
      m_PostInfinity: 2
      m_RotationOrder: 4
    attribute: m_IsActive
    path: Body/Torso/RightShoulder/RightArm/RightHand/HandTakeSomething
    classID: 1
    script: {fileID: 0}
  - curve:
      serializedVersion: 2
      m_Curve:
      - time: 0
        value: 0
        inSlope: Infinity
        outSlope: Infinity
        tangentMode: 31
      - time: 0.28333333
        value: 1
        inSlope: Infinity
        outSlope: Infinity
        tangentMode: 31
      - time: 3.4166667
        value: 0
        inSlope: Infinity
        outSlope: Infinity
        tangentMode: 31
      m_PreInfinity: 2
      m_PostInfinity: 2
      m_RotationOrder: 4
    attribute: m_IsActive
    path: Body/Torso/LeftShoulder/LeftArm/LeftHand/HandLeftTakeSomething
    classID: 1
    script: {fileID: 0}
  - curve:
      serializedVersion: 2
      m_Curve:
      - time: 0
        value: 1
        inSlope: Infinity
        outSlope: Infinity
        tangentMode: 31
      - time: 0.28333333
        value: 0
        inSlope: Infinity
        outSlope: Infinity
        tangentMode: 31
      - time: 3.4166667
        value: 1
        inSlope: Infinity
        outSlope: Infinity
        tangentMode: 31
      m_PreInfinity: 2
      m_PostInfinity: 2
      m_RotationOrder: 4
    attribute: m_IsActive
    path: Body/Torso/LeftShoulder/LeftArm/LeftHand/HandLeft
    classID: 1
    script: {fileID: 0}
  - curve:
      serializedVersion: 2
      m_Curve:
      - time: 0
        value: 0
        inSlope: Infinity
        outSlope: Infinity
        tangentMode: 31
      - time: 0.41666666
        value: 1
        inSlope: Infinity
        outSlope: Infinity
        tangentMode: 31
      m_PreInfinity: 2
      m_PostInfinity: 2
      m_RotationOrder: 4
    attribute: m_IsActive
    path: Body/Torso/Neck/Head/Face/MouthSmile
    classID: 1
    script: {fileID: 0}
  - curve:
      serializedVersion: 2
      m_Curve:
      - time: 0
        value: 1
        inSlope: Infinity
        outSlope: Infinity
        tangentMode: 31
      - time: 0.41666666
        value: 0
        inSlope: Infinity
        outSlope: Infinity
        tangentMode: 31
      m_PreInfinity: 2
      m_PostInfinity: 2
      m_RotationOrder: 4
    attribute: m_IsActive
    path: Body/Torso/Neck/Head/Face/Mouth
    classID: 1
    script: {fileID: 0}
  m_PPtrCurves: []
  m_SampleRate: 60
  m_WrapMode: 0
  m_Bounds:
    m_Center: {x: 0, y: 0, z: 0}
    m_Extent: {x: 0, y: 0, z: 0}
  m_ClipBindingConstant:
    genericBindings:
    - path: 1523632015
      attribute: 1
      script: {fileID: 0}
      classID: 4
      customType: 0
      isPPtrCurve: 0
    - path: 2227914646
      attribute: 1
      script: {fileID: 0}
      classID: 4
      customType: 0
      isPPtrCurve: 0
    - path: 3801857158
      attribute: 1
      script: {fileID: 0}
      classID: 4
      customType: 0
      isPPtrCurve: 0
    - path: 17307992
      attribute: 4
      script: {fileID: 0}
      classID: 4
      customType: 14
      isPPtrCurve: 0
    - path: 2967996916
      attribute: 4
      script: {fileID: 0}
      classID: 4
      customType: 14
      isPPtrCurve: 0
    - path: 1303979413
      attribute: 4
      script: {fileID: 0}
      classID: 4
      customType: 14
      isPPtrCurve: 0
    - path: 2425401366
      attribute: 4
      script: {fileID: 0}
      classID: 4
      customType: 14
      isPPtrCurve: 0
    - path: 3534780582
      attribute: 4
      script: {fileID: 0}
      classID: 4
      customType: 14
      isPPtrCurve: 0
    - path: 3728011670
      attribute: 4
      script: {fileID: 0}
      classID: 4
      customType: 14
      isPPtrCurve: 0
    - path: 871651648
      attribute: 4
      script: {fileID: 0}
      classID: 4
      customType: 14
      isPPtrCurve: 0
    - path: 823111807
      attribute: 4
      script: {fileID: 0}
      classID: 4
      customType: 14
      isPPtrCurve: 0
    - path: 1888832609
      attribute: 4
      script: {fileID: 0}
      classID: 4
      customType: 14
      isPPtrCurve: 0
    - path: 3753951091
      attribute: 4
      script: {fileID: 0}
      classID: 4
      customType: 14
      isPPtrCurve: 0
    - path: 2982998908
      attribute: 4
      script: {fileID: 0}
      classID: 4
      customType: 14
      isPPtrCurve: 0
    - path: 1400595497
      attribute: 4
      script: {fileID: 0}
      classID: 4
      customType: 14
      isPPtrCurve: 0
    - path: 1523632015
      attribute: 4
      script: {fileID: 0}
      classID: 4
      customType: 14
      isPPtrCurve: 0
    - path: 3500640001
      attribute: 4
      script: {fileID: 0}
      classID: 4
      customType: 14
      isPPtrCurve: 0
    - path: 2874545571
      attribute: 4
      script: {fileID: 0}
      classID: 4
      customType: 14
      isPPtrCurve: 0
    - path: 3064011926
      attribute: 4
      script: {fileID: 0}
      classID: 4
      customType: 14
      isPPtrCurve: 0
    - path: 380507487
      attribute: 4
      script: {fileID: 0}
      classID: 4
      customType: 14
      isPPtrCurve: 0
    - path: 3169952396
      attribute: 4
      script: {fileID: 0}
      classID: 4
      customType: 14
      isPPtrCurve: 0
    - path: 1437080233
      attribute: 4
      script: {fileID: 0}
      classID: 4
      customType: 14
      isPPtrCurve: 0
    - path: 1030591501
      attribute: 2086281974
      script: {fileID: 0}
      classID: 1
      customType: 0
      isPPtrCurve: 0
    - path: 2434497887
      attribute: 2086281974
      script: {fileID: 0}
      classID: 1
      customType: 0
      isPPtrCurve: 0
    - path: 4046923797
      attribute: 2086281974
      script: {fileID: 0}
      classID: 1
      customType: 0
      isPPtrCurve: 0
    - path: 1987172442
      attribute: 2086281974
      script: {fileID: 0}
      classID: 1
      customType: 0
      isPPtrCurve: 0
    - path: 3700295663
      attribute: 2086281974
      script: {fileID: 0}
      classID: 1
      customType: 0
      isPPtrCurve: 0
    - path: 92606017
      attribute: 2086281974
      script: {fileID: 0}
      classID: 1
      customType: 0
      isPPtrCurve: 0
    pptrCurveMapping: []
  m_AnimationClipSettings:
    serializedVersion: 2
    m_AdditiveReferencePoseClip: {fileID: 0}
    m_AdditiveReferencePoseTime: 0
    m_StartTime: 0
    m_StopTime: 3.95
    m_OrientationOffsetY: 0
    m_Level: 0
    m_CycleOffset: 0
    m_HasAdditiveReferencePose: 0
    m_LoopTime: 0
    m_LoopBlend: 0
    m_LoopBlendOrientation: 0
    m_LoopBlendPositionY: 0
    m_LoopBlendPositionXZ: 0
    m_KeepOriginalOrientation: 0
    m_KeepOriginalPositionY: 1
    m_KeepOriginalPositionXZ: 0
    m_HeightFromFeet: 0
    m_Mirror: 0
  m_EditorCurves:
  - curve:
      serializedVersion: 2
      m_Curve:
      - time: 0
        value: 0
        inSlope: 0
        outSlope: 0
        tangentMode: 10
      - time: 0.6333333
        value: 0
        inSlope: 0
        outSlope: 0
        tangentMode: 10
      - time: 2.05
        value: 0
        inSlope: 0
        outSlope: 0
        tangentMode: 10
      - time: 3.0166667
        value: 0
        inSlope: 0
        outSlope: 0
        tangentMode: 10
      - time: 3.7333333
        value: 0
        inSlope: 0
        outSlope: 0
        tangentMode: 10
      m_PreInfinity: 2
      m_PostInfinity: 2
      m_RotationOrder: 4
    attribute: localEulerAnglesRaw.x
    path: Body/Torso
    classID: 4
    script: {fileID: 0}
  - curve:
      serializedVersion: 2
      m_Curve:
      - time: 0
        value: 0
        inSlope: 0
        outSlope: 0
        tangentMode: 10
      - time: 0.6333333
        value: 0
        inSlope: 0
        outSlope: 0
        tangentMode: 10
      - time: 2.05
        value: 0
        inSlope: 0
        outSlope: 0
        tangentMode: 10
      - time: 3.0166667
        value: 0
        inSlope: 0
        outSlope: 0
        tangentMode: 10
      - time: 3.7333333
        value: 0
        inSlope: 0
        outSlope: 0
        tangentMode: 10
      m_PreInfinity: 2
      m_PostInfinity: 2
      m_RotationOrder: 4
    attribute: localEulerAnglesRaw.y
    path: Body/Torso
    classID: 4
    script: {fileID: 0}
  - curve:
      serializedVersion: 2
      m_Curve:
      - time: 0
        value: -0.103455424
        inSlope: 0.012084987
        outSlope: 0.012084987
        tangentMode: 0
      - time: 0.6333333
        value: -0.8797058
        inSlope: -0.41734374
        outSlope: -0.41734374
        tangentMode: 10
      - time: 2.05
        value: -0.3258301
        inSlope: -0.09429057
        outSlope: -0.09429057
        tangentMode: 10
      - time: 3.0166667
        value: -0.88606393
        inSlope: 0.2562298
        outSlope: 0.2562298
        tangentMode: 10
      - time: 3.7333333
        value: -0.103455424
        inSlope: 0.014196476
        outSlope: 0.014196476
        tangentMode: 0
      m_PreInfinity: 2
      m_PostInfinity: 2
      m_RotationOrder: 4
    attribute: localEulerAnglesRaw.z
    path: Body/Torso
    classID: 4
    script: {fileID: 0}
  - curve:
      serializedVersion: 2
      m_Curve:
      - time: 0
        value: 0
        inSlope: 0
        outSlope: 0
        tangentMode: 10
      - time: 1.8166667
        value: 0
        inSlope: 0
        outSlope: 0
        tangentMode: 10
      - time: 3.95
        value: 0
        inSlope: 0
        outSlope: 0
        tangentMode: 10
      m_PreInfinity: 2
      m_PostInfinity: 2
      m_RotationOrder: 4
    attribute: localEulerAnglesRaw.x
    path: Body/UpperLegLeft
    classID: 4
    script: {fileID: 0}
  - curve:
      serializedVersion: 2
      m_Curve:
      - time: 0
        value: 0
        inSlope: 0
        outSlope: 0
        tangentMode: 10
      - time: 1.8166667
        value: 0
        inSlope: 0
        outSlope: 0
        tangentMode: 10
      - time: 3.95
        value: 0
        inSlope: 0
        outSlope: 0
        tangentMode: 10
      m_PreInfinity: 2
      m_PostInfinity: 2
      m_RotationOrder: 4
    attribute: localEulerAnglesRaw.y
    path: Body/UpperLegLeft
    classID: 4
    script: {fileID: 0}
  - curve:
      serializedVersion: 2
      m_Curve:
      - time: 0
        value: 0
        inSlope: -1.5605505
        outSlope: -1.5605505
        tangentMode: 10
      - time: 1.8166667
        value: -2.835
        inSlope: -0.11582208
        outSlope: -0.11582208
        tangentMode: 10
      - time: 3.95
        value: 0
        inSlope: 1.3289063
        outSlope: 1.3289063
        tangentMode: 10
      m_PreInfinity: 2
      m_PostInfinity: 2
      m_RotationOrder: 4
    attribute: localEulerAnglesRaw.z
    path: Body/UpperLegLeft
    classID: 4
    script: {fileID: 0}
  - curve:
      serializedVersion: 2
      m_Curve:
      - time: 0
        value: 0
        inSlope: 0
        outSlope: 0
        tangentMode: 10
      - time: 1.8166667
        value: 0
        inSlope: 0
        outSlope: 0
        tangentMode: 10
      - time: 3.95
        value: 0
        inSlope: 0
        outSlope: 0
        tangentMode: 10
      m_PreInfinity: 2
      m_PostInfinity: 2
      m_RotationOrder: 4
    attribute: localEulerAnglesRaw.x
    path: Body/UpperLegRight
    classID: 4
    script: {fileID: 0}
  - curve:
      serializedVersion: 2
      m_Curve:
      - time: 0
        value: 0
        inSlope: 0
        outSlope: 0
        tangentMode: 10
      - time: 1.8166667
        value: 0
        inSlope: 0
        outSlope: 0
        tangentMode: 10
      - time: 3.95
        value: 0
        inSlope: 0
        outSlope: 0
        tangentMode: 10
      m_PreInfinity: 2
      m_PostInfinity: 2
      m_RotationOrder: 4
    attribute: localEulerAnglesRaw.y
    path: Body/UpperLegRight
    classID: 4
    script: {fileID: 0}
  - curve:
      serializedVersion: 2
      m_Curve:
      - time: 0
        value: 0
        inSlope: -2.025688
        outSlope: -2.025688
        tangentMode: 10
      - time: 1.8166667
        value: -3.68
        inSlope: -0.1503439
        outSlope: -0.1503439
        tangentMode: 10
      - time: 3.95
        value: 0
        inSlope: 1.7250001
        outSlope: 1.7250001
        tangentMode: 10
      m_PreInfinity: 2
      m_PostInfinity: 2
      m_RotationOrder: 4
    attribute: localEulerAnglesRaw.z
    path: Body/UpperLegRight
    classID: 4
    script: {fileID: 0}
  - curve:
      serializedVersion: 2
      m_Curve:
      - time: 0
        value: 0
        inSlope: 0
        outSlope: 0
        tangentMode: 10
      - time: 0.71666664
        value: 0
        inSlope: 0
        outSlope: 0
        tangentMode: 10
      - time: 1.55
        value: 0
        inSlope: 0
        outSlope: 0
        tangentMode: 10
      - time: 2.2666667
        value: 0
        inSlope: 0
        outSlope: 0
        tangentMode: 10
      - time: 3.15
        value: 0
        inSlope: 0
        outSlope: 0
        tangentMode: 10
      - time: 3.95
        value: 0
        inSlope: 0
        outSlope: 0
        tangentMode: 10
      m_PreInfinity: 2
      m_PostInfinity: 2
      m_RotationOrder: 4
    attribute: localEulerAnglesRaw.x
    path: Body/Torso/Skirt
    classID: 4
    script: {fileID: 0}
  - curve:
      serializedVersion: 2
      m_Curve:
      - time: 0
        value: 0
        inSlope: 0
        outSlope: 0
        tangentMode: 10
      - time: 0.71666664
        value: 0
        inSlope: 0
        outSlope: 0
        tangentMode: 10
      - time: 1.55
        value: 0
        inSlope: 0
        outSlope: 0
        tangentMode: 10
      - time: 2.2666667
        value: 0
        inSlope: 0
        outSlope: 0
        tangentMode: 10
      - time: 3.15
        value: 0
        inSlope: 0
        outSlope: 0
        tangentMode: 10
      - time: 3.95
        value: 0
        inSlope: 0
        outSlope: 0
        tangentMode: 10
      m_PreInfinity: 2
      m_PostInfinity: 2
      m_RotationOrder: 4
    attribute: localEulerAnglesRaw.y
    path: Body/Torso/Skirt
    classID: 4
    script: {fileID: 0}
  - curve:
      serializedVersion: 2
      m_Curve:
      - time: 0
        value: 0
        inSlope: 1.9172128
        outSlope: 1.9172128
        tangentMode: 10
      - time: 0.71666664
        value: 1.3740025
        inSlope: 1.0238124
        outSlope: 1.0238124
        tangentMode: 10
      - time: 1.55
        value: 1.4826791
        inSlope: -0.4203794
        outSlope: -0.4203794
        tangentMode: 10
      - time: 2.2666667
        value: 0.7866733
        inSlope: -0.28898054
        outSlope: -0.28898054
        tangentMode: 10
      - time: 3.15
        value: 1.1340086
        inSlope: -0.5121505
        outSlope: -0.5121505
        tangentMode: 10
      - time: 3.95
        value: 0
        inSlope: -1.4175109
        outSlope: -1.4175109
        tangentMode: 10
      m_PreInfinity: 2
      m_PostInfinity: 2
      m_RotationOrder: 4
    attribute: localEulerAnglesRaw.z
    path: Body/Torso/Skirt
    classID: 4
    script: {fileID: 0}
  - curve:
      serializedVersion: 2
      m_Curve:
      - time: 0
        value: 0
        inSlope: 0
        outSlope: 0
        tangentMode: 10
      - time: 0.38333333
        value: 0
        inSlope: 0
        outSlope: 0
        tangentMode: 10
      - time: 0.9166667
        value: 0
        inSlope: 0
        outSlope: 0
        tangentMode: 10
      - time: 1.8833333
        value: 0
        inSlope: 0
        outSlope: 0
        tangentMode: 10
      - time: 2.7333333
        value: 0
        inSlope: 0
        outSlope: 0
        tangentMode: 10
      - time: 3.3833334
        value: 0
        inSlope: 0
        outSlope: 0
        tangentMode: 10
      - time: 3.95
        value: 0
        inSlope: 0
        outSlope: 0
        tangentMode: 10
      m_PreInfinity: 2
      m_PostInfinity: 2
      m_RotationOrder: 4
    attribute: localEulerAnglesRaw.x
    path: Body/Torso/Wallet
    classID: 4
    script: {fileID: 0}
  - curve:
      serializedVersion: 2
      m_Curve:
      - time: 0
        value: 0
        inSlope: 0
        outSlope: 0
        tangentMode: 10
      - time: 0.38333333
        value: 0
        inSlope: 0
        outSlope: 0
        tangentMode: 10
      - time: 0.9166667
        value: 0
        inSlope: 0
        outSlope: 0
        tangentMode: 10
      - time: 1.8833333
        value: 0
        inSlope: 0
        outSlope: 0
        tangentMode: 10
      - time: 2.7333333
        value: 0
        inSlope: 0
        outSlope: 0
        tangentMode: 10
      - time: 3.3833334
        value: 0
        inSlope: 0
        outSlope: 0
        tangentMode: 10
      - time: 3.95
        value: 0
        inSlope: 0
        outSlope: 0
        tangentMode: 10
      m_PreInfinity: 2
      m_PostInfinity: 2
      m_RotationOrder: 4
    attribute: localEulerAnglesRaw.y
    path: Body/Torso/Wallet
    classID: 4
    script: {fileID: 0}
  - curve:
      serializedVersion: 2
      m_Curve:
      - time: 0
        value: 0
        inSlope: -0.7665281
        outSlope: -0.7665281
        tangentMode: 10
      - time: 2.15
        value: -1.6480355
        inSlope: 0.0745236
        outSlope: 0.0745236
        tangentMode: 10
      - time: 3.95
        value: 0
        inSlope: 0.9155753
        outSlope: 0.9155753
        tangentMode: 10
      m_PreInfinity: 2
      m_PostInfinity: 2
      m_RotationOrder: 4
    attribute: localEulerAnglesRaw.z
    path: Body/Torso/Wallet
    classID: 4
    script: {fileID: 0}
  - curve:
      serializedVersion: 2
      m_Curve:
      - time: 0
        value: 0
        inSlope: 0
        outSlope: 0
        tangentMode: 10
      - time: 1.8166667
        value: 0
        inSlope: 0
        outSlope: 0
        tangentMode: 10
      - time: 3.95
        value: 0
        inSlope: 0
        outSlope: 0
        tangentMode: 10
      m_PreInfinity: 2
      m_PostInfinity: 2
      m_RotationOrder: 4
    attribute: localEulerAnglesRaw.x
    path: Body/UpperLegLeft/LowerLegLeft
    classID: 4
    script: {fileID: 0}
  - curve:
      serializedVersion: 2
      m_Curve:
      - time: 0
        value: 0
        inSlope: 0
        outSlope: 0
        tangentMode: 10
      - time: 1.8166667
        value: 0
        inSlope: 0
        outSlope: 0
        tangentMode: 10
      - time: 3.95
        value: 0
        inSlope: 0
        outSlope: 0
        tangentMode: 10
      m_PreInfinity: 2
      m_PostInfinity: 2
      m_RotationOrder: 4
    attribute: localEulerAnglesRaw.y
    path: Body/UpperLegLeft/LowerLegLeft
    classID: 4
    script: {fileID: 0}
  - curve:
      serializedVersion: 2
      m_Curve:
      - time: 0
        value: 0
        inSlope: 4.518716
        outSlope: 4.518716
        tangentMode: 10
      - time: 1.8166667
        value: 8.209001
        inSlope: 0.33537328
        outSlope: 0.33537328
        tangentMode: 10
      - time: 3.95
        value: 0
        inSlope: -3.8479693
        outSlope: -3.8479693
        tangentMode: 10
      m_PreInfinity: 2
      m_PostInfinity: 2
      m_RotationOrder: 4
    attribute: localEulerAnglesRaw.z
    path: Body/UpperLegLeft/LowerLegLeft
    classID: 4
    script: {fileID: 0}
  - curve:
      serializedVersion: 2
      m_Curve:
      - time: 0
        value: 0
        inSlope: 0
        outSlope: 0
        tangentMode: 10
      - time: 1.8166667
        value: 0
        inSlope: 0
        outSlope: 0
        tangentMode: 10
      - time: 3.95
        value: 0
        inSlope: 0
        outSlope: 0
        tangentMode: 10
      m_PreInfinity: 2
      m_PostInfinity: 2
      m_RotationOrder: 4
    attribute: localEulerAnglesRaw.x
    path: Body/UpperLegRight/LowerLegRight
    classID: 4
    script: {fileID: 0}
  - curve:
      serializedVersion: 2
      m_Curve:
      - time: 0
        value: 0
        inSlope: 0
        outSlope: 0
        tangentMode: 10
      - time: 1.8166667
        value: 0
        inSlope: 0
        outSlope: 0
        tangentMode: 10
      - time: 3.95
        value: 0
        inSlope: 0
        outSlope: 0
        tangentMode: 10
      m_PreInfinity: 2
      m_PostInfinity: 2
      m_RotationOrder: 4
    attribute: localEulerAnglesRaw.y
    path: Body/UpperLegRight/LowerLegRight
    classID: 4
    script: {fileID: 0}
  - curve:
      serializedVersion: 2
      m_Curve:
      - time: 0
        value: 0
        inSlope: 4.3222017
        outSlope: 4.3222017
        tangentMode: 10
      - time: 1.8166667
        value: 7.852
        inSlope: 0.32078815
        outSlope: 0.32078815
        tangentMode: 10
      - time: 3.95
        value: 0
        inSlope: -3.6806254
        outSlope: -3.6806254
        tangentMode: 10
      m_PreInfinity: 2
      m_PostInfinity: 2
      m_RotationOrder: 4
    attribute: localEulerAnglesRaw.z
    path: Body/UpperLegRight/LowerLegRight
    classID: 4
    script: {fileID: 0}
  - curve:
      serializedVersion: 2
      m_Curve:
      - time: 0
        value: 0
        inSlope: 0
        outSlope: 0
        tangentMode: 10
      - time: 0.38333333
        value: 0
        inSlope: 0
        outSlope: 0
        tangentMode: 10
      - time: 0.9166667
        value: 0
        inSlope: 0
        outSlope: 0
        tangentMode: 10
      - time: 1.8833333
        value: 0
        inSlope: 0
        outSlope: 0
        tangentMode: 10
      - time: 2.7333333
        value: 0
        inSlope: 0
        outSlope: 0
        tangentMode: 10
      - time: 3.3833334
        value: 0
        inSlope: 0
        outSlope: 0
        tangentMode: 10
      - time: 3.95
        value: 0
        inSlope: 0
        outSlope: 0
        tangentMode: 10
      m_PreInfinity: 2
      m_PostInfinity: 2
      m_RotationOrder: 4
    attribute: localEulerAnglesRaw.x
    path: Body/Torso/Wallet/Wallet
    classID: 4
    script: {fileID: 0}
  - curve:
      serializedVersion: 2
      m_Curve:
      - time: 0
        value: 0
        inSlope: 0
        outSlope: 0
        tangentMode: 10
      - time: 0.38333333
        value: 0
        inSlope: 0
        outSlope: 0
        tangentMode: 10
      - time: 0.9166667
        value: 0
        inSlope: 0
        outSlope: 0
        tangentMode: 10
      - time: 1.8833333
        value: 0
        inSlope: 0
        outSlope: 0
        tangentMode: 10
      - time: 2.7333333
        value: 0
        inSlope: 0
        outSlope: 0
        tangentMode: 10
      - time: 3.3833334
        value: 0
        inSlope: 0
        outSlope: 0
        tangentMode: 10
      - time: 3.95
        value: 0
        inSlope: 0
        outSlope: 0
        tangentMode: 10
      m_PreInfinity: 2
      m_PostInfinity: 2
      m_RotationOrder: 4
    attribute: localEulerAnglesRaw.y
    path: Body/Torso/Wallet/Wallet
    classID: 4
    script: {fileID: 0}
  - curve:
      serializedVersion: 2
      m_Curve:
      - time: 0
        value: 0
        inSlope: -0.52638054
        outSlope: -0.52638054
        tangentMode: 10
      - time: 2.25
        value: -1.1843562
        inSlope: 0.085149795
        outSlope: 0.085149795
        tangentMode: 10
      - time: 3.95
        value: 0
        inSlope: 0.6966801
        outSlope: 0.6966801
        tangentMode: 10
      m_PreInfinity: 2
      m_PostInfinity: 2
      m_RotationOrder: 4
    attribute: localEulerAnglesRaw.z
    path: Body/Torso/Wallet/Wallet
    classID: 4
    script: {fileID: 0}
  - curve:
      serializedVersion: 2
      m_Curve:
      - time: 0
        value: 0
        inSlope: 0
        outSlope: 0
        tangentMode: 10
      - time: 1.8166667
        value: 0
        inSlope: 0
        outSlope: 0
        tangentMode: 10
      - time: 3.95
        value: 0
        inSlope: 0
        outSlope: 0
        tangentMode: 10
      m_PreInfinity: 2
      m_PostInfinity: 2
      m_RotationOrder: 4
    attribute: localEulerAnglesRaw.x
    path: Body/UpperLegLeft/LowerLegLeft/LeftShoe
    classID: 4
    script: {fileID: 0}
  - curve:
      serializedVersion: 2
      m_Curve:
      - time: 0
        value: 0
        inSlope: 0
        outSlope: 0
        tangentMode: 10
      - time: 1.8166667
        value: 0
        inSlope: 0
        outSlope: 0
        tangentMode: 10
      - time: 3.95
        value: 0
        inSlope: 0
        outSlope: 0
        tangentMode: 10
      m_PreInfinity: 2
      m_PostInfinity: 2
      m_RotationOrder: 4
    attribute: localEulerAnglesRaw.y
    path: Body/UpperLegLeft/LowerLegLeft/LeftShoe
    classID: 4
    script: {fileID: 0}
  - curve:
      serializedVersion: 2
      m_Curve:
      - time: 0
        value: 0
        inSlope: -2.770459
        outSlope: -2.770459
        tangentMode: 10
      - time: 1.8166667
        value: -5.0330005
        inSlope: -0.20561993
        outSlope: -0.20561993
        tangentMode: 10
      - time: 3.95
        value: 0
        inSlope: 2.359219
        outSlope: 2.359219
        tangentMode: 10
      m_PreInfinity: 2
      m_PostInfinity: 2
      m_RotationOrder: 4
    attribute: localEulerAnglesRaw.z
    path: Body/UpperLegLeft/LowerLegLeft/LeftShoe
    classID: 4
    script: {fileID: 0}
  - curve:
      serializedVersion: 2
      m_Curve:
      - time: 0
        value: 0
        inSlope: 0
        outSlope: 0
        tangentMode: 10
      - time: 0.45
        value: 0
        inSlope: 0
        outSlope: 0
        tangentMode: 10
      - time: 0.8833333
        value: 0
        inSlope: 0
        outSlope: 0
        tangentMode: 10
      - time: 1.6333333
        value: 0
        inSlope: 0
        outSlope: 0
        tangentMode: 10
      - time: 2.2833333
        value: 0
        inSlope: 0
        outSlope: 0
        tangentMode: 10
      - time: 2.95
        value: 0
        inSlope: 0
        outSlope: 0
        tangentMode: 10
      - time: 3.95
        value: 0
        inSlope: 0
        outSlope: 0
        tangentMode: 10
      m_PreInfinity: 2
      m_PostInfinity: 2
      m_RotationOrder: 4
    attribute: localEulerAnglesRaw.x
    path: Body/Torso/Neck/Head/Jewel
    classID: 4
    script: {fileID: 0}
  - curve:
      serializedVersion: 2
      m_Curve:
      - time: 0
        value: 0
        inSlope: 0
        outSlope: 0
        tangentMode: 10
      - time: 0.45
        value: 0
        inSlope: 0
        outSlope: 0
        tangentMode: 10
      - time: 0.8833333
        value: 0
        inSlope: 0
        outSlope: 0
        tangentMode: 10
      - time: 1.6333333
        value: 0
        inSlope: 0
        outSlope: 0
        tangentMode: 10
      - time: 2.2833333
        value: 0
        inSlope: 0
        outSlope: 0
        tangentMode: 10
      - time: 2.95
        value: 0
        inSlope: 0
        outSlope: 0
        tangentMode: 10
      - time: 3.95
        value: 0
        inSlope: 0
        outSlope: 0
        tangentMode: 10
      m_PreInfinity: 2
      m_PostInfinity: 2
      m_RotationOrder: 4
    attribute: localEulerAnglesRaw.y
    path: Body/Torso/Neck/Head/Jewel
    classID: 4
    script: {fileID: 0}
  - curve:
      serializedVersion: 2
      m_Curve:
      - time: 0
        value: 0
        inSlope: 15.82889
        outSlope: 15.82889
        tangentMode: 10
      - time: 0.45
        value: 7.123
        inSlope: 0.10521412
        outSlope: 0.10521412
        tangentMode: 10
      - time: 0.8833333
        value: 0.35500002
        inSlope: -4.619897
        outSlope: -4.619897
        tangentMode: 10
      - time: 1.6333333
        value: 5.1390004
        inSlope: 0.31164122
        outSlope: 0.31164122
        tangentMode: 10
      - time: 2.2833333
        value: 1.3980001
        inSlope: 0.32930708
        outSlope: 0.32930708
        tangentMode: 10
      - time: 2.95
        value: 5.6740003
        inSlope: 0.3699994
        outSlope: 0.3699994
        tangentMode: 10
      - time: 3.95
        value: 0
        inSlope: -5.6740003
        outSlope: -5.6740003
        tangentMode: 10
      m_PreInfinity: 2
      m_PostInfinity: 2
      m_RotationOrder: 4
    attribute: localEulerAnglesRaw.z
    path: Body/Torso/Neck/Head/Jewel
    classID: 4
    script: {fileID: 0}
  - curve:
      serializedVersion: 2
      m_Curve:
      - time: 0
        value: 0
        inSlope: 0
        outSlope: 0
        tangentMode: 10
      - time: 1.0666667
        value: 0
        inSlope: 0
        outSlope: 0
        tangentMode: 10
      - time: 3.95
        value: 0
        inSlope: 0
        outSlope: 0
        tangentMode: 10
      m_PreInfinity: 2
      m_PostInfinity: 2
      m_RotationOrder: 4
    attribute: localEulerAnglesRaw.x
    path: Body/Torso/Neck/Head
    classID: 4
    script: {fileID: 0}
  - curve:
      serializedVersion: 2
      m_Curve:
      - time: 0
        value: 0
        inSlope: 0
        outSlope: 0
        tangentMode: 10
      - time: 1.0666667
        value: 0
        inSlope: 0
        outSlope: 0
        tangentMode: 10
      - time: 3.95
        value: 0
        inSlope: 0
        outSlope: 0
        tangentMode: 10
      m_PreInfinity: 2
      m_PostInfinity: 2
      m_RotationOrder: 4
    attribute: localEulerAnglesRaw.y
    path: Body/Torso/Neck/Head
    classID: 4
    script: {fileID: 0}
  - curve:
      serializedVersion: 2
      m_Curve:
      - time: 0
        value: 0
        inSlope: 5.53875
        outSlope: 5.53875
        tangentMode: 10
      - time: 1.0666667
        value: 5.9080005
        inSlope: 0
        outSlope: 0
        tangentMode: 0
      - time: 3.2
        value: 5.9080005
        inSlope: 0
        outSlope: 0
        tangentMode: 0
      - time: 3.95
        value: 0
        inSlope: -7.877334
        outSlope: -7.877334
        tangentMode: 10
      m_PreInfinity: 2
      m_PostInfinity: 2
      m_RotationOrder: 4
    attribute: localEulerAnglesRaw.z
    path: Body/Torso/Neck/Head
    classID: 4
    script: {fileID: 0}
  - curve:
      serializedVersion: 2
      m_Curve:
      - time: 0
        value: 0
        inSlope: 0
        outSlope: 0
        tangentMode: 10
      - time: 1.0666667
        value: 0
        inSlope: 0
        outSlope: 0
        tangentMode: 10
      - time: 3.95
        value: 0
        inSlope: 0
        outSlope: 0
        tangentMode: 10
      m_PreInfinity: 2
      m_PostInfinity: 2
      m_RotationOrder: 4
    attribute: localEulerAnglesRaw.x
    path: Body/Torso/RightShoulder
    classID: 4
    script: {fileID: 0}
  - curve:
      serializedVersion: 2
      m_Curve:
      - time: 0
        value: 0
        inSlope: 0
        outSlope: 0
        tangentMode: 10
      - time: 1.0666667
        value: 0
        inSlope: 0
        outSlope: 0
        tangentMode: 10
      - time: 3.95
        value: 0
        inSlope: 0
        outSlope: 0
        tangentMode: 10
      m_PreInfinity: 2
      m_PostInfinity: 2
      m_RotationOrder: 4
    attribute: localEulerAnglesRaw.y
    path: Body/Torso/RightShoulder
    classID: 4
    script: {fileID: 0}
  - curve:
      serializedVersion: 2
      m_Curve:
      - time: 0
        value: 0
        inSlope: 82.63402
        outSlope: 82.63402
        tangentMode: 10
      - time: 0.43333334
        value: 35.808075
        inSlope: 0
        outSlope: 0
        tangentMode: 0
      - time: 3.1166666
        value: 35.808075
        inSlope: 0
        outSlope: 0
        tangentMode: 0
      - time: 3.95
        value: 0
        inSlope: -42.96968
        outSlope: -42.96968
        tangentMode: 10
      m_PreInfinity: 2
      m_PostInfinity: 2
      m_RotationOrder: 4
    attribute: localEulerAnglesRaw.z
    path: Body/Torso/RightShoulder
    classID: 4
    script: {fileID: 0}
  - curve:
      serializedVersion: 2
      m_Curve:
      - time: 0
        value: 0
        inSlope: 0
        outSlope: 0
        tangentMode: 10
      - time: 0.43333334
        value: 0
        inSlope: 0
        outSlope: 0
        tangentMode: 10
      - time: 3.95
        value: 0
        inSlope: 0
        outSlope: 0
        tangentMode: 10
      m_PreInfinity: 2
      m_PostInfinity: 2
      m_RotationOrder: 4
    attribute: localEulerAnglesRaw.x
    path: Body/Torso/LeftShoulder
    classID: 4
    script: {fileID: 0}
  - curve:
      serializedVersion: 2
      m_Curve:
      - time: 0
        value: 0
        inSlope: 0
        outSlope: 0
        tangentMode: 10
      - time: 0.43333334
        value: 0
        inSlope: 0
        outSlope: 0
        tangentMode: 10
      - time: 3.95
        value: 0
        inSlope: 0
        outSlope: 0
        tangentMode: 10
      m_PreInfinity: 2
      m_PostInfinity: 2
      m_RotationOrder: 4
    attribute: localEulerAnglesRaw.y
    path: Body/Torso/LeftShoulder
    classID: 4
    script: {fileID: 0}
  - curve:
      serializedVersion: 2
      m_Curve:
      - time: 0
        value: 0
        inSlope: -67.72357
        outSlope: -67.72357
        tangentMode: 10
      - time: 0.43333334
        value: -29.346882
        inSlope: 0
        outSlope: 0
        tangentMode: 0
      - time: 3.1166666
        value: -29.346882
        inSlope: 0
        outSlope: 0
        tangentMode: 0
      - time: 3.95
        value: 0
        inSlope: 35.21625
        outSlope: 35.21625
        tangentMode: 10
      m_PreInfinity: 2
      m_PostInfinity: 2
      m_RotationOrder: 4
    attribute: localEulerAnglesRaw.z
    path: Body/Torso/LeftShoulder
    classID: 4
    script: {fileID: 0}
  - curve:
      serializedVersion: 2
      m_Curve:
      - time: 0
        value: 0
        inSlope: 0
        outSlope: 0
        tangentMode: 10
      - time: 1.0666667
        value: 0
        inSlope: 0
        outSlope: 0
        tangentMode: 10
      - time: 3.95
        value: 0
        inSlope: 0
        outSlope: 0
        tangentMode: 10
      m_PreInfinity: 2
      m_PostInfinity: 2
      m_RotationOrder: 4
    attribute: localEulerAnglesRaw.x
    path: Body/Torso/LeftShoulder/LeftArm
    classID: 4
    script: {fileID: 0}
  - curve:
      serializedVersion: 2
      m_Curve:
      - time: 0
        value: 0
        inSlope: 0
        outSlope: 0
        tangentMode: 10
      - time: 1.0666667
        value: 0
        inSlope: 0
        outSlope: 0
        tangentMode: 10
      - time: 3.95
        value: 0
        inSlope: 0
        outSlope: 0
        tangentMode: 10
      m_PreInfinity: 2
      m_PostInfinity: 2
      m_RotationOrder: 4
    attribute: localEulerAnglesRaw.y
    path: Body/Torso/LeftShoulder/LeftArm
    classID: 4
    script: {fileID: 0}
  - curve:
      serializedVersion: 2
      m_Curve:
      - time: 0
        value: 0
        inSlope: -147.83925
        outSlope: -147.83925
        tangentMode: 10
      - time: 0.4666667
        value: -68.99165
        inSlope: 0
        outSlope: 0
        tangentMode: 0
      - time: 3.1166666
        value: -68.99165
        inSlope: 0
        outSlope: 0
        tangentMode: 0
      - time: 3.95
        value: 0
        inSlope: 82.78997
        outSlope: 82.78997
        tangentMode: 10
      m_PreInfinity: 2
      m_PostInfinity: 2
      m_RotationOrder: 4
    attribute: localEulerAnglesRaw.z
    path: Body/Torso/LeftShoulder/LeftArm
    classID: 4
    script: {fileID: 0}
  - curve:
      serializedVersion: 2
      m_Curve:
      - time: 0
        value: 0
        inSlope: 0
        outSlope: 0
        tangentMode: 10
      - time: 1.0666667
        value: 0
        inSlope: 0
        outSlope: 0
        tangentMode: 10
      - time: 3.95
        value: 0
        inSlope: 0
        outSlope: 0
        tangentMode: 10
      m_PreInfinity: 2
      m_PostInfinity: 2
      m_RotationOrder: 4
    attribute: localEulerAnglesRaw.x
    path: Body/Torso/RightShoulder/RightArm
    classID: 4
    script: {fileID: 0}
  - curve:
      serializedVersion: 2
      m_Curve:
      - time: 0
        value: 0
        inSlope: 0
        outSlope: 0
        tangentMode: 10
      - time: 1.0666667
        value: 0
        inSlope: 0
        outSlope: 0
        tangentMode: 10
      - time: 3.95
        value: 0
        inSlope: 0
        outSlope: 0
        tangentMode: 10
      m_PreInfinity: 2
      m_PostInfinity: 2
      m_RotationOrder: 4
    attribute: localEulerAnglesRaw.y
    path: Body/Torso/RightShoulder/RightArm
    classID: 4
    script: {fileID: 0}
  - curve:
      serializedVersion: 2
      m_Curve:
      - time: 0
        value: 0
        inSlope: -240.94928
        outSlope: -240.94928
        tangentMode: 10
      - time: 0.4666667
        value: -112.44301
        inSlope: 0
        outSlope: 0
        tangentMode: 0
      - time: 3.1166666
        value: -112.44301
        inSlope: 0
        outSlope: 0
        tangentMode: 0
      - time: 3.95
        value: 0
        inSlope: 134.93158
        outSlope: 134.93158
        tangentMode: 10
      m_PreInfinity: 2
      m_PostInfinity: 2
      m_RotationOrder: 4
    attribute: localEulerAnglesRaw.z
    path: Body/Torso/RightShoulder/RightArm
    classID: 4
    script: {fileID: 0}
  - curve:
      serializedVersion: 2
      m_Curve:
      - time: 0
        value: 0
        inSlope: 0
        outSlope: 0
        tangentMode: 10
      - time: 0.45
        value: 0
        inSlope: 0
        outSlope: 0
        tangentMode: 10
      - time: 3.95
        value: 0
        inSlope: 0
        outSlope: 0
        tangentMode: 10
      m_PreInfinity: 2
      m_PostInfinity: 2
      m_RotationOrder: 4
    attribute: localEulerAnglesRaw.x
    path: Body/Torso/LeftShoulder/LeftArm/LeftHand
    classID: 4
    script: {fileID: 0}
  - curve:
      serializedVersion: 2
      m_Curve:
      - time: 0
        value: 0
        inSlope: 0
        outSlope: 0
        tangentMode: 10
      - time: 0.45
        value: 0
        inSlope: 0
        outSlope: 0
        tangentMode: 10
      - time: 3.95
        value: 0
        inSlope: 0
        outSlope: 0
        tangentMode: 10
      m_PreInfinity: 2
      m_PostInfinity: 2
      m_RotationOrder: 4
    attribute: localEulerAnglesRaw.y
    path: Body/Torso/LeftShoulder/LeftArm/LeftHand
    classID: 4
    script: {fileID: 0}
  - curve:
      serializedVersion: 2
      m_Curve:
      - time: 0
        value: 0
        inSlope: 52.13556
        outSlope: 52.13556
        tangentMode: 10
      - time: 0.45
        value: 23.461
        inSlope: 0
        outSlope: 0
        tangentMode: 0
      - time: 3.2833333
        value: 23.461
        inSlope: 0
        outSlope: 0
        tangentMode: 0
      - time: 3.95
        value: 0
        inSlope: -35.191498
        outSlope: -35.191498
        tangentMode: 10
      m_PreInfinity: 2
      m_PostInfinity: 2
      m_RotationOrder: 4
    attribute: localEulerAnglesRaw.z
    path: Body/Torso/LeftShoulder/LeftArm/LeftHand
    classID: 4
    script: {fileID: 0}
  - curve:
      serializedVersion: 2
      m_Curve:
      - time: 0
        value: 1.3409996
        inSlope: 0.008437894
        outSlope: 0.008437894
        tangentMode: 10
      - time: 1.0666667
        value: 1.35
        inSlope: 0.008437894
        outSlope: 0.008437894
        tangentMode: 10
      m_PreInfinity: 2
      m_PostInfinity: 2
      m_RotationOrder: 4
    attribute: m_LocalPosition.x
    path: Body/Torso/LeftShoulder
    classID: 4
    script: {fileID: 0}
  - curve:
      serializedVersion: 2
      m_Curve:
      - time: 0
        value: 2.8200002
        inSlope: 0.009374767
        outSlope: 0.009374767
        tangentMode: 10
      - time: 1.0666667
        value: 2.83
        inSlope: 0.009374767
        outSlope: 0.009374767
        tangentMode: 10
      m_PreInfinity: 2
      m_PostInfinity: 2
      m_RotationOrder: 4
    attribute: m_LocalPosition.y
    path: Body/Torso/LeftShoulder
    classID: 4
    script: {fileID: 0}
  - curve:
      serializedVersion: 2
      m_Curve:
      - time: 0
        value: 0
        inSlope: 0
        outSlope: 0
        tangentMode: 10
      - time: 1.0666667
        value: 0
        inSlope: 0
        outSlope: 0
        tangentMode: 10
      m_PreInfinity: 2
      m_PostInfinity: 2
      m_RotationOrder: 4
    attribute: m_LocalPosition.z
    path: Body/Torso/LeftShoulder
    classID: 4
    script: {fileID: 0}
  - curve:
      serializedVersion: 2
      m_Curve:
      - time: 0
        value: -0.0399971
        inSlope: 0.074992746
        outSlope: 0.074992746
        tangentMode: 10
      - time: 0.40000004
        value: -0.01
        inSlope: 0
        outSlope: 0
        tangentMode: 0
      - time: 2.0666666
        value: -0.02
        inSlope: 0
        outSlope: 0
        tangentMode: 0
      - time: 3.5833333
        value: -0.01
        inSlope: 0
        outSlope: 0
        tangentMode: 0
      - time: 3.95
        value: -0.0399971
        inSlope: -0.08181025
        outSlope: -0.08181025
        tangentMode: 10
      m_PreInfinity: 2
      m_PostInfinity: 2
      m_RotationOrder: 4
    attribute: m_LocalPosition.x
    path: Body/Torso/Neck/Head/Face/Right/PupilRight
    classID: 4
    script: {fileID: 0}
  - curve:
      serializedVersion: 2
      m_Curve:
      - time: 0
        value: 0.020999908
        inSlope: -0.07749976
        outSlope: -0.07749976
        tangentMode: 10
      - time: 0.40000004
        value: -0.01
        inSlope: 0
        outSlope: 0
        tangentMode: 0
      - time: 2.0666666
        value: 0.06
        inSlope: 0
        outSlope: 0
        tangentMode: 0
      - time: 3.5833333
        value: -0.01
        inSlope: 0
        outSlope: 0
        tangentMode: 0
      - time: 3.95
        value: 0.020999908
        inSlope: 0.08454517
        outSlope: 0.08454517
        tangentMode: 10
      m_PreInfinity: 2
      m_PostInfinity: 2
      m_RotationOrder: 4
    attribute: m_LocalPosition.y
    path: Body/Torso/Neck/Head/Face/Right/PupilRight
    classID: 4
    script: {fileID: 0}
  - curve:
      serializedVersion: 2
      m_Curve:
      - time: 0
        value: 0
        inSlope: 0
        outSlope: 0
        tangentMode: 10
      - time: 0.40000004
        value: 0
        inSlope: 0
        outSlope: 0
        tangentMode: 0
      - time: 2.0666666
        value: 0
        inSlope: 0
        outSlope: 0
        tangentMode: 0
      - time: 3.5833333
        value: 0
        inSlope: 0
        outSlope: 0
        tangentMode: 0
      - time: 3.95
        value: 0
        inSlope: 0
        outSlope: 0
        tangentMode: 10
      m_PreInfinity: 2
      m_PostInfinity: 2
      m_RotationOrder: 4
    attribute: m_LocalPosition.z
    path: Body/Torso/Neck/Head/Face/Right/PupilRight
    classID: 4
    script: {fileID: 0}
  - curve:
      serializedVersion: 2
      m_Curve:
      - time: 0
        value: -0.06499863
        inSlope: 0.012496569
        outSlope: 0.012496569
        tangentMode: 10
      - time: 0.40000004
        value: -0.06
        inSlope: 0
        outSlope: 0
        tangentMode: 0
      - time: 2.0666666
        value: -0.07
        inSlope: 0
        outSlope: 0
        tangentMode: 0
      - time: 3.5833333
        value: -0.06
        inSlope: 0
        outSlope: 0
        tangentMode: 0
      - time: 3.95
        value: -0.06499863
        inSlope: -0.013632617
        outSlope: -0.013632617
        tangentMode: 10
      m_PreInfinity: 2
      m_PostInfinity: 2
      m_RotationOrder: 4
    attribute: m_LocalPosition.x
    path: Body/Torso/Neck/Head/Face/Left/PupilLeft
    classID: 4
    script: {fileID: 0}
  - curve:
      serializedVersion: 2
      m_Curve:
      - time: 0
        value: -0.0029993057
        inSlope: -0.09250172
        outSlope: -0.09250172
        tangentMode: 10
      - time: 0.40000004
        value: -0.04
        inSlope: 0
        outSlope: 0
        tangentMode: 0
      - time: 2.0666666
        value: 0.02
        inSlope: 0
        outSlope: 0
        tangentMode: 0
      - time: 3.5833333
        value: -0.04
        inSlope: 0
        outSlope: 0
        tangentMode: 0
      - time: 3.95
        value: -0.0029993057
        inSlope: 0.10091095
        outSlope: 0.10091095
        tangentMode: 10
      m_PreInfinity: 2
      m_PostInfinity: 2
      m_RotationOrder: 4
    attribute: m_LocalPosition.y
    path: Body/Torso/Neck/Head/Face/Left/PupilLeft
    classID: 4
    script: {fileID: 0}
  - curve:
      serializedVersion: 2
      m_Curve:
      - time: 0
        value: 0
        inSlope: 0
        outSlope: 0
        tangentMode: 10
      - time: 0.40000004
        value: 0
        inSlope: 0
        outSlope: 0
        tangentMode: 0
      - time: 2.0666666
        value: 0
        inSlope: 0
        outSlope: 0
        tangentMode: 0
      - time: 3.5833333
        value: 0
        inSlope: 0
        outSlope: 0
        tangentMode: 0
      - time: 3.95
        value: 0
        inSlope: 0
        outSlope: 0
        tangentMode: 10
      m_PreInfinity: 2
      m_PostInfinity: 2
      m_RotationOrder: 4
    attribute: m_LocalPosition.z
    path: Body/Torso/Neck/Head/Face/Left/PupilLeft
    classID: 4
    script: {fileID: 0}
  - curve:
      serializedVersion: 2
      m_Curve:
      - time: 0
        value: 0
        inSlope: 0
        outSlope: 0
        tangentMode: 10
      - time: 0.8833333
        value: 0
        inSlope: 0
        outSlope: 0
        tangentMode: 0
      - time: 3.1666667
        value: 0
        inSlope: 0
        outSlope: 0
        tangentMode: 0
      - time: 3.95
        value: 0
        inSlope: 0
        outSlope: 0
        tangentMode: 10
      m_PreInfinity: 2
      m_PostInfinity: 2
      m_RotationOrder: 4
    attribute: localEulerAnglesRaw.x
    path: Body/Torso/Neck
    classID: 4
    script: {fileID: 0}
  - curve:
      serializedVersion: 2
      m_Curve:
      - time: 0
        value: 0
        inSlope: 0
        outSlope: 0
        tangentMode: 10
      - time: 0.8833333
        value: 0
        inSlope: 0
        outSlope: 0
        tangentMode: 0
      - time: 3.1666667
        value: 0
        inSlope: 0
        outSlope: 0
        tangentMode: 0
      - time: 3.95
        value: 0
        inSlope: 0
        outSlope: 0
        tangentMode: 10
      m_PreInfinity: 2
      m_PostInfinity: 2
      m_RotationOrder: 4
    attribute: localEulerAnglesRaw.y
    path: Body/Torso/Neck
    classID: 4
    script: {fileID: 0}
  - curve:
      serializedVersion: 2
      m_Curve:
      - time: 0
        value: 0
        inSlope: 1.648302
        outSlope: 1.648302
        tangentMode: 10
      - time: 0.8833333
        value: 1.4560001
        inSlope: 0
        outSlope: 0
        tangentMode: 0
      - time: 3.1666667
        value: 1.4560001
        inSlope: 0
        outSlope: 0
        tangentMode: 0
      - time: 3.95
        value: 0
        inSlope: -1.8587236
        outSlope: -1.8587236
        tangentMode: 10
      m_PreInfinity: 2
      m_PostInfinity: 2
      m_RotationOrder: 4
    attribute: localEulerAnglesRaw.z
    path: Body/Torso/Neck
    classID: 4
    script: {fileID: 0}
  - curve:
      serializedVersion: 2
      m_Curve:
      - time: 0
        value: 1
        inSlope: Infinity
        outSlope: Infinity
        tangentMode: 31
      - time: 0.26666668
        value: 0
        inSlope: Infinity
        outSlope: Infinity
        tangentMode: 31
      - time: 3.4166667
        value: 1
        inSlope: Infinity
        outSlope: Infinity
        tangentMode: 31
      m_PreInfinity: 2
      m_PostInfinity: 2
      m_RotationOrder: 4
    attribute: m_IsActive
    path: Body/Torso/RightShoulder/RightArm/RightHand/HandRight
    classID: 1
    script: {fileID: 0}
  - curve:
      serializedVersion: 2
      m_Curve:
      - time: 0
        value: 0
        inSlope: Infinity
        outSlope: Infinity
        tangentMode: 31
      - time: 0.26666668
        value: 1
        inSlope: Infinity
        outSlope: Infinity
        tangentMode: 31
      - time: 3.4166667
        value: 0
        inSlope: Infinity
        outSlope: Infinity
        tangentMode: 31
      m_PreInfinity: 2
      m_PostInfinity: 2
      m_RotationOrder: 4
    attribute: m_IsActive
    path: Body/Torso/RightShoulder/RightArm/RightHand/HandTakeSomething
    classID: 1
    script: {fileID: 0}
  - curve:
      serializedVersion: 2
      m_Curve:
      - time: 0
        value: 0
        inSlope: 0
        outSlope: 0
        tangentMode: 10
      - time: 0.46666667
        value: 0
        inSlope: 0
        outSlope: 0
        tangentMode: 10
      - time: 2.9
        value: 0
        inSlope: 0
        outSlope: 0
        tangentMode: 10
      - time: 3.95
        value: 0
        inSlope: 0
        outSlope: 0
        tangentMode: 10
      m_PreInfinity: 2
      m_PostInfinity: 2
      m_RotationOrder: 4
    attribute: localEulerAnglesRaw.x
    path: Body/Torso/RightShoulder/RightArm/RightHand
    classID: 4
    script: {fileID: 0}
  - curve:
      serializedVersion: 2
      m_Curve:
      - time: 0
        value: 0
        inSlope: 0
        outSlope: 0
        tangentMode: 10
      - time: 0.46666667
        value: 0
        inSlope: 0
        outSlope: 0
        tangentMode: 10
      - time: 2.9
        value: 0
        inSlope: 0
        outSlope: 0
        tangentMode: 10
      - time: 3.95
        value: 0
        inSlope: 0
        outSlope: 0
        tangentMode: 10
      m_PreInfinity: 2
      m_PostInfinity: 2
      m_RotationOrder: 4
    attribute: localEulerAnglesRaw.y
    path: Body/Torso/RightShoulder/RightArm/RightHand
    classID: 4
    script: {fileID: 0}
  - curve:
      serializedVersion: 2
      m_Curve:
      - time: 0
        value: -5.951
        inSlope: 63.62853
        outSlope: 63.62853
        tangentMode: 10
      - time: 0.46666667
        value: 23.742313
        inSlope: 0
        outSlope: 0
        tangentMode: 0
      - time: 2.9
        value: 23.742313
        inSlope: 0
        outSlope: 0
        tangentMode: 0
      - time: 3.95
        value: -5.951
        inSlope: -28.279348
        outSlope: -28.279348
        tangentMode: 10
      m_PreInfinity: 2
      m_PostInfinity: 2
      m_RotationOrder: 4
    attribute: localEulerAnglesRaw.z
    path: Body/Torso/RightShoulder/RightArm/RightHand
    classID: 4
    script: {fileID: 0}
  - curve:
      serializedVersion: 2
      m_Curve:
      - time: 0
        value: 0
        inSlope: Infinity
        outSlope: Infinity
        tangentMode: 31
      - time: 0.28333333
        value: 1
        inSlope: Infinity
        outSlope: Infinity
        tangentMode: 31
      - time: 3.4166667
        value: 0
        inSlope: Infinity
        outSlope: Infinity
        tangentMode: 31
      m_PreInfinity: 2
      m_PostInfinity: 2
      m_RotationOrder: 4
    attribute: m_IsActive
    path: Body/Torso/LeftShoulder/LeftArm/LeftHand/HandLeftTakeSomething
    classID: 1
    script: {fileID: 0}
  - curve:
      serializedVersion: 2
      m_Curve:
      - time: 0
        value: 1
        inSlope: Infinity
        outSlope: Infinity
        tangentMode: 31
      - time: 0.28333333
        value: 0
        inSlope: Infinity
        outSlope: Infinity
        tangentMode: 31
      - time: 3.4166667
        value: 1
        inSlope: Infinity
        outSlope: Infinity
        tangentMode: 31
      m_PreInfinity: 2
      m_PostInfinity: 2
      m_RotationOrder: 4
    attribute: m_IsActive
    path: Body/Torso/LeftShoulder/LeftArm/LeftHand/HandLeft
    classID: 1
    script: {fileID: 0}
  - curve:
      serializedVersion: 2
      m_Curve:
      - time: 0
        value: 0
        inSlope: 0
        outSlope: 0
        tangentMode: 10
      - time: 1.0833334
        value: 0
        inSlope: 0
        outSlope: 0
        tangentMode: 0
      - time: 3.45
        value: 0
        inSlope: 0
        outSlope: 0
        tangentMode: 0
      - time: 3.95
        value: 0
        inSlope: 0
        outSlope: 0
        tangentMode: 10
      m_PreInfinity: 2
      m_PostInfinity: 2
      m_RotationOrder: 4
    attribute: localEulerAnglesRaw.x
    path: Body/Torso/Neck/Head/Hair
    classID: 4
    script: {fileID: 0}
  - curve:
      serializedVersion: 2
      m_Curve:
      - time: 0
        value: 0
        inSlope: 0
        outSlope: 0
        tangentMode: 10
      - time: 1.0833334
        value: 0
        inSlope: 0
        outSlope: 0
        tangentMode: 0
      - time: 3.45
        value: 0
        inSlope: 0
        outSlope: 0
        tangentMode: 0
      - time: 3.95
        value: 0
        inSlope: 0
        outSlope: 0
        tangentMode: 10
      m_PreInfinity: 2
      m_PostInfinity: 2
      m_RotationOrder: 4
    attribute: localEulerAnglesRaw.y
    path: Body/Torso/Neck/Head/Hair
    classID: 4
    script: {fileID: 0}
  - curve:
      serializedVersion: 2
      m_Curve:
      - time: 0
        value: 0
        inSlope: -5.8855386
        outSlope: -5.8855386
        tangentMode: 10
      - time: 1.0833334
        value: -6.3760004
        inSlope: 0
        outSlope: 0
        tangentMode: 0
      - time: 3.45
        value: -6.3760004
        inSlope: 0
        outSlope: 0
        tangentMode: 0
      - time: 3.95
        value: 0
        inSlope: 12.752001
        outSlope: 12.752001
        tangentMode: 10
      m_PreInfinity: 2
      m_PostInfinity: 2
      m_RotationOrder: 4
    attribute: localEulerAnglesRaw.z
    path: Body/Torso/Neck/Head/Hair
    classID: 4
    script: {fileID: 0}
  - curve:
      serializedVersion: 2
      m_Curve:
      - time: 0
        value: 0
        inSlope: Infinity
        outSlope: Infinity
        tangentMode: 31
      - time: 0.41666666
        value: 1
        inSlope: Infinity
        outSlope: Infinity
        tangentMode: 31
      m_PreInfinity: 2
      m_PostInfinity: 2
      m_RotationOrder: 4
    attribute: m_IsActive
    path: Body/Torso/Neck/Head/Face/MouthSmile
    classID: 1
    script: {fileID: 0}
  - curve:
      serializedVersion: 2
      m_Curve:
      - time: 0
        value: 1
        inSlope: Infinity
        outSlope: Infinity
        tangentMode: 31
      - time: 0.41666666
        value: 0
        inSlope: Infinity
        outSlope: Infinity
        tangentMode: 31
      m_PreInfinity: 2
      m_PostInfinity: 2
      m_RotationOrder: 4
    attribute: m_IsActive
    path: Body/Torso/Neck/Head/Face/Mouth
    classID: 1
    script: {fileID: 0}
  m_EulerEditorCurves:
  - curve:
      serializedVersion: 2
      m_Curve: []
      m_PreInfinity: 2
      m_PostInfinity: 2
      m_RotationOrder: 4
    attribute: m_LocalEulerAngles.x
    path: Body/Torso
    classID: 4
    script: {fileID: 0}
  - curve:
      serializedVersion: 2
      m_Curve: []
      m_PreInfinity: 2
      m_PostInfinity: 2
      m_RotationOrder: 4
    attribute: m_LocalEulerAngles.y
    path: Body/Torso
    classID: 4
    script: {fileID: 0}
  - curve:
      serializedVersion: 2
      m_Curve: []
      m_PreInfinity: 2
      m_PostInfinity: 2
      m_RotationOrder: 4
    attribute: m_LocalEulerAngles.z
    path: Body/Torso
    classID: 4
    script: {fileID: 0}
  - curve:
      serializedVersion: 2
      m_Curve: []
      m_PreInfinity: 2
      m_PostInfinity: 2
      m_RotationOrder: 4
    attribute: m_LocalEulerAngles.x
    path: Body/UpperLegLeft
    classID: 4
    script: {fileID: 0}
  - curve:
      serializedVersion: 2
      m_Curve: []
      m_PreInfinity: 2
      m_PostInfinity: 2
      m_RotationOrder: 4
    attribute: m_LocalEulerAngles.y
    path: Body/UpperLegLeft
    classID: 4
    script: {fileID: 0}
  - curve:
      serializedVersion: 2
      m_Curve: []
      m_PreInfinity: 2
      m_PostInfinity: 2
      m_RotationOrder: 4
    attribute: m_LocalEulerAngles.z
    path: Body/UpperLegLeft
    classID: 4
    script: {fileID: 0}
  - curve:
      serializedVersion: 2
      m_Curve: []
      m_PreInfinity: 2
      m_PostInfinity: 2
      m_RotationOrder: 4
    attribute: m_LocalEulerAngles.x
    path: Body/UpperLegRight
    classID: 4
    script: {fileID: 0}
  - curve:
      serializedVersion: 2
      m_Curve: []
      m_PreInfinity: 2
      m_PostInfinity: 2
      m_RotationOrder: 4
    attribute: m_LocalEulerAngles.y
    path: Body/UpperLegRight
    classID: 4
    script: {fileID: 0}
  - curve:
      serializedVersion: 2
      m_Curve: []
      m_PreInfinity: 2
      m_PostInfinity: 2
      m_RotationOrder: 4
    attribute: m_LocalEulerAngles.z
    path: Body/UpperLegRight
    classID: 4
    script: {fileID: 0}
  - curve:
      serializedVersion: 2
      m_Curve: []
      m_PreInfinity: 2
      m_PostInfinity: 2
      m_RotationOrder: 4
    attribute: m_LocalEulerAngles.z
    path: Body/UpperLegLeft/LowerLegLeft/LeftShoe
    classID: 4
    script: {fileID: 0}
  - curve:
      serializedVersion: 2
      m_Curve: []
      m_PreInfinity: 2
      m_PostInfinity: 2
      m_RotationOrder: 4
    attribute: m_LocalEulerAngles.y
    path: Body/UpperLegLeft/LowerLegLeft/LeftShoe
    classID: 4
    script: {fileID: 0}
  - curve:
      serializedVersion: 2
      m_Curve: []
      m_PreInfinity: 2
      m_PostInfinity: 2
      m_RotationOrder: 4
    attribute: m_LocalEulerAngles.x
    path: Body/UpperLegLeft/LowerLegLeft/LeftShoe
    classID: 4
    script: {fileID: 0}
  - curve:
      serializedVersion: 2
      m_Curve: []
      m_PreInfinity: 2
      m_PostInfinity: 2
      m_RotationOrder: 4
    attribute: m_LocalEulerAngles.z
    path: Body/Torso/Wallet/Wallet
    classID: 4
    script: {fileID: 0}
  - curve:
      serializedVersion: 2
      m_Curve: []
      m_PreInfinity: 2
      m_PostInfinity: 2
      m_RotationOrder: 4
    attribute: m_LocalEulerAngles.y
    path: Body/Torso/Wallet/Wallet
    classID: 4
    script: {fileID: 0}
  - curve:
      serializedVersion: 2
      m_Curve: []
      m_PreInfinity: 2
      m_PostInfinity: 2
      m_RotationOrder: 4
    attribute: m_LocalEulerAngles.x
    path: Body/Torso/Wallet/Wallet
    classID: 4
    script: {fileID: 0}
  - curve:
      serializedVersion: 2
      m_Curve: []
      m_PreInfinity: 2
      m_PostInfinity: 2
      m_RotationOrder: 4
    attribute: m_LocalEulerAngles.x
    path: Body/Torso/Skirt
    classID: 4
    script: {fileID: 0}
  - curve:
      serializedVersion: 2
      m_Curve: []
      m_PreInfinity: 2
      m_PostInfinity: 2
      m_RotationOrder: 4
    attribute: m_LocalEulerAngles.y
    path: Body/Torso/Skirt
    classID: 4
    script: {fileID: 0}
  - curve:
      serializedVersion: 2
      m_Curve: []
      m_PreInfinity: 2
      m_PostInfinity: 2
      m_RotationOrder: 4
    attribute: m_LocalEulerAngles.z
    path: Body/Torso/Skirt
    classID: 4
    script: {fileID: 0}
  - curve:
      serializedVersion: 2
      m_Curve: []
      m_PreInfinity: 2
      m_PostInfinity: 2
      m_RotationOrder: 4
    attribute: m_LocalEulerAngles.x
    path: Body/Torso/Wallet
    classID: 4
    script: {fileID: 0}
  - curve:
      serializedVersion: 2
      m_Curve: []
      m_PreInfinity: 2
      m_PostInfinity: 2
      m_RotationOrder: 4
    attribute: m_LocalEulerAngles.y
    path: Body/Torso/Wallet
    classID: 4
    script: {fileID: 0}
  - curve:
      serializedVersion: 2
      m_Curve: []
      m_PreInfinity: 2
      m_PostInfinity: 2
      m_RotationOrder: 4
    attribute: m_LocalEulerAngles.z
    path: Body/Torso/Wallet
    classID: 4
    script: {fileID: 0}
  - curve:
      serializedVersion: 2
      m_Curve: []
      m_PreInfinity: 2
      m_PostInfinity: 2
      m_RotationOrder: 4
    attribute: m_LocalEulerAngles.x
    path: Body/UpperLegLeft/LowerLegLeft
    classID: 4
    script: {fileID: 0}
  - curve:
      serializedVersion: 2
      m_Curve: []
      m_PreInfinity: 2
      m_PostInfinity: 2
      m_RotationOrder: 4
    attribute: m_LocalEulerAngles.y
    path: Body/UpperLegLeft/LowerLegLeft
    classID: 4
    script: {fileID: 0}
  - curve:
      serializedVersion: 2
      m_Curve: []
      m_PreInfinity: 2
      m_PostInfinity: 2
      m_RotationOrder: 4
    attribute: m_LocalEulerAngles.z
    path: Body/UpperLegLeft/LowerLegLeft
    classID: 4
    script: {fileID: 0}
  - curve:
      serializedVersion: 2
      m_Curve: []
      m_PreInfinity: 2
      m_PostInfinity: 2
      m_RotationOrder: 4
    attribute: m_LocalEulerAngles.x
    path: Body/UpperLegRight/LowerLegRight
    classID: 4
    script: {fileID: 0}
  - curve:
      serializedVersion: 2
      m_Curve: []
      m_PreInfinity: 2
      m_PostInfinity: 2
      m_RotationOrder: 4
    attribute: m_LocalEulerAngles.y
    path: Body/UpperLegRight/LowerLegRight
    classID: 4
    script: {fileID: 0}
  - curve:
      serializedVersion: 2
      m_Curve: []
      m_PreInfinity: 2
      m_PostInfinity: 2
      m_RotationOrder: 4
    attribute: m_LocalEulerAngles.z
    path: Body/UpperLegRight/LowerLegRight
    classID: 4
    script: {fileID: 0}
  - curve:
      serializedVersion: 2
      m_Curve: []
      m_PreInfinity: 2
      m_PostInfinity: 2
      m_RotationOrder: 4
    attribute: m_LocalEulerAngles.z
    path: Body/Torso/Neck/Head/Jewel
    classID: 4
    script: {fileID: 0}
  - curve:
      serializedVersion: 2
      m_Curve: []
      m_PreInfinity: 2
      m_PostInfinity: 2
      m_RotationOrder: 4
    attribute: m_LocalEulerAngles.y
    path: Body/Torso/Neck/Head/Jewel
    classID: 4
    script: {fileID: 0}
  - curve:
      serializedVersion: 2
      m_Curve: []
      m_PreInfinity: 2
      m_PostInfinity: 2
      m_RotationOrder: 4
    attribute: m_LocalEulerAngles.x
    path: Body/Torso/Neck/Head/Jewel
    classID: 4
    script: {fileID: 0}
  - curve:
      serializedVersion: 2
      m_Curve: []
      m_PreInfinity: 2
      m_PostInfinity: 2
      m_RotationOrder: 4
    attribute: m_LocalEulerAngles.z
    path: Body/Torso/RightShoulder/RightArm/RightHand
    classID: 4
    script: {fileID: 0}
  - curve:
      serializedVersion: 2
      m_Curve: []
      m_PreInfinity: 2
      m_PostInfinity: 2
      m_RotationOrder: 4
    attribute: m_LocalEulerAngles.y
    path: Body/Torso/RightShoulder/RightArm/RightHand
    classID: 4
    script: {fileID: 0}
  - curve:
      serializedVersion: 2
      m_Curve: []
      m_PreInfinity: 2
      m_PostInfinity: 2
      m_RotationOrder: 4
    attribute: m_LocalEulerAngles.x
    path: Body/Torso/RightShoulder/RightArm/RightHand
    classID: 4
    script: {fileID: 0}
  - curve:
      serializedVersion: 2
      m_Curve: []
      m_PreInfinity: 2
      m_PostInfinity: 2
      m_RotationOrder: 4
    attribute: m_LocalEulerAngles.x
    path: Body/Torso/Neck/Head
    classID: 4
    script: {fileID: 0}
  - curve:
      serializedVersion: 2
      m_Curve: []
      m_PreInfinity: 2
      m_PostInfinity: 2
      m_RotationOrder: 4
    attribute: m_LocalEulerAngles.y
    path: Body/Torso/Neck/Head
    classID: 4
    script: {fileID: 0}
  - curve:
      serializedVersion: 2
      m_Curve: []
      m_PreInfinity: 2
      m_PostInfinity: 2
      m_RotationOrder: 4
    attribute: m_LocalEulerAngles.z
    path: Body/Torso/Neck/Head
    classID: 4
    script: {fileID: 0}
  - curve:
      serializedVersion: 2
      m_Curve: []
      m_PreInfinity: 2
      m_PostInfinity: 2
      m_RotationOrder: 4
    attribute: m_LocalEulerAngles.z
    path: Body/Torso/Neck
    classID: 4
    script: {fileID: 0}
  - curve:
      serializedVersion: 2
      m_Curve: []
      m_PreInfinity: 2
      m_PostInfinity: 2
      m_RotationOrder: 4
    attribute: m_LocalEulerAngles.y
    path: Body/Torso/Neck
    classID: 4
    script: {fileID: 0}
  - curve:
      serializedVersion: 2
      m_Curve: []
      m_PreInfinity: 2
      m_PostInfinity: 2
      m_RotationOrder: 4
    attribute: m_LocalEulerAngles.x
    path: Body/Torso/Neck
    classID: 4
    script: {fileID: 0}
  - curve:
      serializedVersion: 2
      m_Curve: []
      m_PreInfinity: 2
      m_PostInfinity: 2
      m_RotationOrder: 4
    attribute: m_LocalEulerAngles.z
    path: Body/Torso/LeftShoulder/LeftArm
    classID: 4
    script: {fileID: 0}
  - curve:
      serializedVersion: 2
      m_Curve: []
      m_PreInfinity: 2
      m_PostInfinity: 2
      m_RotationOrder: 4
    attribute: m_LocalEulerAngles.y
    path: Body/Torso/LeftShoulder/LeftArm
    classID: 4
    script: {fileID: 0}
  - curve:
      serializedVersion: 2
      m_Curve: []
      m_PreInfinity: 2
      m_PostInfinity: 2
      m_RotationOrder: 4
    attribute: m_LocalEulerAngles.x
    path: Body/Torso/LeftShoulder/LeftArm
    classID: 4
    script: {fileID: 0}
  - curve:
      serializedVersion: 2
      m_Curve: []
      m_PreInfinity: 2
      m_PostInfinity: 2
      m_RotationOrder: 4
    attribute: m_LocalEulerAngles.z
    path: Body/Torso/RightShoulder
    classID: 4
    script: {fileID: 0}
  - curve:
      serializedVersion: 2
      m_Curve: []
      m_PreInfinity: 2
      m_PostInfinity: 2
      m_RotationOrder: 4
    attribute: m_LocalEulerAngles.y
    path: Body/Torso/RightShoulder
    classID: 4
    script: {fileID: 0}
  - curve:
      serializedVersion: 2
      m_Curve: []
      m_PreInfinity: 2
      m_PostInfinity: 2
      m_RotationOrder: 4
    attribute: m_LocalEulerAngles.x
    path: Body/Torso/RightShoulder
    classID: 4
    script: {fileID: 0}
  - curve:
      serializedVersion: 2
      m_Curve: []
      m_PreInfinity: 2
      m_PostInfinity: 2
      m_RotationOrder: 4
    attribute: m_LocalEulerAngles.z
    path: Body/Torso/RightShoulder/RightArm
    classID: 4
    script: {fileID: 0}
  - curve:
      serializedVersion: 2
      m_Curve: []
      m_PreInfinity: 2
      m_PostInfinity: 2
      m_RotationOrder: 4
    attribute: m_LocalEulerAngles.y
    path: Body/Torso/RightShoulder/RightArm
    classID: 4
    script: {fileID: 0}
  - curve:
      serializedVersion: 2
      m_Curve: []
      m_PreInfinity: 2
      m_PostInfinity: 2
      m_RotationOrder: 4
    attribute: m_LocalEulerAngles.x
    path: Body/Torso/RightShoulder/RightArm
    classID: 4
    script: {fileID: 0}
  - curve:
      serializedVersion: 2
      m_Curve: []
      m_PreInfinity: 2
      m_PostInfinity: 2
      m_RotationOrder: 4
    attribute: m_LocalEulerAngles.z
    path: Body/Torso/LeftShoulder
    classID: 4
    script: {fileID: 0}
  - curve:
      serializedVersion: 2
      m_Curve: []
      m_PreInfinity: 2
      m_PostInfinity: 2
      m_RotationOrder: 4
    attribute: m_LocalEulerAngles.y
    path: Body/Torso/LeftShoulder
    classID: 4
    script: {fileID: 0}
  - curve:
      serializedVersion: 2
      m_Curve: []
      m_PreInfinity: 2
      m_PostInfinity: 2
      m_RotationOrder: 4
    attribute: m_LocalEulerAngles.x
    path: Body/Torso/LeftShoulder
    classID: 4
    script: {fileID: 0}
  - curve:
      serializedVersion: 2
      m_Curve: []
      m_PreInfinity: 2
      m_PostInfinity: 2
      m_RotationOrder: 4
    attribute: m_LocalEulerAngles.x
    path: Body/Torso/LeftShoulder/LeftArm/LeftHand
    classID: 4
    script: {fileID: 0}
  - curve:
      serializedVersion: 2
      m_Curve: []
      m_PreInfinity: 2
      m_PostInfinity: 2
      m_RotationOrder: 4
    attribute: m_LocalEulerAngles.y
    path: Body/Torso/LeftShoulder/LeftArm/LeftHand
    classID: 4
    script: {fileID: 0}
  - curve:
      serializedVersion: 2
      m_Curve: []
      m_PreInfinity: 2
      m_PostInfinity: 2
      m_RotationOrder: 4
    attribute: m_LocalEulerAngles.z
    path: Body/Torso/LeftShoulder/LeftArm/LeftHand
    classID: 4
    script: {fileID: 0}
  - curve:
      serializedVersion: 2
      m_Curve: []
      m_PreInfinity: 2
      m_PostInfinity: 2
      m_RotationOrder: 4
    attribute: m_LocalEulerAngles.x
    path: Body/Torso/Neck/Head/Hair
    classID: 4
    script: {fileID: 0}
  - curve:
      serializedVersion: 2
      m_Curve: []
      m_PreInfinity: 2
      m_PostInfinity: 2
      m_RotationOrder: 4
    attribute: m_LocalEulerAngles.y
    path: Body/Torso/Neck/Head/Hair
    classID: 4
    script: {fileID: 0}
  - curve:
      serializedVersion: 2
      m_Curve: []
      m_PreInfinity: 2
      m_PostInfinity: 2
      m_RotationOrder: 4
    attribute: m_LocalEulerAngles.z
    path: Body/Torso/Neck/Head/Hair
    classID: 4
    script: {fileID: 0}
  m_HasGenericRootTransform: 0
  m_HasMotionFloatCurves: 0
  m_GenerateMotionCurves: 0
  m_Events: []
