%YAML 1.1
%TAG !u! tag:unity3d.com,2011:
--- !u!74 &7400000
AnimationClip:
  m_ObjectHideFlags: 0
  m_PrefabParentObject: {fileID: 0}
  m_PrefabInternal: {fileID: 0}
  m_Name: MaleListening
  serializedVersion: 6
  m_Legacy: 0
  m_Compressed: 0
  m_UseHighQualityCurve: 1
  m_RotationCurves: []
  m_CompressedRotationCurves: []
  m_EulerCurves:
  - curve:
      serializedVersion: 2
      m_Curve:
      - time: 0
        value: {x: 0, y: 0, z: 0}
        inSlope: {x: 0, y: 0, z: -54.32939}
        outSlope: {x: 0, y: 0, z: -54.32939}
        tangentMode: 0
      - time: 0.25
        value: {x: 0, y: 0, z: -13.582348}
        inSlope: {x: 0, y: 0, z: 5.2289677}
        outSlope: {x: 0, y: 0, z: 5.2289677}
        tangentMode: 0
      - time: 2.2333333
        value: {x: 0, y: 0, z: -10.017001}
        inSlope: {x: 0, y: 0, z: -1.0204712}
        outSlope: {x: 0, y: 0, z: -1.0204712}
        tangentMode: 0
      - time: 3.3333333
        value: {x: 0, y: 0, z: -12.277233}
        inSlope: {x: 0, y: 0, z: -2.9004197}
        outSlope: {x: 0, y: 0, z: -2.9004197}
        tangentMode: 0
      - time: 4.0833335
        value: {x: 0, y: 0, z: 0}
        inSlope: {x: 0, y: 0, z: 16.369638}
        outSlope: {x: 0, y: 0, z: 16.369638}
        tangentMode: 0
      m_PreInfinity: 2
      m_PostInfinity: 2
      m_RotationOrder: 4
    path: Torso/TorsoUpper/LeftArm
  - curve:
      serializedVersion: 2
      m_Curve:
      - time: 0
        value: {x: 0, y: 0, z: 0}
        inSlope: {x: 0, y: 0, z: -281.35602}
        outSlope: {x: 0, y: 0, z: -281.35602}
        tangentMode: 0
      - time: 0.25
        value: {x: 0, y: 0, z: -70.339005}
        inSlope: {x: 0, y: 0, z: 0}
        outSlope: {x: 0, y: 0, z: 0}
        tangentMode: 0
      - time: 3.2666667
        value: {x: 0, y: 0, z: -70.47695}
        inSlope: {x: 0, y: 0, z: 7.053909}
        outSlope: {x: 0, y: 0, z: 7.053909}
        tangentMode: 0
      - time: 4.0833335
        value: {x: 0, y: 0, z: 0}
        inSlope: {x: 0, y: 0, z: 86.29829}
        outSlope: {x: 0, y: 0, z: 86.29829}
        tangentMode: 0
      m_PreInfinity: 2
      m_PostInfinity: 2
      m_RotationOrder: 4
    path: Torso/TorsoUpper/LeftArm/LeftForearm
  - curve:
      serializedVersion: 2
      m_Curve:
      - time: 0
        value: {x: 0, y: 0, z: 0}
        inSlope: {x: 0, y: 0, z: 12.57206}
        outSlope: {x: 0, y: 0, z: 12.57206}
        tangentMode: 0
      - time: 0.25
        value: {x: 0, y: 0, z: 3.143015}
        inSlope: {x: 0, y: 0, z: 0}
        outSlope: {x: 0, y: 0, z: 0}
        tangentMode: 0
      - time: 3.1833334
        value: {x: 0, y: 0, z: 0.9646492}
        inSlope: {x: 0, y: 0, z: -3.2281003}
        outSlope: {x: 0, y: 0, z: -3.2281003}
        tangentMode: 0
      - time: 4.0833335
        value: {x: 0, y: 0, z: 0}
        inSlope: {x: 0, y: 0, z: -1.0718323}
        outSlope: {x: 0, y: 0, z: -1.0718323}
        tangentMode: 0
      m_PreInfinity: 2
      m_PostInfinity: 2
      m_RotationOrder: 4
    path: Torso/TorsoUpper/LeftArm/LeftForearm/LeftHand
  - curve:
      serializedVersion: 2
      m_Curve:
      - time: 0
        value: {x: 0, y: 0, z: 0}
        inSlope: {x: 0, y: 0, z: -125.88}
        outSlope: {x: 0, y: 0, z: -125.88}
        tangentMode: 0
      - time: 0.06666667
        value: {x: 0, y: 0, z: -8.392}
        inSlope: {x: 0, y: 0, z: -59.66226}
        outSlope: {x: 0, y: 0, z: -59.66226}
        tangentMode: 0
      - time: 0.5833333
        value: {x: 0, y: 0, z: -5.005}
        inSlope: {x: 0, y: 0, z: 7.740472}
        outSlope: {x: 0, y: 0, z: 7.740472}
        tangentMode: 0
      - time: 0.95
        value: {x: 0, y: 0, z: -1.047328}
        inSlope: {x: 0, y: 0, z: 11.722932}
        outSlope: {x: 0, y: 0, z: 11.722932}
        tangentMode: 0
      - time: 1.3833333
        value: {x: 0, y: 0, z: 2.1353676}
        inSlope: {x: 0, y: 0, z: 0}
        outSlope: {x: 0, y: 0, z: 0}
        tangentMode: 0
      - time: 1.4666667
        value: {x: 0, y: 0, z: 2.1313622}
        inSlope: {x: 0, y: 0, z: -0.09537899}
        outSlope: {x: 0, y: 0, z: -0.09537899}
        tangentMode: 0
      - time: 2.2333333
        value: {x: 0, y: 0, z: 1.7787273}
        inSlope: {x: 0, y: 0, z: -0.76077133}
        outSlope: {x: 0, y: 0, z: -0.76077133}
        tangentMode: 0
      - time: 3.3
        value: {x: 0, y: 0, z: 0.7471118}
        inSlope: {x: 0, y: 0, z: -1.0500724}
        outSlope: {x: 0, y: 0, z: -1.0500724}
        tangentMode: 0
      - time: 4.0833335
        value: {x: 0, y: 0, z: 0}
        inSlope: {x: 0, y: 0, z: -0.7908768}
        outSlope: {x: 0, y: 0, z: -0.7908768}
        tangentMode: 0
      m_PreInfinity: 2
      m_PostInfinity: 2
      m_RotationOrder: 4
    path: Torso/TorsoUpper/RightArm
  - curve:
      serializedVersion: 2
      m_Curve:
      - time: 0
        value: {x: 0, y: 0, z: 0}
        inSlope: {x: 0, y: 0, z: 230.96455}
        outSlope: {x: 0, y: 0, z: 230.96455}
        tangentMode: 0
      - time: 0.65000004
        value: {x: 0, y: 0, z: 150.12697}
        inSlope: {x: 0, y: 0, z: 9.0714655}
        outSlope: {x: 0, y: 0, z: 9.0714655}
        tangentMode: 0
      - time: 0.95
        value: {x: 0, y: 0, z: 152.5403}
        inSlope: {x: 0, y: 0, z: 6.9187164}
        outSlope: {x: 0, y: 0, z: 6.9187164}
        tangentMode: 0
      - time: 1.15
        value: {x: 0, y: 0, z: 153.75201}
        inSlope: {x: 0, y: 0, z: 5.1545343}
        outSlope: {x: 0, y: 0, z: 5.1545343}
        tangentMode: 0
      - time: 1.9166666
        value: {x: 0, y: 0, z: 154.42386}
        inSlope: {x: 0, y: 0, z: -4.046516}
        outSlope: {x: 0, y: 0, z: -4.046516}
        tangentMode: 0
      - time: 2.2333333
        value: {x: 0, y: 0, z: 152.37943}
        inSlope: {x: 0, y: 0, z: -8.975657}
        outSlope: {x: 0, y: 0, z: -8.975657}
        tangentMode: 0
      - time: 2.7666667
        value: {x: 0, y: 0, z: 145.06407}
        inSlope: {x: 0, y: 0, z: -18.768898}
        outSlope: {x: 0, y: 0, z: -18.768898}
        tangentMode: 0
      - time: 2.8333333
        value: {x: 0, y: 0, z: 142.85828}
        inSlope: {x: 0, y: 0, z: -46.88815}
        outSlope: {x: 0, y: 0, z: -46.88815}
        tangentMode: 0
      - time: 4.0833335
        value: {x: 0, y: 0, z: 0}
        inSlope: {x: 0, y: 0, z: 0}
        outSlope: {x: 0, y: 0, z: 0}
        tangentMode: 0
      m_PreInfinity: 2
      m_PostInfinity: 2
      m_RotationOrder: 4
    path: Torso/TorsoUpper/RightArm/RightForearm
  - curve:
      serializedVersion: 2
      m_Curve:
      - time: 0
        value: {x: 0, y: 0, z: 0}
        inSlope: {x: 0, y: 0, z: -26.076647}
        outSlope: {x: 0, y: 0, z: -26.076647}
        tangentMode: 0
      - time: 0.95
        value: {x: 0, y: 0, z: -24.772814}
        inSlope: {x: 0, y: 0, z: -13.968069}
        outSlope: {x: 0, y: 0, z: -13.968069}
        tangentMode: 0
      - time: 1.3333334
        value: {x: 0, y: 0, z: -28.514713}
        inSlope: {x: 0, y: 0, z: -5.806068}
        outSlope: {x: 0, y: 0, z: -5.806068}
        tangentMode: 0
      - time: 2.2333333
        value: {x: 0, y: 0, z: -27.15916}
        inSlope: {x: 0, y: 0, z: 7.4337854}
        outSlope: {x: 0, y: 0, z: 7.4337854}
        tangentMode: 0
      - time: 3.7166667
        value: {x: 0, y: 0, z: -2.347351}
        inSlope: {x: 0, y: 0, z: 11.564464}
        outSlope: {x: 0, y: 0, z: 11.564464}
        tangentMode: 0
      - time: 4.0833335
        value: {x: 0, y: 0, z: 0}
        inSlope: {x: 0, y: 0, z: 6.4018645}
        outSlope: {x: 0, y: 0, z: 6.4018645}
        tangentMode: 0
      m_PreInfinity: 2
      m_PostInfinity: 2
      m_RotationOrder: 4
    path: Torso/TorsoUpper/RightArm/RightForearm/RightHand
  - curve:
      serializedVersion: 2
      m_Curve:
      - time: 0
        value: {x: 0, y: 0, z: 0}
        inSlope: {x: 0, y: 0, z: -1.7145283}
        outSlope: {x: 0, y: 0, z: -1.7145283}
        tangentMode: 0
      - time: 1.7666667
        value: {x: 0, y: 0, z: -3.029}
        inSlope: {x: 0, y: 0, z: -0.27593774}
        outSlope: {x: 0, y: 0, z: -0.27593774}
        tangentMode: 0
      - time: 3.2333333
        value: {x: 0, y: 0, z: -1.3237758}
        inSlope: {x: 0, y: 0, z: 3.9667902}
        outSlope: {x: 0, y: 0, z: 3.9667902}
        tangentMode: 0
      - time: 4.0833335
        value: {x: 0, y: 0, z: 0}
        inSlope: {x: 0, y: 0, z: 1.557383}
        outSlope: {x: 0, y: 0, z: 1.557383}
        tangentMode: 0
      m_PreInfinity: 2
      m_PostInfinity: 2
      m_RotationOrder: 4
    path: Torso
  - curve:
      serializedVersion: 2
      m_Curve:
      - time: 0
        value: {x: 0, y: 0, z: 0}
        inSlope: {x: 0, y: 0, z: 4.217037}
        outSlope: {x: 0, y: 0, z: 4.217037}
        tangentMode: 0
      - time: 1.35
        value: {x: 0, y: 0, z: 5.6930003}
        inSlope: {x: 0, y: 0, z: 2.1085186}
        outSlope: {x: 0, y: 0, z: 2.1085186}
        tangentMode: 0
      - time: 2.8666666
        value: {x: 0, y: 0, z: 5.6930003}
        inSlope: {x: 0, y: 0, z: -2.3395886}
        outSlope: {x: 0, y: 0, z: -2.3395886}
        tangentMode: 0
      - time: 4.0833335
        value: {x: 0, y: 0, z: 0}
        inSlope: {x: 0, y: 0, z: -4.6791773}
        outSlope: {x: 0, y: 0, z: -4.6791773}
        tangentMode: 0
      m_PreInfinity: 2
      m_PostInfinity: 2
      m_RotationOrder: 4
    path: Torso/TorsoUpper
  - curve:
      serializedVersion: 2
      m_Curve:
      - time: 0
        value: {x: 0, y: 0, z: 0}
        inSlope: {x: 0, y: 0, z: 5.853585}
        outSlope: {x: 0, y: 0, z: 5.853585}
        tangentMode: 0
      - time: 0.56666666
        value: {x: 0, y: 0, z: 3.3170314}
        inSlope: {x: 0, y: 0, z: 4.032402}
        outSlope: {x: 0, y: 0, z: 4.032402}
        tangentMode: 0
      - time: 1.25
        value: {x: 0, y: 0, z: 4.8280315}
        inSlope: {x: 0, y: 0, z: 1.1056099}
        outSlope: {x: 0, y: 0, z: 1.1056099}
        tangentMode: 0
      - time: 3.7
        value: {x: 0, y: 0, z: 4.8280315}
        inSlope: {x: 0, y: 0, z: -6.035042}
        outSlope: {x: 0, y: 0, z: -6.035042}
        tangentMode: 0
      - time: 4.1
        value: {x: 0, y: 0, z: 0}
        inSlope: {x: 0, y: 0, z: -12.070084}
        outSlope: {x: 0, y: 0, z: -12.070084}
        tangentMode: 0
      m_PreInfinity: 2
      m_PostInfinity: 2
      m_RotationOrder: 4
    path: Torso/TorsoUpper/Neck
  - curve:
      serializedVersion: 2
      m_Curve:
      - time: 0
        value: {x: 0, y: 0, z: 0}
        inSlope: {x: 0, y: 0, z: 6.195246}
        outSlope: {x: 0, y: 0, z: 6.195246}
        tangentMode: 0
      - time: 0.56666666
        value: {x: 0, y: 0, z: 3.5106394}
        inSlope: {x: 0, y: 0, z: 0.15749645}
        outSlope: {x: 0, y: 0, z: 0.15749645}
        tangentMode: 0
      - time: 2.7333333
        value: {x: 0, y: 0, z: 3.516706}
        inSlope: {x: 0, y: 0, z: -0.057974473}
        outSlope: {x: 0, y: 0, z: -0.057974473}
        tangentMode: 0
      - time: 3.1
        value: {x: 0, y: 0, z: 0}
        inSlope: {x: 0, y: 0, z: -4.79551}
        outSlope: {x: 0, y: 0, z: -4.79551}
        tangentMode: 0
      - time: 4.0833335
        value: {x: 0, y: 0, z: 0}
        inSlope: {x: 0, y: 0, z: 0}
        outSlope: {x: 0, y: 0, z: 0}
        tangentMode: 0
      m_PreInfinity: 2
      m_PostInfinity: 2
      m_RotationOrder: 4
    path: Torso/TorsoUpper/Neck/Head
  - curve:
      serializedVersion: 2
      m_Curve:
      - time: 0
        value: {x: 0, y: 0, z: 0}
        inSlope: {x: 0, y: 0, z: 10.838299}
        outSlope: {x: 0, y: 0, z: 10.838299}
        tangentMode: 0
      - time: 0.78333336
        value: {x: 0, y: 0, z: 8.490001}
        inSlope: {x: 0, y: 0, z: 1.7405088}
        outSlope: {x: 0, y: 0, z: 1.7405088}
        tangentMode: 0
      - time: 3.05
        value: {x: 0, y: 0, z: 8.490001}
        inSlope: {x: 0, y: 0, z: -1.9348869}
        outSlope: {x: 0, y: 0, z: -1.9348869}
        tangentMode: 0
      - time: 4.0833335
        value: {x: 0, y: 0, z: 0}
        inSlope: {x: 0, y: 0, z: -8.216128}
        outSlope: {x: 0, y: 0, z: -8.216128}
        tangentMode: 0
      m_PreInfinity: 2
      m_PostInfinity: 2
      m_RotationOrder: 4
    path: RightLeg
  - curve:
      serializedVersion: 2
      m_Curve:
      - time: 0
        value: {x: 0, y: 0, z: 0}
        inSlope: {x: 0, y: 0, z: -23.919575}
        outSlope: {x: 0, y: 0, z: -23.919575}
        tangentMode: 0
      - time: 0.78333336
        value: {x: 0, y: 0, z: -18.737001}
        inSlope: {x: 0, y: 0, z: -5.260307}
        outSlope: {x: 0, y: 0, z: -5.260307}
        tangentMode: 0
      - time: 3.05
        value: {x: 0, y: 0, z: -18.737001}
        inSlope: {x: 0, y: 0, z: 3.3667355}
        outSlope: {x: 0, y: 0, z: 3.3667355}
        tangentMode: 0
      - time: 4.0833335
        value: {x: 0, y: 0, z: 0}
        inSlope: {x: 0, y: 0, z: 18.132578}
        outSlope: {x: 0, y: 0, z: 18.132578}
        tangentMode: 0
      m_PreInfinity: 2
      m_PostInfinity: 2
      m_RotationOrder: 4
    path: RightLeg/RightLegLower
  - curve:
      serializedVersion: 2
      m_Curve:
      - time: 0
        value: {x: 0, y: 0, z: 0}
        inSlope: {x: 0, y: 0, z: -5.5353193}
        outSlope: {x: 0, y: 0, z: -5.5353193}
        tangentMode: 0
      - time: 0.78333336
        value: {x: 0, y: 0, z: -4.3360004}
        inSlope: {x: 0, y: 0, z: -1.8553631}
        outSlope: {x: 0, y: 0, z: -1.8553631}
        tangentMode: 0
      - time: 3.05
        value: {x: 0, y: 0, z: -4.3360004}
        inSlope: {x: 0, y: 0, z: 1.1335261}
        outSlope: {x: 0, y: 0, z: 1.1335261}
        tangentMode: 0
      - time: 4.0833335
        value: {x: 0, y: 0, z: 0}
        inSlope: {x: 0, y: 0, z: 4.196129}
        outSlope: {x: 0, y: 0, z: 4.196129}
        tangentMode: 0
      m_PreInfinity: 2
      m_PostInfinity: 2
      m_RotationOrder: 4
    path: RightLeg/RightLegLower/RightShoe
  - curve:
      serializedVersion: 2
      m_Curve:
      - time: 0
        value: {x: 0, y: 0, z: 0}
        inSlope: {x: 0, y: 0, z: -2.7306385}
        outSlope: {x: 0, y: 0, z: -2.7306385}
        tangentMode: 0
      - time: 0.78333336
        value: {x: 0, y: 0, z: -2.1390002}
        inSlope: {x: 0, y: 0, z: 0}
        outSlope: {x: 0, y: 0, z: 0}
        tangentMode: 0
      - time: 3.3166666
        value: {x: 0, y: 0, z: -2.1390002}
        inSlope: {x: 0, y: 0, z: 0}
        outSlope: {x: 0, y: 0, z: 0}
        tangentMode: 0
      - time: 4.0833335
        value: {x: 0, y: 0, z: 0}
        inSlope: {x: 0, y: 0, z: 2.7899995}
        outSlope: {x: 0, y: 0, z: 2.7899995}
        tangentMode: 0
      m_PreInfinity: 2
      m_PostInfinity: 2
      m_RotationOrder: 4
    path: Torso/TorsoUpper/Neck/Head/Face/Right/RightEyebrow
  - curve:
      serializedVersion: 2
      m_Curve:
      - time: 0
        value: {x: 0, y: 0, z: 0}
        inSlope: {x: 0, y: 0, z: -0.22045094}
        outSlope: {x: 0, y: 0, z: -0.22045094}
        tangentMode: 0
      - time: 0.78333336
        value: {x: 0, y: 0, z: -0.17268658}
        inSlope: {x: 0, y: 0, z: 0}
        outSlope: {x: 0, y: 0, z: 0}
        tangentMode: 0
      - time: 3.3166666
        value: {x: 0, y: 0, z: -0.17268658}
        inSlope: {x: 0, y: 0, z: 0}
        outSlope: {x: 0, y: 0, z: 0}
        tangentMode: 0
      - time: 4.0833335
        value: {x: 0, y: 0, z: 0}
        inSlope: {x: 0, y: 0, z: 0.2252433}
        outSlope: {x: 0, y: 0, z: 0.2252433}
        tangentMode: 0
      m_PreInfinity: 2
      m_PostInfinity: 2
      m_RotationOrder: 4
    path: Torso/TorsoUpper/Neck/Head/Face/Left/LeftEyebrow
  m_PositionCurves:
  - curve:
      serializedVersion: 2
      m_Curve:
      - time: 0
        value: {x: -0.06863463, y: 0.20471539, z: 0}
        inSlope: {x: 0.00000011413655, y: -0.042127743, z: 0}
        outSlope: {x: 0.00000011413655, y: -0.042127743, z: 0}
        tangentMode: 0
      - time: 0.78333336
        value: {x: -0.06863454, y: 0.17171532, z: 0}
        inSlope: {x: 0, y: 0, z: 0}
        outSlope: {x: 0, y: 0, z: 0}
        tangentMode: 0
      - time: 3.3166666
        value: {x: -0.06863454, y: 0.17171532, z: 0}
        inSlope: {x: 0, y: 0, z: 0}
        outSlope: {x: 0, y: 0, z: 0}
        tangentMode: 0
      - time: 4.0833335
        value: {x: -0.06863463, y: 0.20471539, z: 0}
        inSlope: {x: -0.00000011661775, y: 0.043043554, z: 0}
        outSlope: {x: -0.00000011661775, y: 0.043043554, z: 0}
        tangentMode: 0
      m_PreInfinity: 2
      m_PostInfinity: 2
      m_RotationOrder: 4
    path: Torso/TorsoUpper/Neck/Head/Face/Right/RightEyebrow
  - curve:
      serializedVersion: 2
      m_Curve:
      - time: 0
        value: {x: -0.053669512, y: 0.20433445, z: 0}
        inSlope: {x: 0.0076597417, y: 0.012433678, z: 0}
        outSlope: {x: 0.0076597417, y: 0.012433678, z: 0}
        tangentMode: 0
      - time: 0.78333336
        value: {x: -0.04766938, y: 0.21427286, z: 0}
        inSlope: {x: 0, y: 0.0010199449, z: 0}
        outSlope: {x: 0, y: 0.0010199449, z: 0}
        tangentMode: 0
      - time: 0.8
        value: {x: -0.04766938, y: 0.2142814, z: 0}
        inSlope: {x: 0, y: 0, z: 0}
        outSlope: {x: 0, y: 0, z: 0}
        tangentMode: 0
      - time: 3.3166666
        value: {x: -0.04766938, y: 0.2142814, z: 0}
        inSlope: {x: 0, y: 0, z: 0}
        outSlope: {x: 0, y: 0, z: 0}
        tangentMode: 0
      - time: 3.3333333
        value: {x: -0.047674987, y: 0.2142814, z: 0}
        inSlope: {x: -0.0006694478, y: 0, z: 0}
        outSlope: {x: -0.0006694478, y: 0, z: 0}
        tangentMode: 0
      - time: 4.0833335
        value: {x: -0.053669512, y: 0.20433445, z: 0}
        inSlope: {x: -0.007826256, y: -0.013262586, z: 0}
        outSlope: {x: -0.007826256, y: -0.013262586, z: 0}
        tangentMode: 0
      m_PreInfinity: 2
      m_PostInfinity: 2
      m_RotationOrder: 4
    path: Torso/TorsoUpper/Neck/Head/Face/Left/LeftEyebrow
  - curve:
      serializedVersion: 2
      m_Curve:
      - time: 0
        value: {x: 0.054000854, y: 0.2729988, z: 0}
        inSlope: {x: 0, y: 0, z: 0}
        outSlope: {x: 0, y: 0, z: 0}
        tangentMode: 0
      - time: 0.56666666
        value: {x: 0.06, y: 0.13, z: 0}
        inSlope: {x: 0, y: 0, z: 0}
        outSlope: {x: 0, y: 0, z: 0}
        tangentMode: 0
      - time: 3.9
        value: {x: 0.06, y: 0.13, z: 0}
        inSlope: {x: 0, y: 0, z: 0}
        outSlope: {x: 0, y: 0, z: 0}
        tangentMode: 0
      - time: 4.0833335
        value: {x: 0.054000854, y: 0.2729988, z: 0}
        inSlope: {x: 0, y: 0, z: 0}
        outSlope: {x: 0, y: 0, z: 0}
        tangentMode: 0
      m_PreInfinity: 2
      m_PostInfinity: 2
      m_RotationOrder: 4
    path: Torso/TorsoUpper/Neck/Head
  - curve:
      serializedVersion: 2
      m_Curve:
      - time: 0
        value: {x: 0.36699867, y: 4.9050007, z: 0}
        inSlope: {x: 0, y: 0, z: 0}
        outSlope: {x: 0, y: 0, z: 0}
        tangentMode: 0
      - time: 0.56666666
        value: {x: 0.37, y: 4.86, z: 0}
        inSlope: {x: 0, y: 0, z: 0}
        outSlope: {x: 0, y: 0, z: 0}
        tangentMode: 0
      - time: 3.9
        value: {x: 0.37, y: 4.86, z: 0}
        inSlope: {x: 0, y: 0, z: 0}
        outSlope: {x: 0, y: 0, z: 0}
        tangentMode: 0
      - time: 4.0833335
        value: {x: 0.36699867, y: 4.9050007, z: 0}
        inSlope: {x: 0, y: 0, z: 0}
        outSlope: {x: 0, y: 0, z: 0}
        tangentMode: 0
      m_PreInfinity: 2
      m_PostInfinity: 2
      m_RotationOrder: 4
    path: Torso/TorsoUpper/Neck
  - curve:
      serializedVersion: 2
      m_Curve:
      - time: 0
        value: {x: -1.269001, y: 4.118, z: 0}
        inSlope: {x: -0.001536883, y: 0.11076928, z: 0}
        outSlope: {x: -0.001536883, y: 0.11076928, z: 0}
        tangentMode: 0
      - time: 0.65
        value: {x: -1.27, y: 4.19, z: 0}
        inSlope: {x: -0.0007684415, y: 0.05538464, z: 0}
        outSlope: {x: -0.0007684415, y: 0.05538464, z: 0}
        tangentMode: 0
      - time: 3.2166667
        value: {x: -1.27, y: 4.19, z: 0}
        inSlope: {x: 0.000576331, y: -0.04153847, z: 0}
        outSlope: {x: 0.000576331, y: -0.04153847, z: 0}
        tangentMode: 0
      - time: 4.0833335
        value: {x: -1.269001, y: 4.118, z: 0}
        inSlope: {x: 0.001152662, y: -0.08307694, z: 0}
        outSlope: {x: 0.001152662, y: -0.08307694, z: 0}
        tangentMode: 0
      m_PreInfinity: 2
      m_PostInfinity: 2
      m_RotationOrder: 4
    path: Torso/TorsoUpper/RightArm
  m_ScaleCurves: []
  m_FloatCurves:
  - curve:
      serializedVersion: 2
      m_Curve:
      - time: 0
        value: 0
        inSlope: Infinity
        outSlope: Infinity
        tangentMode: 31
      - time: 0.9166667
        value: 1
        inSlope: Infinity
        outSlope: Infinity
        tangentMode: 31
      - time: 1.0333333
        value: 0
        inSlope: Infinity
        outSlope: Infinity
        tangentMode: 31
      - time: 1.8833333
        value: 1
        inSlope: Infinity
        outSlope: Infinity
        tangentMode: 31
      - time: 2
        value: 0
        inSlope: Infinity
        outSlope: Infinity
        tangentMode: 31
      - time: 3.4833333
        value: 1
        inSlope: Infinity
        outSlope: Infinity
        tangentMode: 31
      - time: 3.6
        value: 0
        inSlope: Infinity
        outSlope: Infinity
        tangentMode: 31
      m_PreInfinity: 2
      m_PostInfinity: 2
      m_RotationOrder: 4
    attribute: m_IsActive
    path: Torso/TorsoUpper/Neck/Head/Face/Right/EyeRightClosed
    classID: 1
    script: {fileID: 0}
  - curve:
      serializedVersion: 2
      m_Curve:
      - time: 0
        value: 0
        inSlope: Infinity
        outSlope: Infinity
        tangentMode: 31
      - time: 0.9166667
        value: 1
        inSlope: Infinity
        outSlope: Infinity
        tangentMode: 31
      - time: 1.0333333
        value: 0
        inSlope: Infinity
        outSlope: Infinity
        tangentMode: 31
      - time: 1.8833333
        value: 1
        inSlope: Infinity
        outSlope: Infinity
        tangentMode: 31
      - time: 2
        value: 0
        inSlope: Infinity
        outSlope: Infinity
        tangentMode: 31
      - time: 3.4833333
        value: 1
        inSlope: Infinity
        outSlope: Infinity
        tangentMode: 31
      - time: 3.6
        value: 0
        inSlope: Infinity
        outSlope: Infinity
        tangentMode: 31
      m_PreInfinity: 2
      m_PostInfinity: 2
      m_RotationOrder: 4
    attribute: m_IsActive
    path: Torso/TorsoUpper/Neck/Head/Face/Left/EyeLeftClosed
    classID: 1
    script: {fileID: 0}
  - curve:
      serializedVersion: 2
      m_Curve:
      - time: 0
        value: 0
        inSlope: Infinity
        outSlope: Infinity
        tangentMode: 31
      - time: 0.083333336
        value: 1
        inSlope: Infinity
        outSlope: Infinity
        tangentMode: 31
      - time: 3.9833333
        value: 0
        inSlope: Infinity
        outSlope: Infinity
        tangentMode: 31
      m_PreInfinity: 2
      m_PostInfinity: 2
      m_RotationOrder: 4
    attribute: m_IsActive
    path: Torso/TorsoUpper/RightArm/RightForearm/RightForearmFront
    classID: 1
    script: {fileID: 0}
  - curve:
      serializedVersion: 2
      m_Curve:
      - time: 0
        value: 1
        inSlope: Infinity
        outSlope: Infinity
        tangentMode: 31
      - time: 0.083333336
        value: 0
        inSlope: Infinity
        outSlope: Infinity
        tangentMode: 31
      - time: 3.9833333
        value: 1
        inSlope: Infinity
        outSlope: Infinity
        tangentMode: 31
      m_PreInfinity: 2
      m_PostInfinity: 2
      m_RotationOrder: 4
    attribute: m_IsActive
    path: Torso/TorsoUpper/RightArm/RightForearm/RightForearm
    classID: 1
    script: {fileID: 0}
  - curve:
      serializedVersion: 2
      m_Curve:
      - time: 0
        value: 0
        inSlope: Infinity
        outSlope: Infinity
        tangentMode: 31
      - time: 0.083333336
        value: 1
        inSlope: Infinity
        outSlope: Infinity
        tangentMode: 31
      - time: 0.6
        value: 1
        inSlope: Infinity
        outSlope: Infinity
        tangentMode: 31
      - time: 3.1666667
        value: 1
        inSlope: Infinity
        outSlope: Infinity
        tangentMode: 31
      - time: 4
        value: 0
        inSlope: Infinity
        outSlope: Infinity
        tangentMode: 31
      m_PreInfinity: 2
      m_PostInfinity: 2
      m_RotationOrder: 4
    attribute: m_IsActive
    path: Torso/TorsoUpper/RightArm/RightForearm/RightHand/HandRightIdleFront
    classID: 1
    script: {fileID: 0}
  - curve:
      serializedVersion: 2
      m_Curve:
      - time: 0
        value: 1
        inSlope: Infinity
        outSlope: Infinity
        tangentMode: 31
      - time: 0.083333336
        value: 0
        inSlope: Infinity
        outSlope: Infinity
        tangentMode: 31
      - time: 4
        value: 1
        inSlope: Infinity
        outSlope: Infinity
        tangentMode: 31
      m_PreInfinity: 2
      m_PostInfinity: 2
      m_RotationOrder: 4
    attribute: m_IsActive
    path: Torso/TorsoUpper/RightArm/RightForearm/RightHand/HandRightIdle
    classID: 1
    script: {fileID: 0}
  - curve:
      serializedVersion: 2
      m_Curve:
      - time: 0
        value: 0
        inSlope: Infinity
        outSlope: Infinity
        tangentMode: 31
      - time: 0.6
        value: 0
        inSlope: Infinity
        outSlope: Infinity
        tangentMode: 31
      - time: 3.1666667
        value: 0
        inSlope: Infinity
        outSlope: Infinity
        tangentMode: 31
      m_PreInfinity: 2
      m_PostInfinity: 2
      m_RotationOrder: 4
    attribute: m_IsActive
    path: Torso/TorsoUpper/RightArm/RightForearm/RightHand/HandRightThinkingFront
    classID: 1
    script: {fileID: 0}
  - curve:
      serializedVersion: 2
      m_Curve:
      - time: 0
        value: 1
        inSlope: Infinity
        outSlope: Infinity
        tangentMode: 31
      - time: 0.083333336
        value: 0
        inSlope: Infinity
        outSlope: Infinity
        tangentMode: 31
      - time: 3.9833333
        value: 1
        inSlope: Infinity
        outSlope: Infinity
        tangentMode: 31
      m_PreInfinity: 2
      m_PostInfinity: 2
      m_RotationOrder: 4
    attribute: m_IsActive
    path: Torso/TorsoUpper/RightArm/RightForearm/RightHand/ArmletRight
    classID: 1
    script: {fileID: 0}
  - curve:
      serializedVersion: 2
      m_Curve:
      - time: 0
        value: 0
        inSlope: Infinity
        outSlope: Infinity
        tangentMode: 31
      - time: 0.083333336
        value: 1
        inSlope: Infinity
        outSlope: Infinity
        tangentMode: 31
      - time: 3.9833333
        value: 0
        inSlope: Infinity
        outSlope: Infinity
        tangentMode: 31
      m_PreInfinity: 2
      m_PostInfinity: 2
      m_RotationOrder: 4
    attribute: m_IsActive
    path: Torso/TorsoUpper/RightArm/RightForearm/RightHand/ArmletRightFront
    classID: 1
    script: {fileID: 0}
  m_PPtrCurves: []
  m_SampleRate: 60
  m_WrapMode: 0
  m_Bounds:
    m_Center: {x: 0, y: 0, z: 0}
    m_Extent: {x: 0, y: 0, z: 0}
  m_ClipBindingConstant:
    genericBindings:
    - path: 68182650
      attribute: 1
      script: {fileID: 0}
      classID: 4
      customType: 0
      isPPtrCurve: 0
    - path: 3676333434
      attribute: 1
      script: {fileID: 0}
      classID: 4
      customType: 0
      isPPtrCurve: 0
    - path: 3228238029
      attribute: 1
      script: {fileID: 0}
      classID: 4
      customType: 0
      isPPtrCurve: 0
    - path: 1457849534
      attribute: 1
      script: {fileID: 0}
      classID: 4
      customType: 0
      isPPtrCurve: 0
    - path: 4050328954
      attribute: 1
      script: {fileID: 0}
      classID: 4
      customType: 0
      isPPtrCurve: 0
    - path: 2363154779
      attribute: 4
      script: {fileID: 0}
      classID: 4
      customType: 14
      isPPtrCurve: 0
    - path: 2818777556
      attribute: 4
      script: {fileID: 0}
      classID: 4
      customType: 14
      isPPtrCurve: 0
    - path: 3498479162
      attribute: 4
      script: {fileID: 0}
      classID: 4
      customType: 14
      isPPtrCurve: 0
    - path: 4050328954
      attribute: 4
      script: {fileID: 0}
      classID: 4
      customType: 14
      isPPtrCurve: 0
    - path: 886241548
      attribute: 4
      script: {fileID: 0}
      classID: 4
      customType: 14
      isPPtrCurve: 0
    - path: 4132506842
      attribute: 4
      script: {fileID: 0}
      classID: 4
      customType: 14
      isPPtrCurve: 0
    - path: 3869152129
      attribute: 4
      script: {fileID: 0}
      classID: 4
      customType: 14
      isPPtrCurve: 0
    - path: 892741652
      attribute: 4
      script: {fileID: 0}
      classID: 4
      customType: 14
      isPPtrCurve: 0
    - path: 1457849534
      attribute: 4
      script: {fileID: 0}
      classID: 4
      customType: 14
      isPPtrCurve: 0
    - path: 3228238029
      attribute: 4
      script: {fileID: 0}
      classID: 4
      customType: 14
      isPPtrCurve: 0
    - path: 2252147196
      attribute: 4
      script: {fileID: 0}
      classID: 4
      customType: 14
      isPPtrCurve: 0
    - path: 3932951488
      attribute: 4
      script: {fileID: 0}
      classID: 4
      customType: 14
      isPPtrCurve: 0
    - path: 3852451787
      attribute: 4
      script: {fileID: 0}
      classID: 4
      customType: 14
      isPPtrCurve: 0
    - path: 68182650
      attribute: 4
      script: {fileID: 0}
      classID: 4
      customType: 14
      isPPtrCurve: 0
    - path: 3676333434
      attribute: 4
      script: {fileID: 0}
      classID: 4
      customType: 14
      isPPtrCurve: 0
    - path: 4020261163
      attribute: 2086281974
      script: {fileID: 0}
      classID: 1
      customType: 0
      isPPtrCurve: 0
    - path: 1697618045
      attribute: 2086281974
      script: {fileID: 0}
      classID: 1
      customType: 0
      isPPtrCurve: 0
    - path: 2392058647
      attribute: 2086281974
      script: {fileID: 0}
      classID: 1
      customType: 0
      isPPtrCurve: 0
    - path: 3741378337
      attribute: 2086281974
      script: {fileID: 0}
      classID: 1
      customType: 0
      isPPtrCurve: 0
    - path: 1121602787
      attribute: 2086281974
      script: {fileID: 0}
      classID: 1
      customType: 0
      isPPtrCurve: 0
    - path: 2255985707
      attribute: 2086281974
      script: {fileID: 0}
      classID: 1
      customType: 0
      isPPtrCurve: 0
    - path: 650148546
      attribute: 2086281974
      script: {fileID: 0}
      classID: 1
      customType: 0
      isPPtrCurve: 0
    - path: 735927263
      attribute: 2086281974
      script: {fileID: 0}
      classID: 1
      customType: 0
      isPPtrCurve: 0
    - path: 3685906131
      attribute: 2086281974
      script: {fileID: 0}
      classID: 1
      customType: 0
      isPPtrCurve: 0
    pptrCurveMapping: []
  m_AnimationClipSettings:
    serializedVersion: 2
    m_AdditiveReferencePoseClip: {fileID: 0}
    m_AdditiveReferencePoseTime: 0
    m_StartTime: 0
    m_StopTime: 4.1
    m_OrientationOffsetY: 0
    m_Level: 0
    m_CycleOffset: 0
    m_HasAdditiveReferencePose: 0
    m_LoopTime: 0
    m_LoopBlend: 0
    m_LoopBlendOrientation: 0
    m_LoopBlendPositionY: 0
    m_LoopBlendPositionXZ: 0
    m_KeepOriginalOrientation: 0
    m_KeepOriginalPositionY: 1
    m_KeepOriginalPositionXZ: 0
    m_HeightFromFeet: 0
    m_Mirror: 0
  m_EditorCurves:
  - curve:
      serializedVersion: 2
      m_Curve:
      - time: 0
        value: 0
        inSlope: 0
        outSlope: 0
        tangentMode: 10
      - time: 0.25
        value: 0
        inSlope: 0
        outSlope: 0
        tangentMode: 0
      - time: 2.2333333
        value: 0
        inSlope: 0
        outSlope: 0
        tangentMode: 0
      - time: 4.0833335
        value: 0
        inSlope: 0
        outSlope: 0
        tangentMode: 10
      m_PreInfinity: 2
      m_PostInfinity: 2
      m_RotationOrder: 4
    attribute: localEulerAnglesRaw.x
    path: Torso/TorsoUpper/LeftArm
    classID: 4
    script: {fileID: 0}
  - curve:
      serializedVersion: 2
      m_Curve:
      - time: 0
        value: 0
        inSlope: 0
        outSlope: 0
        tangentMode: 10
      - time: 0.25
        value: 0
        inSlope: 0
        outSlope: 0
        tangentMode: 0
      - time: 2.2333333
        value: 0
        inSlope: 0
        outSlope: 0
        tangentMode: 0
      - time: 4.0833335
        value: 0
        inSlope: 0
        outSlope: 0
        tangentMode: 10
      m_PreInfinity: 2
      m_PostInfinity: 2
      m_RotationOrder: 4
    attribute: localEulerAnglesRaw.y
    path: Torso/TorsoUpper/LeftArm
    classID: 4
    script: {fileID: 0}
  - curve:
      serializedVersion: 2
      m_Curve:
      - time: 0
        value: 0
        inSlope: -54.32939
        outSlope: -54.32939
        tangentMode: 10
      - time: 0.25
        value: -13.582348
        inSlope: 5.2289677
        outSlope: 5.2289677
        tangentMode: 0
      - time: 3.3333333
        value: -12.277233
        inSlope: -2.9004197
        outSlope: -2.9004197
        tangentMode: 0
      - time: 4.0833335
        value: 0
        inSlope: 16.369638
        outSlope: 16.369638
        tangentMode: 10
      m_PreInfinity: 2
      m_PostInfinity: 2
      m_RotationOrder: 4
    attribute: localEulerAnglesRaw.z
    path: Torso/TorsoUpper/LeftArm
    classID: 4
    script: {fileID: 0}
  - curve:
      serializedVersion: 2
      m_Curve:
      - time: 0
        value: 0
        inSlope: 0
        outSlope: 0
        tangentMode: 10
      - time: 0.25
        value: 0
        inSlope: 0
        outSlope: 0
        tangentMode: 0
      m_PreInfinity: 2
      m_PostInfinity: 2
      m_RotationOrder: 4
    attribute: localEulerAnglesRaw.x
    path: Torso/TorsoUpper/LeftArm/LeftForearm
    classID: 4
    script: {fileID: 0}
  - curve:
      serializedVersion: 2
      m_Curve:
      - time: 0
        value: 0
        inSlope: 0
        outSlope: 0
        tangentMode: 10
      - time: 0.25
        value: 0
        inSlope: 0
        outSlope: 0
        tangentMode: 0
      m_PreInfinity: 2
      m_PostInfinity: 2
      m_RotationOrder: 4
    attribute: localEulerAnglesRaw.y
    path: Torso/TorsoUpper/LeftArm/LeftForearm
    classID: 4
    script: {fileID: 0}
  - curve:
      serializedVersion: 2
      m_Curve:
      - time: 0
        value: 0
        inSlope: -281.35602
        outSlope: -281.35602
        tangentMode: 10
      - time: 0.25
        value: -70.339005
        inSlope: 0
        outSlope: 0
        tangentMode: 0
      - time: 3.2666667
        value: -70.47695
        inSlope: 7.053909
        outSlope: 7.053909
        tangentMode: 0
      - time: 4.0833335
        value: 0
        inSlope: 86.29829
        outSlope: 86.29829
        tangentMode: 10
      m_PreInfinity: 2
      m_PostInfinity: 2
      m_RotationOrder: 4
    attribute: localEulerAnglesRaw.z
    path: Torso/TorsoUpper/LeftArm/LeftForearm
    classID: 4
    script: {fileID: 0}
  - curve:
      serializedVersion: 2
      m_Curve:
      - time: 0
        value: 0
        inSlope: 0
        outSlope: 0
        tangentMode: 10
      - time: 0.25
        value: 0
        inSlope: 0
        outSlope: 0
        tangentMode: 0
      m_PreInfinity: 2
      m_PostInfinity: 2
      m_RotationOrder: 4
    attribute: localEulerAnglesRaw.x
    path: Torso/TorsoUpper/LeftArm/LeftForearm/LeftHand
    classID: 4
    script: {fileID: 0}
  - curve:
      serializedVersion: 2
      m_Curve:
      - time: 0
        value: 0
        inSlope: 0
        outSlope: 0
        tangentMode: 10
      - time: 0.25
        value: 0
        inSlope: 0
        outSlope: 0
        tangentMode: 0
      m_PreInfinity: 2
      m_PostInfinity: 2
      m_RotationOrder: 4
    attribute: localEulerAnglesRaw.y
    path: Torso/TorsoUpper/LeftArm/LeftForearm/LeftHand
    classID: 4
    script: {fileID: 0}
  - curve:
      serializedVersion: 2
      m_Curve:
      - time: 0
        value: 0
        inSlope: 12.57206
        outSlope: 12.57206
        tangentMode: 10
      - time: 0.25
        value: 3.143015
        inSlope: 0
        outSlope: 0
        tangentMode: 0
      - time: 3.1833334
        value: 0.9646492
        inSlope: -3.2281003
        outSlope: -3.2281003
        tangentMode: 0
      - time: 4.0833335
        value: 0
        inSlope: -1.0718323
        outSlope: -1.0718323
        tangentMode: 10
      m_PreInfinity: 2
      m_PostInfinity: 2
      m_RotationOrder: 4
    attribute: localEulerAnglesRaw.z
    path: Torso/TorsoUpper/LeftArm/LeftForearm/LeftHand
    classID: 4
    script: {fileID: 0}
  - curve:
      serializedVersion: 2
      m_Curve:
      - time: 0
        value: 0
        inSlope: 0
        outSlope: 0
        tangentMode: 10
      - time: 0.06666667
        value: 0
        inSlope: 0
        outSlope: 0
        tangentMode: 10
      - time: 0.5833333
        value: 0
        inSlope: 0
        outSlope: 0
        tangentMode: 10
      - time: 0.95
        value: 0
        inSlope: 0
        outSlope: 0
        tangentMode: 10
      - time: 1.4666667
        value: 0
        inSlope: 0
        outSlope: 0
        tangentMode: 10
      - time: 2.2333333
        value: 0
        inSlope: 0
        outSlope: 0
        tangentMode: 10
      - time: 3.3
        value: 0
        inSlope: 0
        outSlope: 0
        tangentMode: 10
      - time: 4.0833335
        value: 0
        inSlope: 0
        outSlope: 0
        tangentMode: 10
      m_PreInfinity: 2
      m_PostInfinity: 2
      m_RotationOrder: 4
    attribute: localEulerAnglesRaw.x
    path: Torso/TorsoUpper/RightArm
    classID: 4
    script: {fileID: 0}
  - curve:
      serializedVersion: 2
      m_Curve:
      - time: 0
        value: 0
        inSlope: 0
        outSlope: 0
        tangentMode: 10
      - time: 0.06666667
        value: 0
        inSlope: 0
        outSlope: 0
        tangentMode: 10
      - time: 0.5833333
        value: 0
        inSlope: 0
        outSlope: 0
        tangentMode: 10
      - time: 0.95
        value: 0
        inSlope: 0
        outSlope: 0
        tangentMode: 10
      - time: 1.4666667
        value: 0
        inSlope: 0
        outSlope: 0
        tangentMode: 10
      - time: 2.2333333
        value: 0
        inSlope: 0
        outSlope: 0
        tangentMode: 10
      - time: 3.3
        value: 0
        inSlope: 0
        outSlope: 0
        tangentMode: 10
      - time: 4.0833335
        value: 0
        inSlope: 0
        outSlope: 0
        tangentMode: 10
      m_PreInfinity: 2
      m_PostInfinity: 2
      m_RotationOrder: 4
    attribute: localEulerAnglesRaw.y
    path: Torso/TorsoUpper/RightArm
    classID: 4
    script: {fileID: 0}
  - curve:
      serializedVersion: 2
      m_Curve:
      - time: 0
        value: 0
        inSlope: -125.88
        outSlope: -125.88
        tangentMode: 10
      - time: 0.06666667
        value: -8.392
        inSlope: -59.66226
        outSlope: -59.66226
        tangentMode: 10
      - time: 0.5833333
        value: -5.005
        inSlope: 7.740472
        outSlope: 7.740472
        tangentMode: 10
      - time: 1.3833333
        value: 2.1353676
        inSlope: 0
        outSlope: 0
        tangentMode: 0
      - time: 4.0833335
        value: 0
        inSlope: -0.7908768
        outSlope: -0.7908768
        tangentMode: 10
      m_PreInfinity: 2
      m_PostInfinity: 2
      m_RotationOrder: 4
    attribute: localEulerAnglesRaw.z
    path: Torso/TorsoUpper/RightArm
    classID: 4
    script: {fileID: 0}
  - curve:
      serializedVersion: 2
      m_Curve:
      - time: 0
        value: 0
        inSlope: 0
        outSlope: 0
        tangentMode: 10
      - time: 0.65000004
        value: 0
        inSlope: 0
        outSlope: 0
        tangentMode: 10
      - time: 0.95
        value: 0
        inSlope: 0
        outSlope: 0
        tangentMode: 10
      - time: 1.15
        value: 0
        inSlope: 0
        outSlope: 0
        tangentMode: 10
      - time: 1.9166666
        value: 0
        inSlope: 0
        outSlope: 0
        tangentMode: 10
      - time: 2.2333333
        value: 0
        inSlope: 0
        outSlope: 0
        tangentMode: 10
      - time: 2.8333333
        value: 0
        inSlope: 0
        outSlope: 0
        tangentMode: 0
      - time: 4.0833335
        value: 0
        inSlope: 0
        outSlope: 0
        tangentMode: 0
      m_PreInfinity: 2
      m_PostInfinity: 2
      m_RotationOrder: 4
    attribute: localEulerAnglesRaw.x
    path: Torso/TorsoUpper/RightArm/RightForearm
    classID: 4
    script: {fileID: 0}
  - curve:
      serializedVersion: 2
      m_Curve:
      - time: 0
        value: 0
        inSlope: 0
        outSlope: 0
        tangentMode: 10
      - time: 0.65000004
        value: 0
        inSlope: 0
        outSlope: 0
        tangentMode: 10
      - time: 0.95
        value: 0
        inSlope: 0
        outSlope: 0
        tangentMode: 10
      - time: 1.15
        value: 0
        inSlope: 0
        outSlope: 0
        tangentMode: 10
      - time: 1.9166666
        value: 0
        inSlope: 0
        outSlope: 0
        tangentMode: 10
      - time: 2.2333333
        value: 0
        inSlope: 0
        outSlope: 0
        tangentMode: 10
      - time: 2.8333333
        value: 0
        inSlope: 0
        outSlope: 0
        tangentMode: 0
      - time: 4.0833335
        value: 0
        inSlope: 0
        outSlope: 0
        tangentMode: 0
      m_PreInfinity: 2
      m_PostInfinity: 2
      m_RotationOrder: 4
    attribute: localEulerAnglesRaw.y
    path: Torso/TorsoUpper/RightArm/RightForearm
    classID: 4
    script: {fileID: 0}
  - curve:
      serializedVersion: 2
      m_Curve:
      - time: 0
        value: 0
        inSlope: 230.96455
        outSlope: 230.96455
        tangentMode: 10
      - time: 0.65000004
        value: 150.12697
        inSlope: 9.0714655
        outSlope: 9.0714655
        tangentMode: 0
      - time: 2.7666667
        value: 145.06407
        inSlope: -18.768898
        outSlope: -18.768898
        tangentMode: 0
      - time: 4.0833335
        value: 0
        inSlope: 0
        outSlope: 0
        tangentMode: 0
      m_PreInfinity: 2
      m_PostInfinity: 2
      m_RotationOrder: 4
    attribute: localEulerAnglesRaw.z
    path: Torso/TorsoUpper/RightArm/RightForearm
    classID: 4
    script: {fileID: 0}
  - curve:
      serializedVersion: 2
      m_Curve:
      - time: 0
        value: 0
        inSlope: 0
        outSlope: 0
        tangentMode: 10
      - time: 0.95
        value: 0
        inSlope: 0
        outSlope: 0
        tangentMode: 10
      - time: 1.3333334
        value: 0
        inSlope: 0
        outSlope: 0
        tangentMode: 10
      - time: 2.2333333
        value: 0
        inSlope: 0
        outSlope: 0
        tangentMode: 10
      - time: 3.7166667
        value: 0
        inSlope: 0
        outSlope: 0
        tangentMode: 10
      - time: 4.0833335
        value: 0
        inSlope: 0
        outSlope: 0
        tangentMode: 10
      m_PreInfinity: 2
      m_PostInfinity: 2
      m_RotationOrder: 4
    attribute: localEulerAnglesRaw.x
    path: Torso/TorsoUpper/RightArm/RightForearm/RightHand
    classID: 4
    script: {fileID: 0}
  - curve:
      serializedVersion: 2
      m_Curve:
      - time: 0
        value: 0
        inSlope: 0
        outSlope: 0
        tangentMode: 10
      - time: 0.95
        value: 0
        inSlope: 0
        outSlope: 0
        tangentMode: 10
      - time: 1.3333334
        value: 0
        inSlope: 0
        outSlope: 0
        tangentMode: 10
      - time: 2.2333333
        value: 0
        inSlope: 0
        outSlope: 0
        tangentMode: 10
      - time: 3.7166667
        value: 0
        inSlope: 0
        outSlope: 0
        tangentMode: 10
      - time: 4.0833335
        value: 0
        inSlope: 0
        outSlope: 0
        tangentMode: 10
      m_PreInfinity: 2
      m_PostInfinity: 2
      m_RotationOrder: 4
    attribute: localEulerAnglesRaw.y
    path: Torso/TorsoUpper/RightArm/RightForearm/RightHand
    classID: 4
    script: {fileID: 0}
  - curve:
      serializedVersion: 2
      m_Curve:
      - time: 0
        value: 0
        inSlope: -26.076647
        outSlope: -26.076647
        tangentMode: 10
      - time: 0.95
        value: -24.772814
        inSlope: -13.968069
        outSlope: -13.968069
        tangentMode: 10
      - time: 2.2333333
        value: -27.15916
        inSlope: 7.4337854
        outSlope: 7.4337854
        tangentMode: 10
      - time: 3.7166667
        value: -2.347351
        inSlope: 11.564464
        outSlope: 11.564464
        tangentMode: 10
      - time: 4.0833335
        value: 0
        inSlope: 6.4018645
        outSlope: 6.4018645
        tangentMode: 10
      m_PreInfinity: 2
      m_PostInfinity: 2
      m_RotationOrder: 4
    attribute: localEulerAnglesRaw.z
    path: Torso/TorsoUpper/RightArm/RightForearm/RightHand
    classID: 4
    script: {fileID: 0}
  - curve:
      serializedVersion: 2
      m_Curve:
      - time: 0
        value: 0
        inSlope: 0
        outSlope: 0
        tangentMode: 10
      - time: 1.7666667
        value: 0
        inSlope: 0
        outSlope: 0
        tangentMode: 10
      - time: 3.2333333
        value: 0
        inSlope: 0
        outSlope: 0
        tangentMode: 10
      - time: 4.0833335
        value: 0
        inSlope: 0
        outSlope: 0
        tangentMode: 10
      m_PreInfinity: 2
      m_PostInfinity: 2
      m_RotationOrder: 4
    attribute: localEulerAnglesRaw.x
    path: Torso
    classID: 4
    script: {fileID: 0}
  - curve:
      serializedVersion: 2
      m_Curve:
      - time: 0
        value: 0
        inSlope: 0
        outSlope: 0
        tangentMode: 10
      - time: 1.7666667
        value: 0
        inSlope: 0
        outSlope: 0
        tangentMode: 10
      - time: 3.2333333
        value: 0
        inSlope: 0
        outSlope: 0
        tangentMode: 10
      - time: 4.0833335
        value: 0
        inSlope: 0
        outSlope: 0
        tangentMode: 10
      m_PreInfinity: 2
      m_PostInfinity: 2
      m_RotationOrder: 4
    attribute: localEulerAnglesRaw.y
    path: Torso
    classID: 4
    script: {fileID: 0}
  - curve:
      serializedVersion: 2
      m_Curve:
      - time: 0
        value: 0
        inSlope: -1.7145283
        outSlope: -1.7145283
        tangentMode: 10
      - time: 1.7666667
        value: -3.029
        inSlope: -0.27593774
        outSlope: -0.27593774
        tangentMode: 10
      - time: 3.2333333
        value: -1.3237758
        inSlope: 3.9667902
        outSlope: 3.9667902
        tangentMode: 0
      - time: 4.0833335
        value: 0
        inSlope: 1.557383
        outSlope: 1.557383
        tangentMode: 10
      m_PreInfinity: 2
      m_PostInfinity: 2
      m_RotationOrder: 4
    attribute: localEulerAnglesRaw.z
    path: Torso
    classID: 4
    script: {fileID: 0}
  - curve:
      serializedVersion: 2
      m_Curve:
      - time: 0
        value: 0
        inSlope: 0
        outSlope: 0
        tangentMode: 10
      - time: 4.0833335
        value: 0
        inSlope: 0
        outSlope: 0
        tangentMode: 10
      m_PreInfinity: 2
      m_PostInfinity: 2
      m_RotationOrder: 4
    attribute: localEulerAnglesRaw.x
    path: Torso/TorsoUpper
    classID: 4
    script: {fileID: 0}
  - curve:
      serializedVersion: 2
      m_Curve:
      - time: 0
        value: 0
        inSlope: 0
        outSlope: 0
        tangentMode: 10
      - time: 4.0833335
        value: 0
        inSlope: 0
        outSlope: 0
        tangentMode: 10
      m_PreInfinity: 2
      m_PostInfinity: 2
      m_RotationOrder: 4
    attribute: localEulerAnglesRaw.y
    path: Torso/TorsoUpper
    classID: 4
    script: {fileID: 0}
  - curve:
      serializedVersion: 2
      m_Curve:
      - time: 0
        value: 0
        inSlope: 4.217037
        outSlope: 4.217037
        tangentMode: 10
      - time: 1.35
        value: 5.6930003
        inSlope: 2.1085186
        outSlope: 2.1085186
        tangentMode: 10
      - time: 2.8666666
        value: 5.6930003
        inSlope: -2.3395886
        outSlope: -2.3395886
        tangentMode: 10
      - time: 4.0833335
        value: 0
        inSlope: -4.6791773
        outSlope: -4.6791773
        tangentMode: 10
      m_PreInfinity: 2
      m_PostInfinity: 2
      m_RotationOrder: 4
    attribute: localEulerAnglesRaw.z
    path: Torso/TorsoUpper
    classID: 4
    script: {fileID: 0}
  - curve:
      serializedVersion: 2
      m_Curve:
      - time: 0
        value: 0
        inSlope: 0
        outSlope: 0
        tangentMode: 10
      - time: 0.56666666
        value: 0
        inSlope: 0
        outSlope: 0
        tangentMode: 10
      - time: 1.25
        value: 0
        inSlope: 0
        outSlope: 0
        tangentMode: 10
      - time: 3.7
        value: 0
        inSlope: 0
        outSlope: 0
        tangentMode: 10
      - time: 4.1
        value: 0
        inSlope: 0
        outSlope: 0
        tangentMode: 10
      m_PreInfinity: 2
      m_PostInfinity: 2
      m_RotationOrder: 4
    attribute: localEulerAnglesRaw.x
    path: Torso/TorsoUpper/Neck
    classID: 4
    script: {fileID: 0}
  - curve:
      serializedVersion: 2
      m_Curve:
      - time: 0
        value: 0
        inSlope: 0
        outSlope: 0
        tangentMode: 10
      - time: 0.56666666
        value: 0
        inSlope: 0
        outSlope: 0
        tangentMode: 10
      - time: 1.25
        value: 0
        inSlope: 0
        outSlope: 0
        tangentMode: 10
      - time: 3.7
        value: 0
        inSlope: 0
        outSlope: 0
        tangentMode: 10
      - time: 4.1
        value: 0
        inSlope: 0
        outSlope: 0
        tangentMode: 10
      m_PreInfinity: 2
      m_PostInfinity: 2
      m_RotationOrder: 4
    attribute: localEulerAnglesRaw.y
    path: Torso/TorsoUpper/Neck
    classID: 4
    script: {fileID: 0}
  - curve:
      serializedVersion: 2
      m_Curve:
      - time: 0
        value: 0
        inSlope: 5.853585
        outSlope: 5.853585
        tangentMode: 10
      - time: 0.56666666
        value: 3.3170314
        inSlope: 4.032402
        outSlope: 4.032402
        tangentMode: 10
      - time: 1.25
        value: 4.8280315
        inSlope: 1.1056099
        outSlope: 1.1056099
        tangentMode: 10
      - time: 3.7
        value: 4.8280315
        inSlope: -6.035042
        outSlope: -6.035042
        tangentMode: 10
      - time: 4.1
        value: 0
        inSlope: -12.070084
        outSlope: -12.070084
        tangentMode: 10
      m_PreInfinity: 2
      m_PostInfinity: 2
      m_RotationOrder: 4
    attribute: localEulerAnglesRaw.z
    path: Torso/TorsoUpper/Neck
    classID: 4
    script: {fileID: 0}
  - curve:
      serializedVersion: 2
      m_Curve:
      - time: 0
        value: 0
        inSlope: 0
        outSlope: 0
        tangentMode: 10
      - time: 3.1
        value: 0
        inSlope: 0
        outSlope: 0
        tangentMode: 10
      - time: 4.0833335
        value: 0
        inSlope: 0
        outSlope: 0
        tangentMode: 10
      m_PreInfinity: 2
      m_PostInfinity: 2
      m_RotationOrder: 4
    attribute: localEulerAnglesRaw.x
    path: Torso/TorsoUpper/Neck/Head
    classID: 4
    script: {fileID: 0}
  - curve:
      serializedVersion: 2
      m_Curve:
      - time: 0
        value: 0
        inSlope: 0
        outSlope: 0
        tangentMode: 10
      - time: 3.1
        value: 0
        inSlope: 0
        outSlope: 0
        tangentMode: 10
      - time: 4.0833335
        value: 0
        inSlope: 0
        outSlope: 0
        tangentMode: 10
      m_PreInfinity: 2
      m_PostInfinity: 2
      m_RotationOrder: 4
    attribute: localEulerAnglesRaw.y
    path: Torso/TorsoUpper/Neck/Head
    classID: 4
    script: {fileID: 0}
  - curve:
      serializedVersion: 2
      m_Curve:
      - time: 0
        value: 0
        inSlope: 6.195246
        outSlope: 6.195246
        tangentMode: 10
      - time: 0.56666666
        value: 3.5106394
        inSlope: 0.15749645
        outSlope: 0.15749645
        tangentMode: 0
      - time: 2.7333333
        value: 3.516706
        inSlope: -0.057974473
        outSlope: -0.057974473
        tangentMode: 0
      - time: 3.1
        value: 0
        inSlope: -4.79551
        outSlope: -4.79551
        tangentMode: 10
      - time: 4.0833335
        value: 0
        inSlope: 0
        outSlope: 0
        tangentMode: 10
      m_PreInfinity: 2
      m_PostInfinity: 2
      m_RotationOrder: 4
    attribute: localEulerAnglesRaw.z
    path: Torso/TorsoUpper/Neck/Head
    classID: 4
    script: {fileID: 0}
  - curve:
      serializedVersion: 2
      m_Curve:
      - time: 0
        value: 0
        inSlope: 0
        outSlope: 0
        tangentMode: 10
      - time: 0.78333336
        value: 0
        inSlope: 0
        outSlope: 0
        tangentMode: 0
      - time: 3.05
        value: 0
        inSlope: 0
        outSlope: 0
        tangentMode: 0
      - time: 4.0833335
        value: 0
        inSlope: 0
        outSlope: 0
        tangentMode: 10
      m_PreInfinity: 2
      m_PostInfinity: 2
      m_RotationOrder: 4
    attribute: localEulerAnglesRaw.x
    path: RightLeg
    classID: 4
    script: {fileID: 0}
  - curve:
      serializedVersion: 2
      m_Curve:
      - time: 0
        value: 0
        inSlope: 0
        outSlope: 0
        tangentMode: 10
      - time: 0.78333336
        value: 0
        inSlope: 0
        outSlope: 0
        tangentMode: 0
      - time: 3.05
        value: 0
        inSlope: 0
        outSlope: 0
        tangentMode: 0
      - time: 4.0833335
        value: 0
        inSlope: 0
        outSlope: 0
        tangentMode: 10
      m_PreInfinity: 2
      m_PostInfinity: 2
      m_RotationOrder: 4
    attribute: localEulerAnglesRaw.y
    path: RightLeg
    classID: 4
    script: {fileID: 0}
  - curve:
      serializedVersion: 2
      m_Curve:
      - time: 0
        value: 0
        inSlope: 10.838299
        outSlope: 10.838299
        tangentMode: 10
      - time: 0.78333336
        value: 8.490001
        inSlope: 1.7405088
        outSlope: 1.7405088
        tangentMode: 0
      - time: 3.05
        value: 8.490001
        inSlope: -1.9348869
        outSlope: -1.9348869
        tangentMode: 0
      - time: 4.0833335
        value: 0
        inSlope: -8.216128
        outSlope: -8.216128
        tangentMode: 10
      m_PreInfinity: 2
      m_PostInfinity: 2
      m_RotationOrder: 4
    attribute: localEulerAnglesRaw.z
    path: RightLeg
    classID: 4
    script: {fileID: 0}
  - curve:
      serializedVersion: 2
      m_Curve:
      - time: 0
        value: 0
        inSlope: 0
        outSlope: 0
        tangentMode: 10
      - time: 0.78333336
        value: 0
        inSlope: 0
        outSlope: 0
        tangentMode: 0
      - time: 3.05
        value: 0
        inSlope: 0
        outSlope: 0
        tangentMode: 0
      - time: 4.0833335
        value: 0
        inSlope: 0
        outSlope: 0
        tangentMode: 10
      m_PreInfinity: 2
      m_PostInfinity: 2
      m_RotationOrder: 4
    attribute: localEulerAnglesRaw.x
    path: RightLeg/RightLegLower
    classID: 4
    script: {fileID: 0}
  - curve:
      serializedVersion: 2
      m_Curve:
      - time: 0
        value: 0
        inSlope: 0
        outSlope: 0
        tangentMode: 10
      - time: 0.78333336
        value: 0
        inSlope: 0
        outSlope: 0
        tangentMode: 0
      - time: 3.05
        value: 0
        inSlope: 0
        outSlope: 0
        tangentMode: 0
      - time: 4.0833335
        value: 0
        inSlope: 0
        outSlope: 0
        tangentMode: 10
      m_PreInfinity: 2
      m_PostInfinity: 2
      m_RotationOrder: 4
    attribute: localEulerAnglesRaw.y
    path: RightLeg/RightLegLower
    classID: 4
    script: {fileID: 0}
  - curve:
      serializedVersion: 2
      m_Curve:
      - time: 0
        value: 0
        inSlope: -23.919575
        outSlope: -23.919575
        tangentMode: 10
      - time: 0.78333336
        value: -18.737001
        inSlope: -5.260307
        outSlope: -5.260307
        tangentMode: 0
      - time: 3.05
        value: -18.737001
        inSlope: 3.3667355
        outSlope: 3.3667355
        tangentMode: 0
      - time: 4.0833335
        value: 0
        inSlope: 18.132578
        outSlope: 18.132578
        tangentMode: 10
      m_PreInfinity: 2
      m_PostInfinity: 2
      m_RotationOrder: 4
    attribute: localEulerAnglesRaw.z
    path: RightLeg/RightLegLower
    classID: 4
    script: {fileID: 0}
  - curve:
      serializedVersion: 2
      m_Curve:
      - time: 0
        value: 0
        inSlope: 0
        outSlope: 0
        tangentMode: 10
      - time: 0.78333336
        value: 0
        inSlope: 0
        outSlope: 0
        tangentMode: 0
      - time: 3.05
        value: 0
        inSlope: 0
        outSlope: 0
        tangentMode: 0
      - time: 4.0833335
        value: 0
        inSlope: 0
        outSlope: 0
        tangentMode: 10
      m_PreInfinity: 2
      m_PostInfinity: 2
      m_RotationOrder: 4
    attribute: localEulerAnglesRaw.x
    path: RightLeg/RightLegLower/RightShoe
    classID: 4
    script: {fileID: 0}
  - curve:
      serializedVersion: 2
      m_Curve:
      - time: 0
        value: 0
        inSlope: 0
        outSlope: 0
        tangentMode: 10
      - time: 0.78333336
        value: 0
        inSlope: 0
        outSlope: 0
        tangentMode: 0
      - time: 3.05
        value: 0
        inSlope: 0
        outSlope: 0
        tangentMode: 0
      - time: 4.0833335
        value: 0
        inSlope: 0
        outSlope: 0
        tangentMode: 10
      m_PreInfinity: 2
      m_PostInfinity: 2
      m_RotationOrder: 4
    attribute: localEulerAnglesRaw.y
    path: RightLeg/RightLegLower/RightShoe
    classID: 4
    script: {fileID: 0}
  - curve:
      serializedVersion: 2
      m_Curve:
      - time: 0
        value: 0
        inSlope: -5.5353193
        outSlope: -5.5353193
        tangentMode: 10
      - time: 0.78333336
        value: -4.3360004
        inSlope: -1.8553631
        outSlope: -1.8553631
        tangentMode: 0
      - time: 3.05
        value: -4.3360004
        inSlope: 1.1335261
        outSlope: 1.1335261
        tangentMode: 0
      - time: 4.0833335
        value: 0
        inSlope: 4.196129
        outSlope: 4.196129
        tangentMode: 10
      m_PreInfinity: 2
      m_PostInfinity: 2
      m_RotationOrder: 4
    attribute: localEulerAnglesRaw.z
    path: RightLeg/RightLegLower/RightShoe
    classID: 4
    script: {fileID: 0}
  - curve:
      serializedVersion: 2
      m_Curve:
      - time: 0
        value: -0.06863463
        inSlope: 0.00000011413655
        outSlope: 0.00000011413655
        tangentMode: 10
      - time: 0.78333336
        value: -0.06863454
        inSlope: 0
        outSlope: 0
        tangentMode: 0
      - time: 3.3166666
        value: -0.06863454
        inSlope: 0
        outSlope: 0
        tangentMode: 0
      - time: 4.0833335
        value: -0.06863463
        inSlope: -0.00000011661775
        outSlope: -0.00000011661775
        tangentMode: 10
      m_PreInfinity: 2
      m_PostInfinity: 2
      m_RotationOrder: 4
    attribute: m_LocalPosition.x
    path: Torso/TorsoUpper/Neck/Head/Face/Right/RightEyebrow
    classID: 4
    script: {fileID: 0}
  - curve:
      serializedVersion: 2
      m_Curve:
      - time: 0
        value: 0.20471539
        inSlope: -0.042127743
        outSlope: -0.042127743
        tangentMode: 10
      - time: 0.78333336
        value: 0.17171532
        inSlope: 0
        outSlope: 0
        tangentMode: 0
      - time: 3.3166666
        value: 0.17171532
        inSlope: 0
        outSlope: 0
        tangentMode: 0
      - time: 4.0833335
        value: 0.20471539
        inSlope: 0.043043554
        outSlope: 0.043043554
        tangentMode: 10
      m_PreInfinity: 2
      m_PostInfinity: 2
      m_RotationOrder: 4
    attribute: m_LocalPosition.y
    path: Torso/TorsoUpper/Neck/Head/Face/Right/RightEyebrow
    classID: 4
    script: {fileID: 0}
  - curve:
      serializedVersion: 2
      m_Curve:
      - time: 0
        value: 0
        inSlope: 0
        outSlope: 0
        tangentMode: 10
      - time: 0.78333336
        value: 0
        inSlope: 0
        outSlope: 0
        tangentMode: 0
      - time: 3.3166666
        value: 0
        inSlope: 0
        outSlope: 0
        tangentMode: 0
      - time: 4.0833335
        value: 0
        inSlope: 0
        outSlope: 0
        tangentMode: 10
      m_PreInfinity: 2
      m_PostInfinity: 2
      m_RotationOrder: 4
    attribute: m_LocalPosition.z
    path: Torso/TorsoUpper/Neck/Head/Face/Right/RightEyebrow
    classID: 4
    script: {fileID: 0}
  - curve:
      serializedVersion: 2
      m_Curve:
      - time: 0
        value: 0
        inSlope: 0
        outSlope: 0
        tangentMode: 10
      - time: 0.78333336
        value: 0
        inSlope: 0
        outSlope: 0
        tangentMode: 0
      - time: 3.3166666
        value: 0
        inSlope: 0
        outSlope: 0
        tangentMode: 0
      - time: 4.0833335
        value: 0
        inSlope: 0
        outSlope: 0
        tangentMode: 10
      m_PreInfinity: 2
      m_PostInfinity: 2
      m_RotationOrder: 4
    attribute: localEulerAnglesRaw.x
    path: Torso/TorsoUpper/Neck/Head/Face/Right/RightEyebrow
    classID: 4
    script: {fileID: 0}
  - curve:
      serializedVersion: 2
      m_Curve:
      - time: 0
        value: 0
        inSlope: 0
        outSlope: 0
        tangentMode: 10
      - time: 0.78333336
        value: 0
        inSlope: 0
        outSlope: 0
        tangentMode: 0
      - time: 3.3166666
        value: 0
        inSlope: 0
        outSlope: 0
        tangentMode: 0
      - time: 4.0833335
        value: 0
        inSlope: 0
        outSlope: 0
        tangentMode: 10
      m_PreInfinity: 2
      m_PostInfinity: 2
      m_RotationOrder: 4
    attribute: localEulerAnglesRaw.y
    path: Torso/TorsoUpper/Neck/Head/Face/Right/RightEyebrow
    classID: 4
    script: {fileID: 0}
  - curve:
      serializedVersion: 2
      m_Curve:
      - time: 0
        value: 0
        inSlope: -2.7306385
        outSlope: -2.7306385
        tangentMode: 10
      - time: 0.78333336
        value: -2.1390002
        inSlope: 0
        outSlope: 0
        tangentMode: 0
      - time: 3.3166666
        value: -2.1390002
        inSlope: 0
        outSlope: 0
        tangentMode: 0
      - time: 4.0833335
        value: 0
        inSlope: 2.7899995
        outSlope: 2.7899995
        tangentMode: 10
      m_PreInfinity: 2
      m_PostInfinity: 2
      m_RotationOrder: 4
    attribute: localEulerAnglesRaw.z
    path: Torso/TorsoUpper/Neck/Head/Face/Right/RightEyebrow
    classID: 4
    script: {fileID: 0}
  - curve:
      serializedVersion: 2
      m_Curve:
      - time: 0
        value: -0.053669512
        inSlope: 0.0076597417
        outSlope: 0.0076597417
        tangentMode: 10
      - time: 0.78333336
        value: -0.04766938
        inSlope: 0
        outSlope: 0
        tangentMode: 0
      - time: 3.3166666
        value: -0.04766938
        inSlope: 0
        outSlope: 0
        tangentMode: 0
      - time: 4.0833335
        value: -0.053669512
        inSlope: -0.007826256
        outSlope: -0.007826256
        tangentMode: 10
      m_PreInfinity: 2
      m_PostInfinity: 2
      m_RotationOrder: 4
    attribute: m_LocalPosition.x
    path: Torso/TorsoUpper/Neck/Head/Face/Left/LeftEyebrow
    classID: 4
    script: {fileID: 0}
  - curve:
      serializedVersion: 2
      m_Curve:
      - time: 0
        value: 0.20433445
        inSlope: 0.012433678
        outSlope: 0.012433678
        tangentMode: 10
      - time: 0.8
        value: 0.2142814
        inSlope: 0
        outSlope: 0
        tangentMode: 0
      - time: 3.3333333
        value: 0.2142814
        inSlope: 0
        outSlope: 0
        tangentMode: 0
      - time: 4.0833335
        value: 0.20433445
        inSlope: -0.013262586
        outSlope: -0.013262586
        tangentMode: 10
      m_PreInfinity: 2
      m_PostInfinity: 2
      m_RotationOrder: 4
    attribute: m_LocalPosition.y
    path: Torso/TorsoUpper/Neck/Head/Face/Left/LeftEyebrow
    classID: 4
    script: {fileID: 0}
  - curve:
      serializedVersion: 2
      m_Curve:
      - time: 0
        value: 0
        inSlope: 0
        outSlope: 0
        tangentMode: 10
      - time: 0.78333336
        value: 0
        inSlope: 0
        outSlope: 0
        tangentMode: 0
      - time: 3.3166666
        value: 0
        inSlope: 0
        outSlope: 0
        tangentMode: 0
      - time: 4.0833335
        value: 0
        inSlope: 0
        outSlope: 0
        tangentMode: 10
      m_PreInfinity: 2
      m_PostInfinity: 2
      m_RotationOrder: 4
    attribute: m_LocalPosition.z
    path: Torso/TorsoUpper/Neck/Head/Face/Left/LeftEyebrow
    classID: 4
    script: {fileID: 0}
  - curve:
      serializedVersion: 2
      m_Curve:
      - time: 0
        value: 0
        inSlope: 0
        outSlope: 0
        tangentMode: 10
      - time: 0.78333336
        value: 0
        inSlope: 0
        outSlope: 0
        tangentMode: 0
      - time: 3.3166666
        value: 0
        inSlope: 0
        outSlope: 0
        tangentMode: 0
      - time: 4.0833335
        value: 0
        inSlope: 0
        outSlope: 0
        tangentMode: 10
      m_PreInfinity: 2
      m_PostInfinity: 2
      m_RotationOrder: 4
    attribute: localEulerAnglesRaw.x
    path: Torso/TorsoUpper/Neck/Head/Face/Left/LeftEyebrow
    classID: 4
    script: {fileID: 0}
  - curve:
      serializedVersion: 2
      m_Curve:
      - time: 0
        value: 0
        inSlope: 0
        outSlope: 0
        tangentMode: 10
      - time: 0.78333336
        value: 0
        inSlope: 0
        outSlope: 0
        tangentMode: 0
      - time: 3.3166666
        value: 0
        inSlope: 0
        outSlope: 0
        tangentMode: 0
      - time: 4.0833335
        value: 0
        inSlope: 0
        outSlope: 0
        tangentMode: 10
      m_PreInfinity: 2
      m_PostInfinity: 2
      m_RotationOrder: 4
    attribute: localEulerAnglesRaw.y
    path: Torso/TorsoUpper/Neck/Head/Face/Left/LeftEyebrow
    classID: 4
    script: {fileID: 0}
  - curve:
      serializedVersion: 2
      m_Curve:
      - time: 0
        value: 0
        inSlope: -0.22045094
        outSlope: -0.22045094
        tangentMode: 10
      - time: 0.78333336
        value: -0.17268658
        inSlope: 0
        outSlope: 0
        tangentMode: 0
      - time: 3.3166666
        value: -0.17268658
        inSlope: 0
        outSlope: 0
        tangentMode: 0
      - time: 4.0833335
        value: 0
        inSlope: 0.2252433
        outSlope: 0.2252433
        tangentMode: 10
      m_PreInfinity: 2
      m_PostInfinity: 2
      m_RotationOrder: 4
    attribute: localEulerAnglesRaw.z
    path: Torso/TorsoUpper/Neck/Head/Face/Left/LeftEyebrow
    classID: 4
    script: {fileID: 0}
  - curve:
      serializedVersion: 2
      m_Curve:
      - time: 0
        value: 0
        inSlope: Infinity
        outSlope: Infinity
        tangentMode: 31
      - time: 0.9166667
        value: 1
        inSlope: Infinity
        outSlope: Infinity
        tangentMode: 31
      - time: 1.0333333
        value: 0
        inSlope: Infinity
        outSlope: Infinity
        tangentMode: 31
      - time: 1.8833333
        value: 1
        inSlope: Infinity
        outSlope: Infinity
        tangentMode: 31
      - time: 2
        value: 0
        inSlope: Infinity
        outSlope: Infinity
        tangentMode: 31
      - time: 3.4833333
        value: 1
        inSlope: Infinity
        outSlope: Infinity
        tangentMode: 31
      - time: 3.6
        value: 0
        inSlope: Infinity
        outSlope: Infinity
        tangentMode: 31
      m_PreInfinity: 2
      m_PostInfinity: 2
      m_RotationOrder: 4
    attribute: m_IsActive
    path: Torso/TorsoUpper/Neck/Head/Face/Right/EyeRightClosed
    classID: 1
    script: {fileID: 0}
  - curve:
      serializedVersion: 2
      m_Curve:
      - time: 0
        value: 0
        inSlope: Infinity
        outSlope: Infinity
        tangentMode: 31
      - time: 0.9166667
        value: 1
        inSlope: Infinity
        outSlope: Infinity
        tangentMode: 31
      - time: 1.0333333
        value: 0
        inSlope: Infinity
        outSlope: Infinity
        tangentMode: 31
      - time: 1.8833333
        value: 1
        inSlope: Infinity
        outSlope: Infinity
        tangentMode: 31
      - time: 2
        value: 0
        inSlope: Infinity
        outSlope: Infinity
        tangentMode: 31
      - time: 3.4833333
        value: 1
        inSlope: Infinity
        outSlope: Infinity
        tangentMode: 31
      - time: 3.6
        value: 0
        inSlope: Infinity
        outSlope: Infinity
        tangentMode: 31
      m_PreInfinity: 2
      m_PostInfinity: 2
      m_RotationOrder: 4
    attribute: m_IsActive
    path: Torso/TorsoUpper/Neck/Head/Face/Left/EyeLeftClosed
    classID: 1
    script: {fileID: 0}
  - curve:
      serializedVersion: 2
      m_Curve:
      - time: 0
        value: 0
        inSlope: Infinity
        outSlope: Infinity
        tangentMode: 31
      - time: 0.083333336
        value: 1
        inSlope: Infinity
        outSlope: Infinity
        tangentMode: 31
      - time: 3.9833333
        value: 0
        inSlope: Infinity
        outSlope: Infinity
        tangentMode: 31
      m_PreInfinity: 2
      m_PostInfinity: 2
      m_RotationOrder: 4
    attribute: m_IsActive
    path: Torso/TorsoUpper/RightArm/RightForearm/RightForearmFront
    classID: 1
    script: {fileID: 0}
  - curve:
      serializedVersion: 2
      m_Curve:
      - time: 0
        value: 1
        inSlope: Infinity
        outSlope: Infinity
        tangentMode: 31
      - time: 0.083333336
        value: 0
        inSlope: Infinity
        outSlope: Infinity
        tangentMode: 31
      - time: 3.9833333
        value: 1
        inSlope: Infinity
        outSlope: Infinity
        tangentMode: 31
      m_PreInfinity: 2
      m_PostInfinity: 2
      m_RotationOrder: 4
    attribute: m_IsActive
    path: Torso/TorsoUpper/RightArm/RightForearm/RightForearm
    classID: 1
    script: {fileID: 0}
  - curve:
      serializedVersion: 2
      m_Curve:
      - time: 0
        value: 0
        inSlope: Infinity
        outSlope: Infinity
        tangentMode: 31
      - time: 0.083333336
        value: 1
        inSlope: Infinity
        outSlope: Infinity
        tangentMode: 31
      - time: 0.6
        value: 1
        inSlope: Infinity
        outSlope: Infinity
        tangentMode: 31
      - time: 3.1666667
        value: 1
        inSlope: Infinity
        outSlope: Infinity
        tangentMode: 31
      - time: 4
        value: 0
        inSlope: Infinity
        outSlope: Infinity
        tangentMode: 31
      m_PreInfinity: 2
      m_PostInfinity: 2
      m_RotationOrder: 4
    attribute: m_IsActive
    path: Torso/TorsoUpper/RightArm/RightForearm/RightHand/HandRightIdleFront
    classID: 1
    script: {fileID: 0}
  - curve:
      serializedVersion: 2
      m_Curve:
      - time: 0
        value: 1
        inSlope: Infinity
        outSlope: Infinity
        tangentMode: 31
      - time: 0.083333336
        value: 0
        inSlope: Infinity
        outSlope: Infinity
        tangentMode: 31
      - time: 4
        value: 1
        inSlope: Infinity
        outSlope: Infinity
        tangentMode: 31
      m_PreInfinity: 2
      m_PostInfinity: 2
      m_RotationOrder: 4
    attribute: m_IsActive
    path: Torso/TorsoUpper/RightArm/RightForearm/RightHand/HandRightIdle
    classID: 1
    script: {fileID: 0}
  - curve:
      serializedVersion: 2
      m_Curve:
      - time: 0
        value: 0
        inSlope: Infinity
        outSlope: Infinity
        tangentMode: 31
      - time: 0.6
        value: 0
        inSlope: Infinity
        outSlope: Infinity
        tangentMode: 31
      - time: 3.1666667
        value: 0
        inSlope: Infinity
        outSlope: Infinity
        tangentMode: 31
      m_PreInfinity: 2
      m_PostInfinity: 2
      m_RotationOrder: 4
    attribute: m_IsActive
    path: Torso/TorsoUpper/RightArm/RightForearm/RightHand/HandRightThinkingFront
    classID: 1
    script: {fileID: 0}
  - curve:
      serializedVersion: 2
      m_Curve:
      - time: 0
        value: 0.054000854
        inSlope: 0
        outSlope: 0
        tangentMode: 0
      - time: 0.56666666
        value: 0.06
        inSlope: 0
        outSlope: 0
        tangentMode: 0
      - time: 3.9
        value: 0.06
        inSlope: 0
        outSlope: 0
        tangentMode: 0
      - time: 4.0833335
        value: 0.054000854
        inSlope: 0
        outSlope: 0
        tangentMode: 0
      m_PreInfinity: 2
      m_PostInfinity: 2
      m_RotationOrder: 4
    attribute: m_LocalPosition.x
    path: Torso/TorsoUpper/Neck/Head
    classID: 4
    script: {fileID: 0}
  - curve:
      serializedVersion: 2
      m_Curve:
      - time: 0
        value: 0.2729988
        inSlope: 0
        outSlope: 0
        tangentMode: 0
      - time: 0.56666666
        value: 0.13
        inSlope: 0
        outSlope: 0
        tangentMode: 0
      - time: 3.9
        value: 0.13
        inSlope: 0
        outSlope: 0
        tangentMode: 0
      - time: 4.0833335
        value: 0.2729988
        inSlope: 0
        outSlope: 0
        tangentMode: 0
      m_PreInfinity: 2
      m_PostInfinity: 2
      m_RotationOrder: 4
    attribute: m_LocalPosition.y
    path: Torso/TorsoUpper/Neck/Head
    classID: 4
    script: {fileID: 0}
  - curve:
      serializedVersion: 2
      m_Curve:
      - time: 0
        value: 0
        inSlope: 0
        outSlope: 0
        tangentMode: 0
      - time: 0.56666666
        value: 0
        inSlope: 0
        outSlope: 0
        tangentMode: 0
      - time: 3.9
        value: 0
        inSlope: 0
        outSlope: 0
        tangentMode: 0
      - time: 4.0833335
        value: 0
        inSlope: 0
        outSlope: 0
        tangentMode: 0
      m_PreInfinity: 2
      m_PostInfinity: 2
      m_RotationOrder: 4
    attribute: m_LocalPosition.z
    path: Torso/TorsoUpper/Neck/Head
    classID: 4
    script: {fileID: 0}
  - curve:
      serializedVersion: 2
      m_Curve:
      - time: 0
        value: 0.36699867
        inSlope: 0
        outSlope: 0
        tangentMode: 0
      - time: 0.56666666
        value: 0.37
        inSlope: 0
        outSlope: 0
        tangentMode: 0
      - time: 3.9
        value: 0.37
        inSlope: 0
        outSlope: 0
        tangentMode: 0
      - time: 4.0833335
        value: 0.36699867
        inSlope: 0
        outSlope: 0
        tangentMode: 0
      m_PreInfinity: 2
      m_PostInfinity: 2
      m_RotationOrder: 4
    attribute: m_LocalPosition.x
    path: Torso/TorsoUpper/Neck
    classID: 4
    script: {fileID: 0}
  - curve:
      serializedVersion: 2
      m_Curve:
      - time: 0
        value: 4.9050007
        inSlope: 0
        outSlope: 0
        tangentMode: 0
      - time: 0.56666666
        value: 4.86
        inSlope: 0
        outSlope: 0
        tangentMode: 0
      - time: 3.9
        value: 4.86
        inSlope: 0
        outSlope: 0
        tangentMode: 0
      - time: 4.0833335
        value: 4.9050007
        inSlope: 0
        outSlope: 0
        tangentMode: 0
      m_PreInfinity: 2
      m_PostInfinity: 2
      m_RotationOrder: 4
    attribute: m_LocalPosition.y
    path: Torso/TorsoUpper/Neck
    classID: 4
    script: {fileID: 0}
  - curve:
      serializedVersion: 2
      m_Curve:
      - time: 0
        value: 0
        inSlope: 0
        outSlope: 0
        tangentMode: 0
      - time: 0.56666666
        value: 0
        inSlope: 0
        outSlope: 0
        tangentMode: 0
      - time: 3.9
        value: 0
        inSlope: 0
        outSlope: 0
        tangentMode: 0
      - time: 4.0833335
        value: 0
        inSlope: 0
        outSlope: 0
        tangentMode: 0
      m_PreInfinity: 2
      m_PostInfinity: 2
      m_RotationOrder: 4
    attribute: m_LocalPosition.z
    path: Torso/TorsoUpper/Neck
    classID: 4
    script: {fileID: 0}
  - curve:
      serializedVersion: 2
      m_Curve:
      - time: 0
        value: -1.269001
        inSlope: -0.001536883
        outSlope: -0.001536883
        tangentMode: 10
      - time: 0.65
        value: -1.27
        inSlope: -0.0007684415
        outSlope: -0.0007684415
        tangentMode: 10
      - time: 3.2166667
        value: -1.27
        inSlope: 0.000576331
        outSlope: 0.000576331
        tangentMode: 10
      - time: 4.0833335
        value: -1.269001
        inSlope: 0.001152662
        outSlope: 0.001152662
        tangentMode: 10
      m_PreInfinity: 2
      m_PostInfinity: 2
      m_RotationOrder: 4
    attribute: m_LocalPosition.x
    path: Torso/TorsoUpper/RightArm
    classID: 4
    script: {fileID: 0}
  - curve:
      serializedVersion: 2
      m_Curve:
      - time: 0
        value: 4.118
        inSlope: 0.11076928
        outSlope: 0.11076928
        tangentMode: 10
      - time: 0.65
        value: 4.19
        inSlope: 0.05538464
        outSlope: 0.05538464
        tangentMode: 10
      - time: 3.2166667
        value: 4.19
        inSlope: -0.04153847
        outSlope: -0.04153847
        tangentMode: 10
      - time: 4.0833335
        value: 4.118
        inSlope: -0.08307694
        outSlope: -0.08307694
        tangentMode: 10
      m_PreInfinity: 2
      m_PostInfinity: 2
      m_RotationOrder: 4
    attribute: m_LocalPosition.y
    path: Torso/TorsoUpper/RightArm
    classID: 4
    script: {fileID: 0}
  - curve:
      serializedVersion: 2
      m_Curve:
      - time: 0
        value: 0
        inSlope: 0
        outSlope: 0
        tangentMode: 10
      - time: 0.65
        value: 0
        inSlope: 0
        outSlope: 0
        tangentMode: 10
      - time: 3.2166667
        value: 0
        inSlope: 0
        outSlope: 0
        tangentMode: 10
      - time: 4.0833335
        value: 0
        inSlope: 0
        outSlope: 0
        tangentMode: 10
      m_PreInfinity: 2
      m_PostInfinity: 2
      m_RotationOrder: 4
    attribute: m_LocalPosition.z
    path: Torso/TorsoUpper/RightArm
    classID: 4
    script: {fileID: 0}
  - curve:
      serializedVersion: 2
      m_Curve:
      - time: 0
        value: 1
        inSlope: Infinity
        outSlope: Infinity
        tangentMode: 31
      - time: 0.083333336
        value: 0
        inSlope: Infinity
        outSlope: Infinity
        tangentMode: 31
      - time: 3.9833333
        value: 1
        inSlope: Infinity
        outSlope: Infinity
        tangentMode: 31
      m_PreInfinity: 2
      m_PostInfinity: 2
      m_RotationOrder: 4
    attribute: m_IsActive
    path: Torso/TorsoUpper/RightArm/RightForearm/RightHand/ArmletRight
    classID: 1
    script: {fileID: 0}
  - curve:
      serializedVersion: 2
      m_Curve:
      - time: 0
        value: 0
        inSlope: Infinity
        outSlope: Infinity
        tangentMode: 31
      - time: 0.083333336
        value: 1
        inSlope: Infinity
        outSlope: Infinity
        tangentMode: 31
      - time: 3.9833333
        value: 0
        inSlope: Infinity
        outSlope: Infinity
        tangentMode: 31
      m_PreInfinity: 2
      m_PostInfinity: 2
      m_RotationOrder: 4
    attribute: m_IsActive
    path: Torso/TorsoUpper/RightArm/RightForearm/RightHand/ArmletRightFront
    classID: 1
    script: {fileID: 0}
  m_EulerEditorCurves:
  - curve:
      serializedVersion: 2
      m_Curve: []
      m_PreInfinity: 2
      m_PostInfinity: 2
      m_RotationOrder: 4
    attribute: m_LocalEulerAngles.z
    path: Torso/TorsoUpper/RightArm/RightForearm/RightHand
    classID: 4
    script: {fileID: 0}
  - curve:
      serializedVersion: 2
      m_Curve: []
      m_PreInfinity: 2
      m_PostInfinity: 2
      m_RotationOrder: 4
    attribute: m_LocalEulerAngles.y
    path: Torso/TorsoUpper/RightArm/RightForearm/RightHand
    classID: 4
    script: {fileID: 0}
  - curve:
      serializedVersion: 2
      m_Curve: []
      m_PreInfinity: 2
      m_PostInfinity: 2
      m_RotationOrder: 4
    attribute: m_LocalEulerAngles.x
    path: Torso/TorsoUpper/RightArm/RightForearm/RightHand
    classID: 4
    script: {fileID: 0}
  - curve:
      serializedVersion: 2
      m_Curve: []
      m_PreInfinity: 2
      m_PostInfinity: 2
      m_RotationOrder: 4
    attribute: m_LocalEulerAngles.z
    path: Torso/TorsoUpper
    classID: 4
    script: {fileID: 0}
  - curve:
      serializedVersion: 2
      m_Curve: []
      m_PreInfinity: 2
      m_PostInfinity: 2
      m_RotationOrder: 4
    attribute: m_LocalEulerAngles.y
    path: Torso/TorsoUpper
    classID: 4
    script: {fileID: 0}
  - curve:
      serializedVersion: 2
      m_Curve: []
      m_PreInfinity: 2
      m_PostInfinity: 2
      m_RotationOrder: 4
    attribute: m_LocalEulerAngles.x
    path: Torso/TorsoUpper
    classID: 4
    script: {fileID: 0}
  - curve:
      serializedVersion: 2
      m_Curve: []
      m_PreInfinity: 2
      m_PostInfinity: 2
      m_RotationOrder: 4
    attribute: m_LocalEulerAngles.z
    path: Torso/TorsoUpper/RightArm
    classID: 4
    script: {fileID: 0}
  - curve:
      serializedVersion: 2
      m_Curve: []
      m_PreInfinity: 2
      m_PostInfinity: 2
      m_RotationOrder: 4
    attribute: m_LocalEulerAngles.y
    path: Torso/TorsoUpper/RightArm
    classID: 4
    script: {fileID: 0}
  - curve:
      serializedVersion: 2
      m_Curve: []
      m_PreInfinity: 2
      m_PostInfinity: 2
      m_RotationOrder: 4
    attribute: m_LocalEulerAngles.x
    path: Torso/TorsoUpper/RightArm
    classID: 4
    script: {fileID: 0}
  - curve:
      serializedVersion: 2
      m_Curve: []
      m_PreInfinity: 2
      m_PostInfinity: 2
      m_RotationOrder: 4
    attribute: m_LocalEulerAngles.z
    path: Torso/TorsoUpper/Neck/Head/Face/Left/LeftEyebrow
    classID: 4
    script: {fileID: 0}
  - curve:
      serializedVersion: 2
      m_Curve: []
      m_PreInfinity: 2
      m_PostInfinity: 2
      m_RotationOrder: 4
    attribute: m_LocalEulerAngles.y
    path: Torso/TorsoUpper/Neck/Head/Face/Left/LeftEyebrow
    classID: 4
    script: {fileID: 0}
  - curve:
      serializedVersion: 2
      m_Curve: []
      m_PreInfinity: 2
      m_PostInfinity: 2
      m_RotationOrder: 4
    attribute: m_LocalEulerAngles.x
    path: Torso/TorsoUpper/Neck/Head/Face/Left/LeftEyebrow
    classID: 4
    script: {fileID: 0}
  - curve:
      serializedVersion: 2
      m_Curve: []
      m_PreInfinity: 2
      m_PostInfinity: 2
      m_RotationOrder: 4
    attribute: m_LocalEulerAngles.z
    path: Torso/TorsoUpper/LeftArm/LeftForearm
    classID: 4
    script: {fileID: 0}
  - curve:
      serializedVersion: 2
      m_Curve: []
      m_PreInfinity: 2
      m_PostInfinity: 2
      m_RotationOrder: 4
    attribute: m_LocalEulerAngles.y
    path: Torso/TorsoUpper/LeftArm/LeftForearm
    classID: 4
    script: {fileID: 0}
  - curve:
      serializedVersion: 2
      m_Curve: []
      m_PreInfinity: 2
      m_PostInfinity: 2
      m_RotationOrder: 4
    attribute: m_LocalEulerAngles.x
    path: Torso/TorsoUpper/LeftArm/LeftForearm
    classID: 4
    script: {fileID: 0}
  - curve:
      serializedVersion: 2
      m_Curve: []
      m_PreInfinity: 2
      m_PostInfinity: 2
      m_RotationOrder: 4
    attribute: m_LocalEulerAngles.z
    path: RightLeg
    classID: 4
    script: {fileID: 0}
  - curve:
      serializedVersion: 2
      m_Curve: []
      m_PreInfinity: 2
      m_PostInfinity: 2
      m_RotationOrder: 4
    attribute: m_LocalEulerAngles.y
    path: RightLeg
    classID: 4
    script: {fileID: 0}
  - curve:
      serializedVersion: 2
      m_Curve: []
      m_PreInfinity: 2
      m_PostInfinity: 2
      m_RotationOrder: 4
    attribute: m_LocalEulerAngles.x
    path: RightLeg
    classID: 4
    script: {fileID: 0}
  - curve:
      serializedVersion: 2
      m_Curve: []
      m_PreInfinity: 2
      m_PostInfinity: 2
      m_RotationOrder: 4
    attribute: m_LocalEulerAngles.z
    path: Torso/TorsoUpper/Neck/Head/Face/Right/RightEyebrow
    classID: 4
    script: {fileID: 0}
  - curve:
      serializedVersion: 2
      m_Curve: []
      m_PreInfinity: 2
      m_PostInfinity: 2
      m_RotationOrder: 4
    attribute: m_LocalEulerAngles.y
    path: Torso/TorsoUpper/Neck/Head/Face/Right/RightEyebrow
    classID: 4
    script: {fileID: 0}
  - curve:
      serializedVersion: 2
      m_Curve: []
      m_PreInfinity: 2
      m_PostInfinity: 2
      m_RotationOrder: 4
    attribute: m_LocalEulerAngles.x
    path: Torso/TorsoUpper/Neck/Head/Face/Right/RightEyebrow
    classID: 4
    script: {fileID: 0}
  - curve:
      serializedVersion: 2
      m_Curve: []
      m_PreInfinity: 2
      m_PostInfinity: 2
      m_RotationOrder: 4
    attribute: m_LocalEulerAngles.z
    path: Torso/TorsoUpper/Neck/Head
    classID: 4
    script: {fileID: 0}
  - curve:
      serializedVersion: 2
      m_Curve: []
      m_PreInfinity: 2
      m_PostInfinity: 2
      m_RotationOrder: 4
    attribute: m_LocalEulerAngles.y
    path: Torso/TorsoUpper/Neck/Head
    classID: 4
    script: {fileID: 0}
  - curve:
      serializedVersion: 2
      m_Curve: []
      m_PreInfinity: 2
      m_PostInfinity: 2
      m_RotationOrder: 4
    attribute: m_LocalEulerAngles.x
    path: Torso/TorsoUpper/Neck/Head
    classID: 4
    script: {fileID: 0}
  - curve:
      serializedVersion: 2
      m_Curve: []
      m_PreInfinity: 2
      m_PostInfinity: 2
      m_RotationOrder: 4
    attribute: m_LocalEulerAngles.z
    path: RightLeg/RightLegLower/RightShoe
    classID: 4
    script: {fileID: 0}
  - curve:
      serializedVersion: 2
      m_Curve: []
      m_PreInfinity: 2
      m_PostInfinity: 2
      m_RotationOrder: 4
    attribute: m_LocalEulerAngles.y
    path: RightLeg/RightLegLower/RightShoe
    classID: 4
    script: {fileID: 0}
  - curve:
      serializedVersion: 2
      m_Curve: []
      m_PreInfinity: 2
      m_PostInfinity: 2
      m_RotationOrder: 4
    attribute: m_LocalEulerAngles.x
    path: RightLeg/RightLegLower/RightShoe
    classID: 4
    script: {fileID: 0}
  - curve:
      serializedVersion: 2
      m_Curve: []
      m_PreInfinity: 2
      m_PostInfinity: 2
      m_RotationOrder: 4
    attribute: m_LocalEulerAngles.z
    path: RightLeg/RightLegLower
    classID: 4
    script: {fileID: 0}
  - curve:
      serializedVersion: 2
      m_Curve: []
      m_PreInfinity: 2
      m_PostInfinity: 2
      m_RotationOrder: 4
    attribute: m_LocalEulerAngles.y
    path: RightLeg/RightLegLower
    classID: 4
    script: {fileID: 0}
  - curve:
      serializedVersion: 2
      m_Curve: []
      m_PreInfinity: 2
      m_PostInfinity: 2
      m_RotationOrder: 4
    attribute: m_LocalEulerAngles.x
    path: RightLeg/RightLegLower
    classID: 4
    script: {fileID: 0}
  - curve:
      serializedVersion: 2
      m_Curve: []
      m_PreInfinity: 2
      m_PostInfinity: 2
      m_RotationOrder: 4
    attribute: m_LocalEulerAngles.z
    path: Torso/TorsoUpper/Neck
    classID: 4
    script: {fileID: 0}
  - curve:
      serializedVersion: 2
      m_Curve: []
      m_PreInfinity: 2
      m_PostInfinity: 2
      m_RotationOrder: 4
    attribute: m_LocalEulerAngles.y
    path: Torso/TorsoUpper/Neck
    classID: 4
    script: {fileID: 0}
  - curve:
      serializedVersion: 2
      m_Curve: []
      m_PreInfinity: 2
      m_PostInfinity: 2
      m_RotationOrder: 4
    attribute: m_LocalEulerAngles.x
    path: Torso/TorsoUpper/Neck
    classID: 4
    script: {fileID: 0}
  - curve:
      serializedVersion: 2
      m_Curve: []
      m_PreInfinity: 2
      m_PostInfinity: 2
      m_RotationOrder: 4
    attribute: m_LocalEulerAngles.z
    path: Torso/TorsoUpper/LeftArm
    classID: 4
    script: {fileID: 0}
  - curve:
      serializedVersion: 2
      m_Curve: []
      m_PreInfinity: 2
      m_PostInfinity: 2
      m_RotationOrder: 4
    attribute: m_LocalEulerAngles.y
    path: Torso/TorsoUpper/LeftArm
    classID: 4
    script: {fileID: 0}
  - curve:
      serializedVersion: 2
      m_Curve: []
      m_PreInfinity: 2
      m_PostInfinity: 2
      m_RotationOrder: 4
    attribute: m_LocalEulerAngles.x
    path: Torso/TorsoUpper/LeftArm
    classID: 4
    script: {fileID: 0}
  - curve:
      serializedVersion: 2
      m_Curve: []
      m_PreInfinity: 2
      m_PostInfinity: 2
      m_RotationOrder: 4
    attribute: m_LocalEulerAngles.z
    path: Torso/TorsoUpper/LeftArm/LeftForearm/LeftHand
    classID: 4
    script: {fileID: 0}
  - curve:
      serializedVersion: 2
      m_Curve: []
      m_PreInfinity: 2
      m_PostInfinity: 2
      m_RotationOrder: 4
    attribute: m_LocalEulerAngles.y
    path: Torso/TorsoUpper/LeftArm/LeftForearm/LeftHand
    classID: 4
    script: {fileID: 0}
  - curve:
      serializedVersion: 2
      m_Curve: []
      m_PreInfinity: 2
      m_PostInfinity: 2
      m_RotationOrder: 4
    attribute: m_LocalEulerAngles.x
    path: Torso/TorsoUpper/LeftArm/LeftForearm/LeftHand
    classID: 4
    script: {fileID: 0}
  - curve:
      serializedVersion: 2
      m_Curve: []
      m_PreInfinity: 2
      m_PostInfinity: 2
      m_RotationOrder: 4
    attribute: m_LocalEulerAngles.z
    path: Torso
    classID: 4
    script: {fileID: 0}
  - curve:
      serializedVersion: 2
      m_Curve: []
      m_PreInfinity: 2
      m_PostInfinity: 2
      m_RotationOrder: 4
    attribute: m_LocalEulerAngles.y
    path: Torso
    classID: 4
    script: {fileID: 0}
  - curve:
      serializedVersion: 2
      m_Curve: []
      m_PreInfinity: 2
      m_PostInfinity: 2
      m_RotationOrder: 4
    attribute: m_LocalEulerAngles.x
    path: Torso
    classID: 4
    script: {fileID: 0}
  - curve:
      serializedVersion: 2
      m_Curve: []
      m_PreInfinity: 2
      m_PostInfinity: 2
      m_RotationOrder: 4
    attribute: m_LocalEulerAngles.x
    path: Torso/TorsoUpper/RightArm/RightForearm
    classID: 4
    script: {fileID: 0}
  - curve:
      serializedVersion: 2
      m_Curve: []
      m_PreInfinity: 2
      m_PostInfinity: 2
      m_RotationOrder: 4
    attribute: m_LocalEulerAngles.y
    path: Torso/TorsoUpper/RightArm/RightForearm
    classID: 4
    script: {fileID: 0}
  - curve:
      serializedVersion: 2
      m_Curve: []
      m_PreInfinity: 2
      m_PostInfinity: 2
      m_RotationOrder: 4
    attribute: m_LocalEulerAngles.z
    path: Torso/TorsoUpper/RightArm/RightForearm
    classID: 4
    script: {fileID: 0}
  m_HasGenericRootTransform: 0
  m_HasMotionFloatCurves: 0
  m_GenerateMotionCurves: 0
  m_Events: []
